184.184.170.74 - - [17/Dec/2018:06:45:34 +0000] "GET / HTTP/1.0" 200 612 "-" "-"
194.190.42.132 - - [17/Dec/2018:06:53:56 +0000] "GET / HTTP/1.1" 200 612 "-" "Mozilla/5.0 (Windows NT 6.1; WOW64) AppleWebKit/537.36 (KHTML, like Gecko) Chrome/52.0.2743.116 Safari/537.36"
70.42.131.170 - - [17/Dec/2018:06:59:45 +0000] "GET / HTTP/1.1" 301 194 "-" "Mozilla/4.0 (compatible; MSIE 8.0; Windows NT 6.1; WOW64; Trident/4.0; SLCC2; .NET CLR 2.0.50727; .NET CLR 3.5.30729; .NET CLR 3.0.30729; Media Center PC 6.0; .NET4.0C; .NET4.0E; InfoPath.2)"
35.233.220.21 - - [17/Dec/2018:07:08:06 +0000] "GET / HTTP/1.1" 200 396 "-" "Mozilla/5.0 zgrab/0.x"
89.169.150.76 - - [17/Dec/2018:07:45:25 +0000] "GET /Streaming/channels/1/picture/?auth=YWRtaW46 HTTP/1.1" 400 182 "-" "-"
109.79.190.145 - - [17/Dec/2018:07:55:58 +0000] "GET / HTTP/1.0" 200 612 "-" "-"
68.183.214.68 - - [17/Dec/2018:07:56:07 +0000] "GET / HTTP/1.1" 301 194 "http://itroot.org/cb/56874a3879" "Mozilla/4.0 (compatible;itroot/1.0;+http://itroot.org/)"
91.236.62.45 - - [17/Dec/2018:08:14:17 +0000] "GET / HTTP/1.0" 200 612 "-" "-"
191.115.45.229 - - [17/Dec/2018:08:25:23 +0000] "GET / HTTP/1.1" 200 612 "-" "Mozilla/5.0 (Windows NT 6.1; WOW64) AppleWebKit/537.36 (KHTML, like Gecko) Chrome/52.0.2743.116 Safari/537.36"
46.101.9.216 - - [17/Dec/2018:08:38:45 +0000] "GET / HTTP/1.1" 301 194 "-" "Mozilla/5.0 (Windows NT 6.0) AppleWebKit/537.36 (KHTML, like Gecko) Chrome/34.0.1847.116 Safari/537.36"
200.35.39.182 - - [17/Dec/2018:09:35:18 +0000] "GET / HTTP/1.0" 200 612 "-" "-"
171.248.61.218 - - [17/Dec/2018:09:47:38 +0000] "GET / HTTP/1.0" 200 612 "-" "-"
186.155.213.156 - - [17/Dec/2018:10:06:45 +0000] "GET / HTTP/1.0" 200 612 "-" "-"
170.80.177.194 - - [17/Dec/2018:10:51:38 +0000] "GET / HTTP/1.0" 200 612 "-" "-"
5.8.54.27 - - [17/Dec/2018:11:14:03 +0000] "GET /index.php?s=/Index/\x5Cthink\x5Capp/invokefunction&function=call_user_func_array&vars[0]=md5&vars[1][]=HelloThinkPHP HTTP/1.1" 404 209 "-" "Mozilla/5.0 (Windows NT 10.0; Win64; x64) AppleWebKit/537.36 (KHTML, like Gecko) Chrome/67.0.3396.87 Safari/537.36"
5.8.54.27 - - [17/Dec/2018:11:14:03 +0000] "GET /public/index.php?s=/index/\x5Cthink\x5Capp/invokefunction&function=call_user_func_array&vars[0]=md5&vars[1][]=HelloThinkPHP HTTP/1.1" 404 209 "-" "Mozilla/5.0 (Windows NT 10.0; Win64; x64) AppleWebKit/537.36 (KHTML, like Gecko) Chrome/67.0.3396.87 Safari/537.36"
5.8.54.27 - - [17/Dec/2018:11:14:04 +0000] "GET /html/public/index.php?s=/index/\x5Cthink\x5Capp/invokefunction&function=call_user_func_array&vars[0]=md5&vars[1][]=HelloThinkPHP HTTP/1.1" 404 209 "-" "Mozilla/5.0 (Windows NT 10.0; Win64; x64) AppleWebKit/537.36 (KHTML, like Gecko) Chrome/67.0.3396.87 Safari/537.36"
5.8.54.27 - - [17/Dec/2018:11:14:04 +0000] "GET /thinkphp/public/index.php?s=/index/\x5Cthink\x5Capp/invokefunction&function=call_user_func_array&vars[0]=md5&vars[1][]=HelloThinkPHP HTTP/1.1" 404 209 "-" "Mozilla/5.0 (Windows NT 10.0; Win64; x64) AppleWebKit/537.36 (KHTML, like Gecko) Chrome/67.0.3396.87 Safari/537.36"
5.8.54.27 - - [17/Dec/2018:11:14:04 +0000] "GET /thinkphp/html/public/index.php?s=/index/\x5Cthink\x5Capp/invokefunction&function=call_user_func_array&vars[0]=md5&vars[1][]=HelloThinkPHP HTTP/1.1" 404 209 "-" "Mozilla/5.0 (Windows NT 10.0; Win64; x64) AppleWebKit/537.36 (KHTML, like Gecko) Chrome/67.0.3396.87 Safari/537.36"
5.8.54.27 - - [17/Dec/2018:11:14:04 +0000] "GET /TP/index.php?s=/index/\x5Cthink\x5Capp/invokefunction&function=call_user_func_array&vars[0]=md5&vars[1][]=HelloThinkPHP HTTP/1.1" 404 209 "-" "Mozilla/5.0 (Windows NT 10.0; Win64; x64) AppleWebKit/537.36 (KHTML, like Gecko) Chrome/67.0.3396.87 Safari/537.36"
5.8.54.27 - - [17/Dec/2018:11:14:04 +0000] "GET /TP/public/index.php?s=/index/\x5Cthink\x5Capp/invokefunction&function=call_user_func_array&vars[0]=md5&vars[1][]=HelloThinkPHP HTTP/1.1" 404 209 "-" "Mozilla/5.0 (Windows NT 10.0; Win64; x64) AppleWebKit/537.36 (KHTML, like Gecko) Chrome/67.0.3396.87 Safari/537.36"
5.8.54.27 - - [17/Dec/2018:11:14:04 +0000] "GET /TP/html/public/index.php?s=/index/\x5Cthink\x5Capp/invokefunction&function=call_user_func_array&vars[0]=md5&vars[1][]=HelloThinkPHP HTTP/1.1" 404 209 "-" "Mozilla/5.0 (Windows NT 10.0; Win64; x64) AppleWebKit/537.36 (KHTML, like Gecko) Chrome/67.0.3396.87 Safari/537.36"
115.73.33.208 - - [17/Dec/2018:11:59:40 +0000] "GET / HTTP/1.0" 200 612 "-" "-"
41.207.248.11 - - [17/Dec/2018:12:09:17 +0000] "GET / HTTP/1.0" 200 612 "-" "-"
125.64.94.197 - - [17/Dec/2018:12:23:47 +0000] "GET / HTTP/1.0" 200 612 "-" "-"
61.219.11.151 - - [17/Dec/2018:13:04:08 +0000] "\x01\x02\x03\x04\x00\x00\x00\x00\x00\x00\x00\x00\x00\x00\x00\x00\x00\x00\x00\x00\x00\x00\x00\x00\x00\x00\x00\x00\x00\x00\x00\x00\x00\x00\x00\x00\x00\x00\x00\x00\x00\x00\x00\x00\x00\x00\x00\x00\x00\x00\x00\x00\x00\x00\x00\x00\x00\x00\x00\x00\x00\x00\x00\x00\x00\x00\x00\x00\x00\x00\x00\x00\x00\x00\x00\x00\x00\x00\x00\x00\x00\x00\x00\x00\x00\x00\x00\x00\x00\x00\x00\x00\x00\x00\x00\x00\x00\x00\x00\x00\x00\x00\x00\x00\x00\x00\x00\x00\x00\x00\x00\x00\x00\x00\x00\x00\x00\x00\x00\x00\x00\x00\x00\x00\x00\x00\x00\x00\x00\x00\x00\x00\x00\x00\x00\x00\x00\x00\x00\x00\x00\x00\x00\x00\x00\x00\x00\x00\x00\x00\x00\x00\x00\x00\x00\x00\x00\x00\x00\x00\x00\x00\x00\x00\x00\x00\x00\x00\x00\x00\x00\x00\x00\x00\x00\x00\x00\x00\x00\x00\x00\x00\x00\x00\x00\x00\x00\x00\x00\x00\x00\x00\x00\x00\x00\x00\x00\x00\x00\x00\x00\x00\x00\x00\x00\x00\x00\x00\x00\x00\x00\x00\x00\x00\x00\x00\x00\x00\x00\x00\x00\x00\x00\x00\x00\x00\x00\x00\x00\x00\x00\x00\x00\x00\x00\x00\x00\x00\x00\x00\x00\x00\x00\x00\x00\x00\x00\x00\x00\x00\x00\x00\x00\x00\x00\x00" 400 182 "-" "-"
45.114.172.23 - - [17/Dec/2018:13:35:25 +0000] "GET / HTTP/1.1" 200 396 "-" "Mozilla/5.0 zgrab/0.x"
113.14.240.22 - - [17/Dec/2018:13:40:02 +0000] "POST /GponForm/diag_Form?images/ HTTP/1.1" 400 182 "-" "Yakuza/2.0"
118.24.26.150 - - [17/Dec/2018:13:49:55 +0000] "PROPFIND / HTTP/1.1" 405 182 "-" "-"
118.24.26.150 - - [17/Dec/2018:13:49:55 +0000] "GET /webdav/ HTTP/1.1" 404 178 "-" "Mozilla/5.0"
118.24.26.150 - - [17/Dec/2018:13:49:56 +0000] "GET /help.php HTTP/1.1" 404 580 "-" "Mozilla/5.0 (X11; Linux x86_64) AppleWebKit/537.36 (KHTML, like Gecko) Chrome/56.0.2924.87 Safari/537.36"
118.24.26.150 - - [17/Dec/2018:13:49:56 +0000] "GET /java.php HTTP/1.1" 404 580 "-" "Mozilla/5.0 (X11; Linux x86_64) AppleWebKit/537.36 (KHTML, like Gecko) Chrome/56.0.2924.87 Safari/537.36"
118.24.26.150 - - [17/Dec/2018:13:49:56 +0000] "GET /_query.php HTTP/1.1" 404 580 "-" "Mozilla/5.0 (X11; Linux x86_64) AppleWebKit/537.36 (KHTML, like Gecko) Chrome/56.0.2924.87 Safari/537.36"
118.24.26.150 - - [17/Dec/2018:13:49:56 +0000] "GET /test.php HTTP/1.1" 404 580 "-" "Mozilla/5.0 (X11; Linux x86_64) AppleWebKit/537.36 (KHTML, like Gecko) Chrome/56.0.2924.87 Safari/537.36"
118.24.26.150 - - [17/Dec/2018:13:49:57 +0000] "GET /db_cts.php HTTP/1.1" 404 580 "-" "Mozilla/5.0 (X11; Linux x86_64) AppleWebKit/537.36 (KHTML, like Gecko) Chrome/56.0.2924.87 Safari/537.36"
118.24.26.150 - - [17/Dec/2018:13:49:57 +0000] "GET /db_pma.php HTTP/1.1" 404 580 "-" "Mozilla/5.0 (X11; Linux x86_64) AppleWebKit/537.36 (KHTML, like Gecko) Chrome/56.0.2924.87 Safari/537.36"
118.24.26.150 - - [17/Dec/2018:13:49:58 +0000] "GET /logon.php HTTP/1.1" 404 580 "-" "Mozilla/5.0 (X11; Linux x86_64) AppleWebKit/537.36 (KHTML, like Gecko) Chrome/56.0.2924.87 Safari/537.36"
118.24.26.150 - - [17/Dec/2018:13:49:58 +0000] "GET /help-e.php HTTP/1.1" 404 580 "-" "Mozilla/5.0 (X11; Linux x86_64) AppleWebKit/537.36 (KHTML, like Gecko) Chrome/56.0.2924.87 Safari/537.36"
118.24.26.150 - - [17/Dec/2018:13:49:59 +0000] "GET /license.php HTTP/1.1" 404 580 "-" "Mozilla/5.0 (X11; Linux x86_64) AppleWebKit/537.36 (KHTML, like Gecko) Chrome/56.0.2924.87 Safari/537.36"
118.24.26.150 - - [17/Dec/2018:13:49:59 +0000] "GET /log.php HTTP/1.1" 404 580 "-" "Mozilla/5.0 (X11; Linux x86_64) AppleWebKit/537.36 (KHTML, like Gecko) Chrome/56.0.2924.87 Safari/537.36"
118.24.26.150 - - [17/Dec/2018:13:50:00 +0000] "GET /hell.php HTTP/1.1" 404 580 "-" "Mozilla/5.0 (X11; Linux x86_64) AppleWebKit/537.36 (KHTML, like Gecko) Chrome/56.0.2924.87 Safari/537.36"
118.24.26.150 - - [17/Dec/2018:13:50:00 +0000] "GET /pmd_online.php HTTP/1.1" 404 580 "-" "Mozilla/5.0 (X11; Linux x86_64) AppleWebKit/537.36 (KHTML, like Gecko) Chrome/56.0.2924.87 Safari/537.36"
118.24.26.150 - - [17/Dec/2018:13:50:00 +0000] "GET /x.php HTTP/1.1" 404 580 "-" "Mozilla/5.0 (X11; Linux x86_64) AppleWebKit/537.36 (KHTML, like Gecko) Chrome/56.0.2924.87 Safari/537.36"
118.24.26.150 - - [17/Dec/2018:13:50:00 +0000] "GET /shell.php HTTP/1.1" 404 580 "-" "Mozilla/5.0 (X11; Linux x86_64) AppleWebKit/537.36 (KHTML, like Gecko) Chrome/56.0.2924.87 Safari/537.36"
118.24.26.150 - - [17/Dec/2018:13:50:01 +0000] "GET /htdocs.php HTTP/1.1" 404 580 "-" "Mozilla/5.0 (X11; Linux x86_64) AppleWebKit/537.36 (KHTML, like Gecko) Chrome/56.0.2924.87 Safari/537.36"
118.24.26.150 - - [17/Dec/2018:13:50:01 +0000] "GET /desktop.ini.php HTTP/1.1" 404 580 "-" "Mozilla/5.0 (X11; Linux x86_64) AppleWebKit/537.36 (KHTML, like Gecko) Chrome/56.0.2924.87 Safari/537.36"
118.24.26.150 - - [17/Dec/2018:13:50:01 +0000] "GET /z.php HTTP/1.1" 404 580 "-" "Mozilla/5.0 (X11; Linux x86_64) AppleWebKit/537.36 (KHTML, like Gecko) Chrome/56.0.2924.87 Safari/537.36"
118.24.26.150 - - [17/Dec/2018:13:50:01 +0000] "GET /lala.php HTTP/1.1" 404 580 "-" "Mozilla/5.0 (X11; Linux x86_64) AppleWebKit/537.36 (KHTML, like Gecko) Chrome/56.0.2924.87 Safari/537.36"
118.24.26.150 - - [17/Dec/2018:13:50:02 +0000] "GET /lala-dpr.php HTTP/1.1" 404 580 "-" "Mozilla/5.0 (X11; Linux x86_64) AppleWebKit/537.36 (KHTML, like Gecko) Chrome/56.0.2924.87 Safari/537.36"
118.24.26.150 - - [17/Dec/2018:13:50:02 +0000] "GET /wpc.php HTTP/1.1" 404 580 "-" "Mozilla/5.0 (X11; Linux x86_64) AppleWebKit/537.36 (KHTML, like Gecko) Chrome/56.0.2924.87 Safari/537.36"
118.24.26.150 - - [17/Dec/2018:13:50:03 +0000] "GET /wpo.php HTTP/1.1" 404 580 "-" "Mozilla/5.0 (X11; Linux x86_64) AppleWebKit/537.36 (KHTML, like Gecko) Chrome/56.0.2924.87 Safari/537.36"
118.24.26.150 - - [17/Dec/2018:13:50:03 +0000] "GET /text.php HTTP/1.1" 404 580 "-" "Mozilla/5.0 (X11; Linux x86_64) AppleWebKit/537.36 (KHTML, like Gecko) Chrome/56.0.2924.87 Safari/537.36"
118.24.26.150 - - [17/Dec/2018:13:50:03 +0000] "GET /wp-config.php HTTP/1.1" 404 580 "-" "Mozilla/5.0 (X11; Linux x86_64) AppleWebKit/537.36 (KHTML, like Gecko) Chrome/56.0.2924.87 Safari/537.36"
118.24.26.150 - - [17/Dec/2018:13:50:04 +0000] "GET /muhstik.php HTTP/1.1" 404 580 "-" "Mozilla/5.0 (X11; Linux x86_64) AppleWebKit/537.36 (KHTML, like Gecko) Chrome/56.0.2924.87 Safari/537.36"
118.24.26.150 - - [17/Dec/2018:13:50:04 +0000] "GET /muhstik2.php HTTP/1.1" 404 580 "-" "Mozilla/5.0 (X11; Linux x86_64) AppleWebKit/537.36 (KHTML, like Gecko) Chrome/56.0.2924.87 Safari/537.36"
118.24.26.150 - - [17/Dec/2018:13:50:04 +0000] "GET /muhstiks.php HTTP/1.1" 404 580 "-" "Mozilla/5.0 (X11; Linux x86_64) AppleWebKit/537.36 (KHTML, like Gecko) Chrome/56.0.2924.87 Safari/537.36"
118.24.26.150 - - [17/Dec/2018:13:50:04 +0000] "GET /muhstik-dpr.php HTTP/1.1" 404 580 "-" "Mozilla/5.0 (X11; Linux x86_64) AppleWebKit/537.36 (KHTML, like Gecko) Chrome/56.0.2924.87 Safari/537.36"
118.24.26.150 - - [17/Dec/2018:13:50:05 +0000] "GET /lol.php HTTP/1.1" 404 580 "-" "Mozilla/5.0 (X11; Linux x86_64) AppleWebKit/537.36 (KHTML, like Gecko) Chrome/56.0.2924.87 Safari/537.36"
118.24.26.150 - - [17/Dec/2018:13:50:05 +0000] "GET /uploader.php HTTP/1.1" 404 580 "-" "Mozilla/5.0 (X11; Linux x86_64) AppleWebKit/537.36 (KHTML, like Gecko) Chrome/56.0.2924.87 Safari/537.36"
118.24.26.150 - - [17/Dec/2018:13:50:05 +0000] "GET /cmd.php HTTP/1.1" 404 580 "-" "Mozilla/5.0 (X11; Linux x86_64) AppleWebKit/537.36 (KHTML, like Gecko) Chrome/56.0.2924.87 Safari/537.36"
118.24.26.150 - - [17/Dec/2018:13:50:05 +0000] "GET /cmx.php HTTP/1.1" 404 580 "-" "Mozilla/5.0 (X11; Linux x86_64) AppleWebKit/537.36 (KHTML, like Gecko) Chrome/56.0.2924.87 Safari/537.36"
118.24.26.150 - - [17/Dec/2018:13:50:06 +0000] "GET /cmv.php HTTP/1.1" 404 580 "-" "Mozilla/5.0 (X11; Linux x86_64) AppleWebKit/537.36 (KHTML, like Gecko) Chrome/56.0.2924.87 Safari/537.36"
118.24.26.150 - - [17/Dec/2018:13:50:06 +0000] "GET /cmdd.php HTTP/1.1" 404 580 "-" "Mozilla/5.0 (X11; Linux x86_64) AppleWebKit/537.36 (KHTML, like Gecko) Chrome/56.0.2924.87 Safari/537.36"
118.24.26.150 - - [17/Dec/2018:13:50:07 +0000] "GET /knal.php HTTP/1.1" 404 580 "-" "Mozilla/5.0 (X11; Linux x86_64) AppleWebKit/537.36 (KHTML, like Gecko) Chrome/56.0.2924.87 Safari/537.36"
118.24.26.150 - - [17/Dec/2018:13:50:07 +0000] "GET /cmd.php HTTP/1.1" 404 580 "-" "Mozilla/5.0 (X11; Linux x86_64) AppleWebKit/537.36 (KHTML, like Gecko) Chrome/56.0.2924.87 Safari/537.36"
118.24.26.150 - - [17/Dec/2018:13:50:08 +0000] "GET /shell.php HTTP/1.1" 404 580 "-" "Mozilla/5.0 (X11; Linux x86_64) AppleWebKit/537.36 (KHTML, like Gecko) Chrome/56.0.2924.87 Safari/537.36"
118.24.26.150 - - [17/Dec/2018:13:50:08 +0000] "GET /appserv.php HTTP/1.1" 404 580 "-" "Mozilla/5.0 (X11; Linux x86_64) AppleWebKit/537.36 (KHTML, like Gecko) Chrome/56.0.2924.87 Safari/537.36"
118.24.26.150 - - [17/Dec/2018:13:50:09 +0000] "GET /scripts/setup.php HTTP/1.1" 404 580 "-" "Mozilla/5.0 (X11; Linux x86_64) AppleWebKit/537.36 (KHTML, like Gecko) Chrome/56.0.2924.87 Safari/537.36"
118.24.26.150 - - [17/Dec/2018:13:50:10 +0000] "GET /phpmyadmin/scripts/setup.php HTTP/1.1" 404 580 "-" "Mozilla/5.0 (X11; Linux x86_64) AppleWebKit/537.36 (KHTML, like Gecko) Chrome/56.0.2924.87 Safari/537.36"
118.24.26.150 - - [17/Dec/2018:13:50:10 +0000] "GET /phpMyAdmin/scripts/setup.php HTTP/1.1" 404 580 "-" "Mozilla/5.0 (X11; Linux x86_64) AppleWebKit/537.36 (KHTML, like Gecko) Chrome/56.0.2924.87 Safari/537.36"
118.24.26.150 - - [17/Dec/2018:13:50:10 +0000] "GET /phpmyadmin/scripts/db___.init.php HTTP/1.1" 404 580 "-" "Mozilla/5.0 (X11; Linux x86_64) AppleWebKit/537.36 (KHTML, like Gecko) Chrome/56.0.2924.87 Safari/537.36"
118.24.26.150 - - [17/Dec/2018:13:50:10 +0000] "GET /phpMyAdmin/scripts/db___.init.php HTTP/1.1" 404 580 "-" "Mozilla/5.0 (X11; Linux x86_64) AppleWebKit/537.36 (KHTML, like Gecko) Chrome/56.0.2924.87 Safari/537.36"
118.24.26.150 - - [17/Dec/2018:13:50:11 +0000] "GET /plugins/weathermap/editor.php HTTP/1.1" 404 580 "-" "Mozilla/5.0 (X11; Linux x86_64) AppleWebKit/537.36 (KHTML, like Gecko) Chrome/56.0.2924.87 Safari/537.36"
118.24.26.150 - - [17/Dec/2018:13:50:11 +0000] "GET /cacti/plugins/weathermap/editor.php HTTP/1.1" 404 580 "-" "Mozilla/5.0 (X11; Linux x86_64) AppleWebKit/537.36 (KHTML, like Gecko) Chrome/56.0.2924.87 Safari/537.36"
118.24.26.150 - - [17/Dec/2018:13:50:11 +0000] "GET /index.php?s=/index/\x5Cthink\x5Capp/invokefunction&function=call_user_func_array&vars[0]=md5&vars[1][]=HelloThinkPHP HTTP/1.1" 404 580 "-" "Mozilla/5.0 (X11; Linux x86_64) AppleWebKit/537.36 (KHTML, like Gecko) Chrome/56.0.2924.87 Safari/537.36"
118.24.26.150 - - [17/Dec/2018:13:50:11 +0000] "GET /public/index.php?s=/index/\x5Cthink\x5Capp/invokefunction&function=call_user_func_array&vars[0]=md5&vars[1][]=HelloThinkPHP HTTP/1.1" 404 580 "-" "Mozilla/5.0 (X11; Linux x86_64) AppleWebKit/537.36 (KHTML, like Gecko) Chrome/56.0.2924.87 Safari/537.36"
118.24.26.150 - - [17/Dec/2018:13:50:12 +0000] "GET /html/public/index.php?s=/index/\x5Cthink\x5Capp/invokefunction&function=call_user_func_array&vars[0]=md5&vars[1][]=HelloThinkPHP HTTP/1.1" 404 580 "-" "Mozilla/5.0 (X11; Linux x86_64) AppleWebKit/537.36 (KHTML, like Gecko) Chrome/56.0.2924.87 Safari/537.36"
118.24.26.150 - - [17/Dec/2018:13:50:13 +0000] "GET /thinkphp/public/index.php?s=/index/\x5Cthink\x5Capp/invokefunction&function=call_user_func_array&vars[0]=md5&vars[1][]=HelloThinkPHP HTTP/1.1" 404 580 "-" "Mozilla/5.0 (X11; Linux x86_64) AppleWebKit/537.36 (KHTML, like Gecko) Chrome/56.0.2924.87 Safari/537.36"
118.24.26.150 - - [17/Dec/2018:13:50:16 +0000] "GET /thinkphp/html/public/index.php?s=/index/\x5Cthink\x5Capp/invokefunction&function=call_user_func_array&vars[0]=md5&vars[1][]=HelloThinkPHP HTTP/1.1" 404 580 "-" "Mozilla/5.0 (X11; Linux x86_64) AppleWebKit/537.36 (KHTML, like Gecko) Chrome/56.0.2924.87 Safari/537.36"
118.24.26.150 - - [17/Dec/2018:13:50:16 +0000] "GET /TP/index.php?s=/index/\x5Cthink\x5Capp/invokefunction&function=call_user_func_array&vars[0]=md5&vars[1][]=HelloThinkPHP HTTP/1.1" 404 580 "-" "Mozilla/5.0 (X11; Linux x86_64) AppleWebKit/537.36 (KHTML, like Gecko) Chrome/56.0.2924.87 Safari/537.36"
118.24.26.150 - - [17/Dec/2018:13:50:16 +0000] "GET /TP/public/index.php?s=/index/\x5Cthink\x5Capp/invokefunction&function=call_user_func_array&vars[0]=md5&vars[1][]=HelloThinkPHP HTTP/1.1" 404 580 "-" "Mozilla/5.0 (X11; Linux x86_64) AppleWebKit/537.36 (KHTML, like Gecko) Chrome/56.0.2924.87 Safari/537.36"
118.24.26.150 - - [17/Dec/2018:13:50:17 +0000] "GET /TP/html/public/index.php?s=/index/\x5Cthink\x5Capp/invokefunction&function=call_user_func_array&vars[0]=md5&vars[1][]=HelloThinkPHP HTTP/1.1" 404 580 "-" "Mozilla/5.0 (X11; Linux x86_64) AppleWebKit/537.36 (KHTML, like Gecko) Chrome/56.0.2924.87 Safari/537.36"
118.24.26.150 - - [17/Dec/2018:13:50:17 +0000] "POST /wuwu11.php HTTP/1.1" 404 178 "-" "Mozilla/5.0 (X11; Ubuntu; Linux x86_64; rv:47.0) Gecko/20100101 Firefox/47.0"
118.24.26.150 - - [17/Dec/2018:13:50:18 +0000] "POST /xw.php HTTP/1.1" 404 178 "-" "Mozilla/5.0 (X11; Ubuntu; Linux x86_64; rv:47.0) Gecko/20100101 Firefox/47.0"
118.24.26.150 - - [17/Dec/2018:13:50:18 +0000] "POST /xw1.php HTTP/1.1" 404 178 "-" "Mozilla/5.0 (X11; Ubuntu; Linux x86_64; rv:47.0) Gecko/20100101 Firefox/47.0"
118.24.26.150 - - [17/Dec/2018:13:50:18 +0000] "POST /9678.php HTTP/1.1" 404 178 "-" "Mozilla/5.0 (X11; Ubuntu; Linux x86_64; rv:47.0) Gecko/20100101 Firefox/47.0"
118.24.26.150 - - [17/Dec/2018:13:50:18 +0000] "POST /wc.php HTTP/1.1" 404 178 "-" "Mozilla/5.0 (X11; Ubuntu; Linux x86_64; rv:47.0) Gecko/20100101 Firefox/47.0"
118.24.26.150 - - [17/Dec/2018:13:50:19 +0000] "POST /xx.php HTTP/1.1" 404 178 "-" "Mozilla/5.0 (X11; Ubuntu; Linux x86_64; rv:47.0) Gecko/20100101 Firefox/47.0"
118.24.26.150 - - [17/Dec/2018:13:50:19 +0000] "POST /s.php HTTP/1.1" 404 178 "-" "Mozilla/5.0 (X11; Ubuntu; Linux x86_64; rv:47.0) Gecko/20100101 Firefox/47.0"
118.24.26.150 - - [17/Dec/2018:13:50:19 +0000] "POST /w.php HTTP/1.1" 404 178 "-" "Mozilla/5.0 (X11; Ubuntu; Linux x86_64; rv:47.0) Gecko/20100101 Firefox/47.0"
118.24.26.150 - - [17/Dec/2018:13:50:19 +0000] "POST /sheep.php HTTP/1.1" 404 178 "-" "Mozilla/5.0 (X11; Ubuntu; Linux x86_64; rv:47.0) Gecko/20100101 Firefox/47.0"
118.24.26.150 - - [17/Dec/2018:13:50:20 +0000] "POST /qaq.php HTTP/1.1" 404 178 "-" "Mozilla/5.0 (X11; Ubuntu; Linux x86_64; rv:47.0) Gecko/20100101 Firefox/47.0"
118.24.26.150 - - [17/Dec/2018:13:50:21 +0000] "POST /db.init.php HTTP/1.1" 404 178 "-" "Mozilla/5.0 (X11; Ubuntu; Linux x86_64; rv:47.0) Gecko/20100101 Firefox/47.0"
118.24.26.150 - - [17/Dec/2018:13:50:21 +0000] "POST /db_session.init.php HTTP/1.1" 404 178 "-" "Mozilla/5.0 (X11; Ubuntu; Linux x86_64; rv:47.0) Gecko/20100101 Firefox/47.0"
118.24.26.150 - - [17/Dec/2018:13:50:22 +0000] "POST /db__.init.php HTTP/1.1" 404 178 "-" "Mozilla/5.0 (X11; Ubuntu; Linux x86_64; rv:47.0) Gecko/20100101 Firefox/47.0"
118.24.26.150 - - [17/Dec/2018:13:50:23 +0000] "POST /wp-admins.php HTTP/1.1" 404 178 "-" "Mozilla/5.0 (X11; Ubuntu; Linux x86_64; rv:47.0) Gecko/20100101 Firefox/47.0"
118.24.26.150 - - [17/Dec/2018:13:50:23 +0000] "POST /m.php?pbid=open HTTP/1.1" 404 178 "-" "Mozilla/5.0 (X11; Ubuntu; Linux x86_64; rv:47.0) Gecko/20100101 Firefox/47.0"
118.24.26.150 - - [17/Dec/2018:13:50:24 +0000] "POST /db_dataml.php HTTP/1.1" 404 178 "-" "Mozilla/5.0 (X11; Ubuntu; Linux x86_64; rv:47.0) Gecko/20100101 Firefox/47.0"
118.24.26.150 - - [17/Dec/2018:13:50:24 +0000] "POST /db_desql.php HTTP/1.1" 404 178 "-" "Mozilla/5.0 (X11; Ubuntu; Linux x86_64; rv:47.0) Gecko/20100101 Firefox/47.0"
118.24.26.150 - - [17/Dec/2018:13:50:25 +0000] "POST /mx.php HTTP/1.1" 404 178 "-" "Mozilla/5.0 (X11; Ubuntu; Linux x86_64; rv:47.0) Gecko/20100101 Firefox/47.0"
118.24.26.150 - - [17/Dec/2018:13:50:27 +0000] "POST /wshell.php HTTP/1.1" 404 178 "-" "Mozilla/5.0 (X11; Ubuntu; Linux x86_64; rv:47.0) Gecko/20100101 Firefox/47.0"
118.24.26.150 - - [17/Dec/2018:13:50:27 +0000] "POST /xshell.php HTTP/1.1" 404 178 "-" "Mozilla/5.0 (X11; Ubuntu; Linux x86_64; rv:47.0) Gecko/20100101 Firefox/47.0"
118.24.26.150 - - [17/Dec/2018:13:50:28 +0000] "POST /qq.php HTTP/1.1" 404 178 "-" "Mozilla/5.0 (X11; Ubuntu; Linux x86_64; rv:47.0) Gecko/20100101 Firefox/47.0"
118.24.26.150 - - [17/Dec/2018:13:50:31 +0000] "POST /conflg.php HTTP/1.1" 404 178 "-" "Mozilla/5.0 (X11; Ubuntu; Linux x86_64; rv:47.0) Gecko/20100101 Firefox/47.0"
118.24.26.150 - - [17/Dec/2018:13:50:31 +0000] "POST /lindex.php HTTP/1.1" 404 178 "-" "Mozilla/5.0 (X11; Ubuntu; Linux x86_64; rv:47.0) Gecko/20100101 Firefox/47.0"
118.24.26.150 - - [17/Dec/2018:13:50:32 +0000] "POST /phpstudy.php HTTP/1.1" 404 178 "-" "Mozilla/5.0 (X11; Ubuntu; Linux x86_64; rv:47.0) Gecko/20100101 Firefox/47.0"
118.24.26.150 - - [17/Dec/2018:13:50:32 +0000] "POST /phpStudy.php HTTP/1.1" 404 178 "-" "Mozilla/5.0 (X11; Ubuntu; Linux x86_64; rv:47.0) Gecko/20100101 Firefox/47.0"
118.24.26.150 - - [17/Dec/2018:13:50:33 +0000] "POST /weixiao.php HTTP/1.1" 404 178 "-" "Mozilla/5.0 (X11; Ubuntu; Linux x86_64; rv:47.0) Gecko/20100101 Firefox/47.0"
118.24.26.150 - - [17/Dec/2018:13:50:34 +0000] "POST /feixiang.php HTTP/1.1" 404 178 "-" "Mozilla/5.0 (X11; Ubuntu; Linux x86_64; rv:47.0) Gecko/20100101 Firefox/47.0"
118.24.26.150 - - [17/Dec/2018:13:50:35 +0000] "POST /ak47.php HTTP/1.1" 404 178 "-" "Mozilla/5.0 (X11; Ubuntu; Linux x86_64; rv:47.0) Gecko/20100101 Firefox/47.0"
118.24.26.150 - - [17/Dec/2018:13:50:35 +0000] "POST /ak48.php HTTP/1.1" 404 178 "-" "Mozilla/5.0 (X11; Ubuntu; Linux x86_64; rv:47.0) Gecko/20100101 Firefox/47.0"
118.24.26.150 - - [17/Dec/2018:13:50:36 +0000] "POST /xiao.php HTTP/1.1" 404 178 "-" "Mozilla/5.0 (X11; Ubuntu; Linux x86_64; rv:47.0) Gecko/20100101 Firefox/47.0"
118.24.26.150 - - [17/Dec/2018:13:50:36 +0000] "POST /yao.php HTTP/1.1" 404 178 "-" "Mozilla/5.0 (X11; Ubuntu; Linux x86_64; rv:47.0) Gecko/20100101 Firefox/47.0"
118.24.26.150 - - [17/Dec/2018:13:50:37 +0000] "POST /defect.php HTTP/1.1" 404 178 "-" "Mozilla/5.0 (X11; Ubuntu; Linux x86_64; rv:47.0) Gecko/20100101 Firefox/47.0"
118.24.26.150 - - [17/Dec/2018:13:50:37 +0000] "POST /webslee.php HTTP/1.1" 404 178 "-" "Mozilla/5.0 (X11; Ubuntu; Linux x86_64; rv:47.0) Gecko/20100101 Firefox/47.0"
118.24.26.150 - - [17/Dec/2018:13:50:38 +0000] "POST /q.php HTTP/1.1" 404 178 "-" "Mozilla/5.0 (X11; Ubuntu; Linux x86_64; rv:47.0) Gecko/20100101 Firefox/47.0"
118.24.26.150 - - [17/Dec/2018:13:50:39 +0000] "POST /pe.php HTTP/1.1" 404 178 "-" "Mozilla/5.0 (X11; Ubuntu; Linux x86_64; rv:47.0) Gecko/20100101 Firefox/47.0"
118.24.26.150 - - [17/Dec/2018:13:50:39 +0000] "POST /hm.php HTTP/1.1" 404 178 "-" "Mozilla/5.0 (X11; Ubuntu; Linux x86_64; rv:47.0) Gecko/20100101 Firefox/47.0"
118.24.26.150 - - [17/Dec/2018:13:50:40 +0000] "POST /cainiao.php HTTP/1.1" 404 178 "-" "Mozilla/5.0 (X11; Ubuntu; Linux x86_64; rv:47.0) Gecko/20100101 Firefox/47.0"
118.24.26.150 - - [17/Dec/2018:13:50:40 +0000] "POST /zuoshou.php HTTP/1.1" 404 178 "-" "Mozilla/5.0 (X11; Ubuntu; Linux x86_64; rv:47.0) Gecko/20100101 Firefox/47.0"
118.24.26.150 - - [17/Dec/2018:13:50:40 +0000] "POST /zuo.php HTTP/1.1" 404 178 "-" "Mozilla/5.0 (X11; Ubuntu; Linux x86_64; rv:47.0) Gecko/20100101 Firefox/47.0"
118.24.26.150 - - [17/Dec/2018:13:50:40 +0000] "POST /aotu.php HTTP/1.1" 404 178 "-" "Mozilla/5.0 (X11; Ubuntu; Linux x86_64; rv:47.0) Gecko/20100101 Firefox/47.0"
118.24.26.150 - - [17/Dec/2018:13:50:41 +0000] "POST /cmd.php HTTP/1.1" 404 178 "-" "Mozilla/5.0 (X11; Ubuntu; Linux x86_64; rv:47.0) Gecko/20100101 Firefox/47.0"
118.24.26.150 - - [17/Dec/2018:13:50:41 +0000] "POST /bak.php HTTP/1.1" 404 178 "-" "Mozilla/5.0 (X11; Ubuntu; Linux x86_64; rv:47.0) Gecko/20100101 Firefox/47.0"
118.24.26.150 - - [17/Dec/2018:13:50:43 +0000] "POST /system.php HTTP/1.1" 404 178 "-" "Mozilla/5.0 (X11; Ubuntu; Linux x86_64; rv:47.0) Gecko/20100101 Firefox/47.0"
118.24.26.150 - - [17/Dec/2018:13:50:43 +0000] "POST /l6.php HTTP/1.1" 404 178 "-" "Mozilla/5.0 (X11; Ubuntu; Linux x86_64; rv:47.0) Gecko/20100101 Firefox/47.0"
118.24.26.150 - - [17/Dec/2018:13:50:43 +0000] "POST /l7.php HTTP/1.1" 404 178 "-" "Mozilla/5.0 (X11; Ubuntu; Linux x86_64; rv:47.0) Gecko/20100101 Firefox/47.0"
118.24.26.150 - - [17/Dec/2018:13:50:44 +0000] "POST /l8.php HTTP/1.1" 404 178 "-" "Mozilla/5.0 (X11; Ubuntu; Linux x86_64; rv:47.0) Gecko/20100101 Firefox/47.0"
118.24.26.150 - - [17/Dec/2018:13:50:44 +0000] "POST /q.php HTTP/1.1" 404 178 "-" "Mozilla/5.0 (X11; Ubuntu; Linux x86_64; rv:47.0) Gecko/20100101 Firefox/47.0"
118.24.26.150 - - [17/Dec/2018:13:50:45 +0000] "POST /56.php HTTP/1.1" 404 178 "-" "Mozilla/5.0 (X11; Ubuntu; Linux x86_64; rv:47.0) Gecko/20100101 Firefox/47.0"
118.24.26.150 - - [17/Dec/2018:13:50:45 +0000] "POST /mz.php HTTP/1.1" 404 178 "-" "Mozilla/5.0 (X11; Ubuntu; Linux x86_64; rv:47.0) Gecko/20100101 Firefox/47.0"
118.24.26.150 - - [17/Dec/2018:13:50:45 +0000] "POST /xx.php HTTP/1.1" 404 178 "-" "Mozilla/5.0 (X11; Ubuntu; Linux x86_64; rv:47.0) Gecko/20100101 Firefox/47.0"
118.24.26.150 - - [17/Dec/2018:13:50:45 +0000] "POST /yumo.php HTTP/1.1" 404 178 "-" "Mozilla/5.0 (X11; Ubuntu; Linux x86_64; rv:47.0) Gecko/20100101 Firefox/47.0"
118.24.26.150 - - [17/Dec/2018:13:50:46 +0000] "POST /min.php HTTP/1.1" 404 178 "-" "Mozilla/5.0 (X11; Ubuntu; Linux x86_64; rv:47.0) Gecko/20100101 Firefox/47.0"
118.24.26.150 - - [17/Dec/2018:13:50:46 +0000] "POST /wan.php HTTP/1.1" 404 178 "-" "Mozilla/5.0 (X11; Ubuntu; Linux x86_64; rv:47.0) Gecko/20100101 Firefox/47.0"
118.24.26.150 - - [17/Dec/2018:13:50:46 +0000] "POST /wanan.php HTTP/1.1" 404 178 "-" "Mozilla/5.0 (X11; Ubuntu; Linux x86_64; rv:47.0) Gecko/20100101 Firefox/47.0"
118.24.26.150 - - [17/Dec/2018:13:50:47 +0000] "POST /ssaa.php HTTP/1.1" 404 178 "-" "Mozilla/5.0 (X11; Ubuntu; Linux x86_64; rv:47.0) Gecko/20100101 Firefox/47.0"
118.24.26.150 - - [17/Dec/2018:13:50:47 +0000] "POST /qq.php HTTP/1.1" 404 178 "-" "Mozilla/5.0 (X11; Ubuntu; Linux x86_64; rv:47.0) Gecko/20100101 Firefox/47.0"
118.24.26.150 - - [17/Dec/2018:13:50:48 +0000] "POST /aw.php HTTP/1.1" 404 178 "-" "Mozilla/5.0 (X11; Ubuntu; Linux x86_64; rv:47.0) Gecko/20100101 Firefox/47.0"
118.24.26.150 - - [17/Dec/2018:13:50:48 +0000] "POST /12.php HTTP/1.1" 404 178 "-" "Mozilla/5.0 (X11; Ubuntu; Linux x86_64; rv:47.0) Gecko/20100101 Firefox/47.0"
118.24.26.150 - - [17/Dec/2018:13:50:48 +0000] "POST /hh.php HTTP/1.1" 404 178 "-" "Mozilla/5.0 (X11; Ubuntu; Linux x86_64; rv:47.0) Gecko/20100101 Firefox/47.0"
118.24.26.150 - - [17/Dec/2018:13:50:48 +0000] "POST /ak.php HTTP/1.1" 404 178 "-" "Mozilla/5.0 (X11; Ubuntu; Linux x86_64; rv:47.0) Gecko/20100101 Firefox/47.0"
118.24.26.150 - - [17/Dec/2018:13:50:49 +0000] "POST /ip.php HTTP/1.1" 404 178 "-" "Mozilla/5.0 (X11; Ubuntu; Linux x86_64; rv:47.0) Gecko/20100101 Firefox/47.0"
118.24.26.150 - - [17/Dec/2018:13:50:49 +0000] "POST /infoo.php HTTP/1.1" 404 178 "-" "Mozilla/5.0 (X11; Ubuntu; Linux x86_64; rv:47.0) Gecko/20100101 Firefox/47.0"
118.24.26.150 - - [17/Dec/2018:13:50:50 +0000] "POST /qq.php HTTP/1.1" 404 178 "-" "Mozilla/5.0 (X11; Ubuntu; Linux x86_64; rv:47.0) Gecko/20100101 Firefox/47.0"
118.24.26.150 - - [17/Dec/2018:13:50:50 +0000] "POST /qwe.php HTTP/1.1" 404 178 "-" "Mozilla/5.0 (X11; Ubuntu; Linux x86_64; rv:47.0) Gecko/20100101 Firefox/47.0"
118.24.26.150 - - [17/Dec/2018:13:50:51 +0000] "POST /1213.php HTTP/1.1" 404 178 "-" "Mozilla/5.0 (X11; Ubuntu; Linux x86_64; rv:47.0) Gecko/20100101 Firefox/47.0"
118.24.26.150 - - [17/Dec/2018:13:50:51 +0000] "POST /post.php HTTP/1.1" 404 178 "-" "Mozilla/5.0 (X11; Ubuntu; Linux x86_64; rv:47.0) Gecko/20100101 Firefox/47.0"
118.24.26.150 - - [17/Dec/2018:13:50:52 +0000] "POST /aaaa.php HTTP/1.1" 404 178 "-" "Mozilla/5.0 (X11; Ubuntu; Linux x86_64; rv:47.0) Gecko/20100101 Firefox/47.0"
118.24.26.150 - - [17/Dec/2018:13:50:52 +0000] "POST /h1.php HTTP/1.1" 404 178 "-" "Mozilla/5.0 (X11; Ubuntu; Linux x86_64; rv:47.0) Gecko/20100101 Firefox/47.0"
118.24.26.150 - - [17/Dec/2018:13:50:52 +0000] "POST /test.php HTTP/1.1" 404 178 "-" "Mozilla/5.0 (X11; Ubuntu; Linux x86_64; rv:47.0) Gecko/20100101 Firefox/47.0"
118.24.26.150 - - [17/Dec/2018:13:50:52 +0000] "POST /3.php HTTP/1.1" 404 178 "-" "Mozilla/5.0 (X11; Ubuntu; Linux x86_64; rv:47.0) Gecko/20100101 Firefox/47.0"
118.24.26.150 - - [17/Dec/2018:13:50:53 +0000] "POST /phpinfi.php HTTP/1.1" 404 178 "-" "Mozilla/5.0 (X11; Ubuntu; Linux x86_64; rv:47.0) Gecko/20100101 Firefox/47.0"
118.24.26.150 - - [17/Dec/2018:13:50:53 +0000] "POST /9510.php HTTP/1.1" 404 178 "-" "Mozilla/5.0 (X11; Ubuntu; Linux x86_64; rv:47.0) Gecko/20100101 Firefox/47.0"
118.24.26.150 - - [17/Dec/2018:13:50:53 +0000] "POST /python.php HTTP/1.1" 404 178 "-" "Mozilla/5.0 (X11; Ubuntu; Linux x86_64; rv:47.0) Gecko/20100101 Firefox/47.0"
118.24.26.150 - - [17/Dec/2018:13:50:53 +0000] "POST /default.php HTTP/1.1" 404 178 "-" "Mozilla/5.0 (X11; Ubuntu; Linux x86_64; rv:47.0) Gecko/20100101 Firefox/47.0"
118.24.26.150 - - [17/Dec/2018:13:50:54 +0000] "POST /sean.php HTTP/1.1" 404 178 "-" "Mozilla/5.0 (X11; Ubuntu; Linux x86_64; rv:47.0) Gecko/20100101 Firefox/47.0"
118.24.26.150 - - [17/Dec/2018:13:50:54 +0000] "POST /app.php HTTP/1.1" 404 178 "-" "Mozilla/5.0 (X11; Ubuntu; Linux x86_64; rv:47.0) Gecko/20100101 Firefox/47.0"
118.24.26.150 - - [17/Dec/2018:13:50:55 +0000] "POST /help.php HTTP/1.1" 404 178 "-" "Mozilla/5.0 (X11; Ubuntu; Linux x86_64; rv:47.0) Gecko/20100101 Firefox/47.0"
118.24.26.150 - - [17/Dec/2018:13:50:55 +0000] "POST /tiandi.php HTTP/1.1" 404 178 "-" "Mozilla/5.0 (X11; Ubuntu; Linux x86_64; rv:47.0) Gecko/20100101 Firefox/47.0"
118.24.26.150 - - [17/Dec/2018:13:50:55 +0000] "POST /miao.php HTTP/1.1" 404 178 "-" "Mozilla/5.0 (X11; Ubuntu; Linux x86_64; rv:47.0) Gecko/20100101 Firefox/47.0"
118.24.26.150 - - [17/Dec/2018:13:50:56 +0000] "POST /xz.php HTTP/1.1" 404 178 "-" "Mozilla/5.0 (X11; Ubuntu; Linux x86_64; rv:47.0) Gecko/20100101 Firefox/47.0"
118.24.26.150 - - [17/Dec/2018:13:50:56 +0000] "POST /linuxse.php HTTP/1.1" 404 178 "-" "Mozilla/5.0 (X11; Ubuntu; Linux x86_64; rv:47.0) Gecko/20100101 Firefox/47.0"
118.24.26.150 - - [17/Dec/2018:13:50:57 +0000] "POST /zuoindex.php HTTP/1.1" 404 178 "-" "Mozilla/5.0 (X11; Ubuntu; Linux x86_64; rv:47.0) Gecko/20100101 Firefox/47.0"
118.24.26.150 - - [17/Dec/2018:13:50:57 +0000] "POST /zshmindex.php HTTP/1.1" 404 178 "-" "Mozilla/5.0 (X11; Ubuntu; Linux x86_64; rv:47.0) Gecko/20100101 Firefox/47.0"
118.24.26.150 - - [17/Dec/2018:13:50:57 +0000] "POST /tomcat.php HTTP/1.1" 404 178 "-" "Mozilla/5.0 (X11; Ubuntu; Linux x86_64; rv:47.0) Gecko/20100101 Firefox/47.0"
118.24.26.150 - - [17/Dec/2018:13:50:57 +0000] "POST /ceshi.php HTTP/1.1" 404 178 "-" "Mozilla/5.0 (X11; Ubuntu; Linux x86_64; rv:47.0) Gecko/20100101 Firefox/47.0"
118.24.26.150 - - [17/Dec/2018:13:50:58 +0000] "POST /1hou.php HTTP/1.1" 404 178 "-" "Mozilla/5.0 (X11; Ubuntu; Linux x86_64; rv:47.0) Gecko/20100101 Firefox/47.0"
118.24.26.150 - - [17/Dec/2018:13:50:58 +0000] "POST /ou2.php HTTP/1.1" 404 178 "-" "Mozilla/5.0 (X11; Ubuntu; Linux x86_64; rv:47.0) Gecko/20100101 Firefox/47.0"
118.24.26.150 - - [17/Dec/2018:13:50:58 +0000] "POST /zuos.php HTTP/1.1" 404 178 "-" "Mozilla/5.0 (X11; Ubuntu; Linux x86_64; rv:47.0) Gecko/20100101 Firefox/47.0"
118.24.26.150 - - [17/Dec/2018:13:50:58 +0000] "POST /zuoss.php HTTP/1.1" 404 178 "-" "Mozilla/5.0 (X11; Ubuntu; Linux x86_64; rv:47.0) Gecko/20100101 Firefox/47.0"
118.24.26.150 - - [17/Dec/2018:13:50:59 +0000] "POST /zuoshss.php HTTP/1.1" 404 178 "-" "Mozilla/5.0 (X11; Ubuntu; Linux x86_64; rv:47.0) Gecko/20100101 Firefox/47.0"
118.24.26.150 - - [17/Dec/2018:13:50:59 +0000] "POST /boots.php HTTP/1.1" 404 178 "-" "Mozilla/5.0 (X11; Ubuntu; Linux x86_64; rv:47.0) Gecko/20100101 Firefox/47.0"
118.24.26.150 - - [17/Dec/2018:13:50:59 +0000] "POST /she.php HTTP/1.1" 404 178 "-" "Mozilla/5.0 (X11; Ubuntu; Linux x86_64; rv:47.0) Gecko/20100101 Firefox/47.0"
118.24.26.150 - - [17/Dec/2018:13:51:00 +0000] "POST /s.php HTTP/1.1" 404 178 "-" "Mozilla/5.0 (X11; Ubuntu; Linux x86_64; rv:47.0) Gecko/20100101 Firefox/47.0"
118.24.26.150 - - [17/Dec/2018:13:51:00 +0000] "POST /qw.php HTTP/1.1" 404 178 "-" "Mozilla/5.0 (X11; Ubuntu; Linux x86_64; rv:47.0) Gecko/20100101 Firefox/47.0"
118.24.26.150 - - [17/Dec/2018:13:51:00 +0000] "POST /test.php HTTP/1.1" 404 178 "-" "Mozilla/5.0 (X11; Ubuntu; Linux x86_64; rv:47.0) Gecko/20100101 Firefox/47.0"
118.24.26.150 - - [17/Dec/2018:13:51:01 +0000] "POST /caonma.php HTTP/1.1" 404 178 "-" "Mozilla/5.0 (X11; Ubuntu; Linux x86_64; rv:47.0) Gecko/20100101 Firefox/47.0"
118.24.26.150 - - [17/Dec/2018:13:51:01 +0000] "POST /ss.php HTTP/1.1" 404 178 "-" "Mozilla/5.0 (X11; Ubuntu; Linux x86_64; rv:47.0) Gecko/20100101 Firefox/47.0"
118.24.26.150 - - [17/Dec/2018:13:51:01 +0000] "POST /wcp.php HTTP/1.1" 404 178 "-" "Mozilla/5.0 (X11; Ubuntu; Linux x86_64; rv:47.0) Gecko/20100101 Firefox/47.0"
118.24.26.150 - - [17/Dec/2018:13:51:02 +0000] "POST /u.php HTTP/1.1" 404 178 "-" "Mozilla/5.0 (X11; Ubuntu; Linux x86_64; rv:47.0) Gecko/20100101 Firefox/47.0"
118.24.26.150 - - [17/Dec/2018:13:51:02 +0000] "POST /uuu.php HTTP/1.1" 404 178 "-" "Mozilla/5.0 (X11; Ubuntu; Linux x86_64; rv:47.0) Gecko/20100101 Firefox/47.0"
118.24.26.150 - - [17/Dec/2018:13:51:03 +0000] "POST /sss.php HTTP/1.1" 404 178 "-" "Mozilla/5.0 (X11; Ubuntu; Linux x86_64; rv:47.0) Gecko/20100101 Firefox/47.0"
118.24.26.150 - - [17/Dec/2018:13:51:03 +0000] "POST /1.php HTTP/1.1" 404 178 "-" "Mozilla/5.0 (X11; Ubuntu; Linux x86_64; rv:47.0) Gecko/20100101 Firefox/47.0"
118.24.26.150 - - [17/Dec/2018:13:51:04 +0000] "POST /2.php HTTP/1.1" 404 178 "-" "Mozilla/5.0 (X11; Ubuntu; Linux x86_64; rv:47.0) Gecko/20100101 Firefox/47.0"
118.24.26.150 - - [17/Dec/2018:13:51:05 +0000] "POST /core.php HTTP/1.1" 404 178 "-" "Mozilla/5.0 (X11; Ubuntu; Linux x86_64; rv:47.0) Gecko/20100101 Firefox/47.0"
118.24.26.150 - - [17/Dec/2018:13:51:05 +0000] "POST /qaz.php HTTP/1.1" 404 178 "-" "Mozilla/5.0 (X11; Ubuntu; Linux x86_64; rv:47.0) Gecko/20100101 Firefox/47.0"
118.24.26.150 - - [17/Dec/2018:13:51:06 +0000] "POST /sha.php HTTP/1.1" 404 178 "-" "Mozilla/5.0 (X11; Ubuntu; Linux x86_64; rv:47.0) Gecko/20100101 Firefox/47.0"
118.24.26.150 - - [17/Dec/2018:13:51:06 +0000] "POST /ppx.php HTTP/1.1" 404 178 "-" "Mozilla/5.0 (X11; Ubuntu; Linux x86_64; rv:47.0) Gecko/20100101 Firefox/47.0"
118.24.26.150 - - [17/Dec/2018:13:51:06 +0000] "POST /1.php HTTP/1.1" 404 178 "-" "Mozilla/5.0 (X11; Ubuntu; Linux x86_64; rv:47.0) Gecko/20100101 Firefox/47.0"
118.24.26.150 - - [17/Dec/2018:13:51:06 +0000] "POST /confg.php HTTP/1.1" 404 178 "-" "Mozilla/5.0 (X11; Ubuntu; Linux x86_64; rv:47.0) Gecko/20100101 Firefox/47.0"
118.24.26.150 - - [17/Dec/2018:13:51:07 +0000] "POST /conf1g.php HTTP/1.1" 404 178 "-" "Mozilla/5.0 (X11; Ubuntu; Linux x86_64; rv:47.0) Gecko/20100101 Firefox/47.0"
118.24.26.150 - - [17/Dec/2018:13:51:07 +0000] "POST /confg.php HTTP/1.1" 404 178 "-" "Mozilla/5.0 (X11; Ubuntu; Linux x86_64; rv:47.0) Gecko/20100101 Firefox/47.0"
118.24.26.150 - - [17/Dec/2018:13:51:08 +0000] "POST /confg.php HTTP/1.1" 404 178 "-" "Mozilla/5.0 (X11; Ubuntu; Linux x86_64; rv:47.0) Gecko/20100101 Firefox/47.0"
118.24.26.150 - - [17/Dec/2018:13:51:08 +0000] "POST /confg.php HTTP/1.1" 404 178 "-" "Mozilla/5.0 (X11; Ubuntu; Linux x86_64; rv:47.0) Gecko/20100101 Firefox/47.0"
118.24.26.150 - - [17/Dec/2018:13:51:08 +0000] "POST /ver.php HTTP/1.1" 404 178 "-" "Mozilla/5.0 (X11; Ubuntu; Linux x86_64; rv:47.0) Gecko/20100101 Firefox/47.0"
118.24.26.150 - - [17/Dec/2018:13:51:08 +0000] "POST /hack.php HTTP/1.1" 404 178 "-" "Mozilla/5.0 (X11; Ubuntu; Linux x86_64; rv:47.0) Gecko/20100101 Firefox/47.0"
118.24.26.150 - - [17/Dec/2018:13:51:09 +0000] "POST /qa.php HTTP/1.1" 404 178 "-" "Mozilla/5.0 (X11; Ubuntu; Linux x86_64; rv:47.0) Gecko/20100101 Firefox/47.0"
118.24.26.150 - - [17/Dec/2018:13:51:09 +0000] "POST /Ss.php HTTP/1.1" 404 178 "-" "Mozilla/5.0 (X11; Ubuntu; Linux x86_64; rv:47.0) Gecko/20100101 Firefox/47.0"
118.24.26.150 - - [17/Dec/2018:13:51:09 +0000] "POST /xxx.php HTTP/1.1" 404 178 "-" "Mozilla/5.0 (X11; Ubuntu; Linux x86_64; rv:47.0) Gecko/20100101 Firefox/47.0"
118.24.26.150 - - [17/Dec/2018:13:51:09 +0000] "POST /92.php HTTP/1.1" 404 178 "-" "Mozilla/5.0 (X11; Ubuntu; Linux x86_64; rv:47.0) Gecko/20100101 Firefox/47.0"
118.24.26.150 - - [17/Dec/2018:13:51:10 +0000] "POST /z.php HTTP/1.1" 404 178 "-" "Mozilla/5.0 (X11; Ubuntu; Linux x86_64; rv:47.0) Gecko/20100101 Firefox/47.0"
118.24.26.150 - - [17/Dec/2018:13:51:10 +0000] "POST /x.php HTTP/1.1" 404 178 "-" "Mozilla/5.0 (X11; Ubuntu; Linux x86_64; rv:47.0) Gecko/20100101 Firefox/47.0"
118.24.26.150 - - [17/Dec/2018:13:51:10 +0000] "POST /dexgp.php HTTP/1.1" 404 178 "-" "Mozilla/5.0 (X11; Ubuntu; Linux x86_64; rv:47.0) Gecko/20100101 Firefox/47.0"
118.24.26.150 - - [17/Dec/2018:13:51:10 +0000] "POST /nuoxi.php HTTP/1.1" 404 178 "-" "Mozilla/5.0 (X11; Ubuntu; Linux x86_64; rv:47.0) Gecko/20100101 Firefox/47.0"
118.24.26.150 - - [17/Dec/2018:13:51:11 +0000] "POST /godkey.php HTTP/1.1" 404 178 "-" "Mozilla/5.0 (X11; Ubuntu; Linux x86_64; rv:47.0) Gecko/20100101 Firefox/47.0"
118.24.26.150 - - [17/Dec/2018:13:51:11 +0000] "POST /okokok.php HTTP/1.1" 404 178 "-" "Mozilla/5.0 (X11; Ubuntu; Linux x86_64; rv:47.0) Gecko/20100101 Firefox/47.0"
118.24.26.150 - - [17/Dec/2018:13:51:11 +0000] "POST /erwa.php HTTP/1.1" 404 178 "-" "Mozilla/5.0 (X11; Ubuntu; Linux x86_64; rv:47.0) Gecko/20100101 Firefox/47.0"
118.24.26.150 - - [17/Dec/2018:13:51:11 +0000] "POST /pma.php HTTP/1.1" 404 178 "-" "Mozilla/5.0 (X11; Ubuntu; Linux x86_64; rv:47.0) Gecko/20100101 Firefox/47.0"
118.24.26.150 - - [17/Dec/2018:13:51:12 +0000] "POST /ruyi.php HTTP/1.1" 404 178 "-" "Mozilla/5.0 (X11; Ubuntu; Linux x86_64; rv:47.0) Gecko/20100101 Firefox/47.0"
118.24.26.150 - - [17/Dec/2018:13:51:14 +0000] "POST /51314.php HTTP/1.1" 404 178 "-" "Mozilla/5.0 (X11; Ubuntu; Linux x86_64; rv:47.0) Gecko/20100101 Firefox/47.0"
118.24.26.150 - - [17/Dec/2018:13:51:14 +0000] "POST /5201314.php HTTP/1.1" 404 178 "-" "Mozilla/5.0 (X11; Ubuntu; Linux x86_64; rv:47.0) Gecko/20100101 Firefox/47.0"
118.24.26.150 - - [17/Dec/2018:13:51:15 +0000] "POST /fusheng.php HTTP/1.1" 404 178 "-" "Mozilla/5.0 (X11; Ubuntu; Linux x86_64; rv:47.0) Gecko/20100101 Firefox/47.0"
118.24.26.150 - - [17/Dec/2018:13:51:15 +0000] "POST /general.php HTTP/1.1" 404 178 "-" "Mozilla/5.0 (X11; Ubuntu; Linux x86_64; rv:47.0) Gecko/20100101 Firefox/47.0"
118.24.26.150 - - [17/Dec/2018:13:51:16 +0000] "POST /repeat.php HTTP/1.1" 404 178 "-" "Mozilla/5.0 (X11; Ubuntu; Linux x86_64; rv:47.0) Gecko/20100101 Firefox/47.0"
118.24.26.150 - - [17/Dec/2018:13:51:16 +0000] "POST /ldw.php HTTP/1.1" 404 178 "-" "Mozilla/5.0 (X11; Ubuntu; Linux x86_64; rv:47.0) Gecko/20100101 Firefox/47.0"
118.24.26.150 - - [17/Dec/2018:13:51:16 +0000] "POST /api.php HTTP/1.1" 404 178 "-" "Mozilla/5.0 (X11; Ubuntu; Linux x86_64; rv:47.0) Gecko/20100101 Firefox/47.0"
118.24.26.150 - - [17/Dec/2018:13:51:17 +0000] "POST /s1.php HTTP/1.1" 404 178 "-" "Mozilla/5.0 (X11; Ubuntu; Linux x86_64; rv:47.0) Gecko/20100101 Firefox/47.0"
118.24.26.150 - - [17/Dec/2018:13:51:17 +0000] "POST /xiaodai.php HTTP/1.1" 404 178 "-" "Mozilla/5.0 (X11; Ubuntu; Linux x86_64; rv:47.0) Gecko/20100101 Firefox/47.0"
118.24.26.150 - - [17/Dec/2018:13:51:18 +0000] "POST /hello.php HTTP/1.1" 404 178 "-" "Mozilla/5.0 (X11; Ubuntu; Linux x86_64; rv:47.0) Gecko/20100101 Firefox/47.0"
118.24.26.150 - - [17/Dec/2018:13:51:19 +0000] "POST /hello.php HTTP/1.1" 404 178 "-" "Mozilla/5.0 (X11; Ubuntu; Linux x86_64; rv:47.0) Gecko/20100101 Firefox/47.0"
118.24.26.150 - - [17/Dec/2018:13:51:19 +0000] "POST /admn.php HTTP/1.1" 404 178 "-" "Mozilla/5.0 (X11; Ubuntu; Linux x86_64; rv:47.0) Gecko/20100101 Firefox/47.0"
118.24.26.150 - - [17/Dec/2018:13:51:19 +0000] "POST /hell.php HTTP/1.1" 404 178 "-" "Mozilla/5.0 (X11; Ubuntu; Linux x86_64; rv:47.0) Gecko/20100101 Firefox/47.0"
118.24.26.150 - - [17/Dec/2018:13:51:20 +0000] "POST /xp.php HTTP/1.1" 404 178 "-" "Mozilla/5.0 (X11; Ubuntu; Linux x86_64; rv:47.0) Gecko/20100101 Firefox/47.0"
118.24.26.150 - - [17/Dec/2018:13:51:20 +0000] "POST /1.php HTTP/1.1" 404 178 "-" "Mozilla/5.0 (X11; Ubuntu; Linux x86_64; rv:47.0) Gecko/20100101 Firefox/47.0"
118.24.26.150 - - [17/Dec/2018:13:51:20 +0000] "POST /2.php HTTP/1.1" 404 178 "-" "Mozilla/5.0 (X11; Ubuntu; Linux x86_64; rv:47.0) Gecko/20100101 Firefox/47.0"
118.24.26.150 - - [17/Dec/2018:13:51:20 +0000] "POST /p.php HTTP/1.1" 404 178 "-" "Mozilla/5.0 (X11; Ubuntu; Linux x86_64; rv:47.0) Gecko/20100101 Firefox/47.0"
118.24.26.150 - - [17/Dec/2018:13:51:21 +0000] "POST /1.php HTTP/1.1" 404 178 "-" "Mozilla/5.0 (X11; Ubuntu; Linux x86_64; rv:47.0) Gecko/20100101 Firefox/47.0"
118.24.26.150 - - [17/Dec/2018:13:51:22 +0000] "POST /a.php HTTP/1.1" 404 178 "-" "Mozilla/5.0 (X11; Ubuntu; Linux x86_64; rv:47.0) Gecko/20100101 Firefox/47.0"
118.24.26.150 - - [17/Dec/2018:13:51:23 +0000] "POST /m.php HTTP/1.1" 404 178 "-" "Mozilla/5.0 (X11; Ubuntu; Linux x86_64; rv:47.0) Gecko/20100101 Firefox/47.0"
118.24.26.150 - - [17/Dec/2018:13:51:23 +0000] "POST /conf.php HTTP/1.1" 404 178 "-" "Mozilla/5.0 (X11; Ubuntu; Linux x86_64; rv:47.0) Gecko/20100101 Firefox/47.0"
118.24.26.150 - - [17/Dec/2018:13:51:24 +0000] "POST /123.php HTTP/1.1" 404 178 "-" "Mozilla/5.0 (X11; Ubuntu; Linux x86_64; rv:47.0) Gecko/20100101 Firefox/47.0"
118.24.26.150 - - [17/Dec/2018:13:51:24 +0000] "POST /HX.php HTTP/1.1" 404 178 "-" "Mozilla/5.0 (X11; Ubuntu; Linux x86_64; rv:47.0) Gecko/20100101 Firefox/47.0"
118.24.26.150 - - [17/Dec/2018:13:51:24 +0000] "POST /diy.php HTTP/1.1" 404 178 "-" "Mozilla/5.0 (X11; Ubuntu; Linux x86_64; rv:47.0) Gecko/20100101 Firefox/47.0"
118.24.26.150 - - [17/Dec/2018:13:51:24 +0000] "POST /666.php HTTP/1.1" 404 178 "-" "Mozilla/5.0 (X11; Ubuntu; Linux x86_64; rv:47.0) Gecko/20100101 Firefox/47.0"
118.24.26.150 - - [17/Dec/2018:13:51:25 +0000] "POST /777.php HTTP/1.1" 404 178 "-" "Mozilla/5.0 (X11; Ubuntu; Linux x86_64; rv:47.0) Gecko/20100101 Firefox/47.0"
118.24.26.150 - - [17/Dec/2018:13:51:25 +0000] "POST /qwq.php HTTP/1.1" 404 178 "-" "Mozilla/5.0 (X11; Ubuntu; Linux x86_64; rv:47.0) Gecko/20100101 Firefox/47.0"
118.24.26.150 - - [17/Dec/2018:13:51:26 +0000] "POST /.php HTTP/1.1" 404 178 "-" "Mozilla/5.0 (X11; Ubuntu; Linux x86_64; rv:47.0) Gecko/20100101 Firefox/47.0"
118.24.26.150 - - [17/Dec/2018:13:51:26 +0000] "POST /infos.php HTTP/1.1" 404 178 "-" "Mozilla/5.0 (X11; Ubuntu; Linux x86_64; rv:47.0) Gecko/20100101 Firefox/47.0"
118.24.26.150 - - [17/Dec/2018:13:51:27 +0000] "POST /x.php HTTP/1.1" 404 178 "-" "Mozilla/5.0 (X11; Ubuntu; Linux x86_64; rv:47.0) Gecko/20100101 Firefox/47.0"
118.24.26.150 - - [17/Dec/2018:13:51:27 +0000] "POST /htfr.php HTTP/1.1" 404 178 "-" "Mozilla/5.0 (X11; Ubuntu; Linux x86_64; rv:47.0) Gecko/20100101 Firefox/47.0"
118.24.26.150 - - [17/Dec/2018:13:51:28 +0000] "POST /zzk.php HTTP/1.1" 404 178 "-" "Mozilla/5.0 (X11; Ubuntu; Linux x86_64; rv:47.0) Gecko/20100101 Firefox/47.0"
118.24.26.150 - - [17/Dec/2018:13:51:28 +0000] "POST /toor.php HTTP/1.1" 404 178 "-" "Mozilla/5.0 (X11; Ubuntu; Linux x86_64; rv:47.0) Gecko/20100101 Firefox/47.0"
118.24.26.150 - - [17/Dec/2018:13:51:28 +0000] "POST /uu.php HTTP/1.1" 404 178 "-" "Mozilla/5.0 (X11; Ubuntu; Linux x86_64; rv:47.0) Gecko/20100101 Firefox/47.0"
118.24.26.150 - - [17/Dec/2018:13:51:28 +0000] "POST /aa.php HTTP/1.1" 404 178 "-" "Mozilla/5.0 (X11; Ubuntu; Linux x86_64; rv:47.0) Gecko/20100101 Firefox/47.0"
118.24.26.150 - - [17/Dec/2018:13:51:29 +0000] "POST /wb.php HTTP/1.1" 404 178 "-" "Mozilla/5.0 (X11; Ubuntu; Linux x86_64; rv:47.0) Gecko/20100101 Firefox/47.0"
118.24.26.150 - - [17/Dec/2018:13:51:31 +0000] "POST /yj.php HTTP/1.1" 404 178 "-" "Mozilla/5.0 (X11; Ubuntu; Linux x86_64; rv:47.0) Gecko/20100101 Firefox/47.0"
118.24.26.150 - - [17/Dec/2018:13:51:31 +0000] "POST /z.php HTTP/1.1" 404 178 "-" "Mozilla/5.0 (X11; Ubuntu; Linux x86_64; rv:47.0) Gecko/20100101 Firefox/47.0"
118.24.26.150 - - [17/Dec/2018:13:51:31 +0000] "POST /7.php HTTP/1.1" 404 178 "-" "Mozilla/5.0 (X11; Ubuntu; Linux x86_64; rv:47.0) Gecko/20100101 Firefox/47.0"
118.24.26.150 - - [17/Dec/2018:13:51:32 +0000] "POST /xiaoma.php HTTP/1.1" 404 178 "-" "Mozilla/5.0 (X11; Ubuntu; Linux x86_64; rv:47.0) Gecko/20100101 Firefox/47.0"
118.24.26.150 - - [17/Dec/2018:13:51:32 +0000] "POST /xiaomae.php HTTP/1.1" 404 178 "-" "Mozilla/5.0 (X11; Ubuntu; Linux x86_64; rv:47.0) Gecko/20100101 Firefox/47.0"
118.24.26.150 - - [17/Dec/2018:13:51:32 +0000] "POST /xiaomar.php HTTP/1.1" 404 178 "-" "Mozilla/5.0 (X11; Ubuntu; Linux x86_64; rv:47.0) Gecko/20100101 Firefox/47.0"
118.24.26.150 - - [17/Dec/2018:13:51:32 +0000] "POST /qq.php HTTP/1.1" 404 178 "-" "Mozilla/5.0 (X11; Ubuntu; Linux x86_64; rv:47.0) Gecko/20100101 Firefox/47.0"
118.24.26.150 - - [17/Dec/2018:13:51:33 +0000] "POST /data.php HTTP/1.1" 404 178 "-" "Mozilla/5.0 (X11; Ubuntu; Linux x86_64; rv:47.0) Gecko/20100101 Firefox/47.0"
118.24.26.150 - - [17/Dec/2018:13:51:33 +0000] "POST /log.php HTTP/1.1" 404 178 "-" "Mozilla/5.0 (X11; Ubuntu; Linux x86_64; rv:47.0) Gecko/20100101 Firefox/47.0"
118.24.26.150 - - [17/Dec/2018:13:51:33 +0000] "POST /fack.php HTTP/1.1" 404 178 "-" "Mozilla/5.0 (X11; Ubuntu; Linux x86_64; rv:47.0) Gecko/20100101 Firefox/47.0"
118.24.26.150 - - [17/Dec/2018:13:51:33 +0000] "POST /angge.php HTTP/1.1" 404 178 "-" "Mozilla/5.0 (X11; Ubuntu; Linux x86_64; rv:47.0) Gecko/20100101 Firefox/47.0"
118.24.26.150 - - [17/Dec/2018:13:51:34 +0000] "POST /cxfm666.php HTTP/1.1" 404 178 "-" "Mozilla/5.0 (X11; Ubuntu; Linux x86_64; rv:47.0) Gecko/20100101 Firefox/47.0"
118.24.26.150 - - [17/Dec/2018:13:51:34 +0000] "POST /db.php HTTP/1.1" 404 178 "-" "Mozilla/5.0 (X11; Ubuntu; Linux x86_64; rv:47.0) Gecko/20100101 Firefox/47.0"
118.24.26.150 - - [17/Dec/2018:13:51:35 +0000] "POST /hacly.php HTTP/1.1" 404 178 "-" "Mozilla/5.0 (X11; Ubuntu; Linux x86_64; rv:47.0) Gecko/20100101 Firefox/47.0"
118.24.26.150 - - [17/Dec/2018:13:51:35 +0000] "POST /xiaomo.php HTTP/1.1" 404 178 "-" "Mozilla/5.0 (X11; Ubuntu; Linux x86_64; rv:47.0) Gecko/20100101 Firefox/47.0"
118.24.26.150 - - [17/Dec/2018:13:51:35 +0000] "POST /xiaoyu.php HTTP/1.1" 404 178 "-" "Mozilla/5.0 (X11; Ubuntu; Linux x86_64; rv:47.0) Gecko/20100101 Firefox/47.0"
118.24.26.150 - - [17/Dec/2018:13:51:36 +0000] "POST /xiaohei.php HTTP/1.1" 404 178 "-" "Mozilla/5.0 (X11; Ubuntu; Linux x86_64; rv:47.0) Gecko/20100101 Firefox/47.0"
118.24.26.150 - - [17/Dec/2018:13:51:36 +0000] "POST /j.php HTTP/1.1" 404 178 "-" "Mozilla/5.0 (X11; Ubuntu; Linux x86_64; rv:47.0) Gecko/20100101 Firefox/47.0"
118.24.26.150 - - [17/Dec/2018:13:51:36 +0000] "POST /qq5262.php HTTP/1.1" 404 178 "-" "Mozilla/5.0 (X11; Ubuntu; Linux x86_64; rv:47.0) Gecko/20100101 Firefox/47.0"
118.24.26.150 - - [17/Dec/2018:13:51:36 +0000] "POST /MCLi.php HTTP/1.1" 404 178 "-" "Mozilla/5.0 (X11; Ubuntu; Linux x86_64; rv:47.0) Gecko/20100101 Firefox/47.0"
118.24.26.150 - - [17/Dec/2018:13:51:37 +0000] "POST /MCLi.php HTTP/1.1" 404 178 "-" "Mozilla/5.0 (X11; Ubuntu; Linux x86_64; rv:47.0) Gecko/20100101 Firefox/47.0"
118.24.26.150 - - [17/Dec/2018:13:51:37 +0000] "POST /51.php HTTP/1.1" 404 178 "-" "Mozilla/5.0 (X11; Ubuntu; Linux x86_64; rv:47.0) Gecko/20100101 Firefox/47.0"
118.24.26.150 - - [17/Dec/2018:13:51:37 +0000] "POST /cadre.php HTTP/1.1" 404 178 "-" "Mozilla/5.0 (X11; Ubuntu; Linux x86_64; rv:47.0) Gecko/20100101 Firefox/47.0"
118.24.26.150 - - [17/Dec/2018:13:51:37 +0000] "POST /mm.php HTTP/1.1" 404 178 "-" "Mozilla/5.0 (X11; Ubuntu; Linux x86_64; rv:47.0) Gecko/20100101 Firefox/47.0"
118.24.26.150 - - [17/Dec/2018:13:51:38 +0000] "POST /test.php HTTP/1.1" 404 178 "-" "Mozilla/5.0 (X11; Ubuntu; Linux x86_64; rv:47.0) Gecko/20100101 Firefox/47.0"
118.24.26.150 - - [17/Dec/2018:13:51:38 +0000] "POST /1q.php HTTP/1.1" 404 178 "-" "Mozilla/5.0 (X11; Ubuntu; Linux x86_64; rv:47.0) Gecko/20100101 Firefox/47.0"
118.24.26.150 - - [17/Dec/2018:13:51:39 +0000] "GET /jexsw2/jexsw2.jsp?ppp=echo%20Hello%20D3c3mb3r HTTP/1.1" 404 178 "-" "test"
118.24.26.150 - - [17/Dec/2018:13:51:39 +0000] "GET /jexws2/jexws2.jsp?ppp=echo%20Hello%20D3c3mb3r HTTP/1.1" 404 178 "-" "test"
118.24.26.150 - - [17/Dec/2018:13:51:40 +0000] "GET /jexws3/jexws3.jsp?ppp=echo%20Hello%20D3c3mb3r HTTP/1.1" 404 178 "-" "test"
118.24.26.150 - - [17/Dec/2018:13:51:40 +0000] "GET /jexws4/jexws4.jsp?ppp=echo%20Hello%20D3c3mb3r HTTP/1.1" 404 178 "-" "test"
118.24.26.150 - - [17/Dec/2018:13:51:40 +0000] "GET /jexinv/jexinv.jsp?ppp=echo%20Hello%20D3c3mb3r HTTP/1.1" 404 178 "-" "test"
118.24.26.150 - - [17/Dec/2018:13:51:40 +0000] "GET /jexinv3/jexinv3.jsp?ppp=echo%20Hello%20D3c3mb3r HTTP/1.1" 404 178 "-" "test"
118.24.26.150 - - [17/Dec/2018:13:51:41 +0000] "GET /jexinv4/jexinv4.jsp?ppp=echo%20Hello%20D3c3mb3r HTTP/1.1" 404 178 "-" "test"
118.24.26.150 - - [17/Dec/2018:13:51:41 +0000] "GET /jbossass/jbossass.jsp?ppp=echo%20Hello%20D3c3mb3r HTTP/1.1" 404 178 "-" "jexboss"
118.24.26.150 - - [17/Dec/2018:13:51:41 +0000] "GET /console/jspzxc.jsp?cmd=echo%20Hello%20D3c3mb3r HTTP/1.1" 404 178 "-" "test"
118.24.26.150 - - [17/Dec/2018:13:51:42 +0000] "GET /demo/404.jsp?bjh=echo%20Hello%20D3c3mb3r HTTP/1.1" 404 178 "-" "test"
118.24.26.150 - - [17/Dec/2018:13:51:42 +0000] "GET /dread/lock.jsp?tezaz=echo%20Hello%20D3c3mb3r HTTP/1.1" 404 178 "-" "test"
118.24.26.150 - - [17/Dec/2018:13:51:43 +0000] "GET /jbws/jbws.jsp?eval=echo%20Hello%20D3c3mb3r HTTP/1.1" 404 178 "-" "jbosses"
118.24.26.150 - - [17/Dec/2018:13:51:43 +0000] "GET /jvrx/cmd.jsp?pwd=everymorning&cmd=echo%20Hello%20D3c3mb3r HTTP/1.1" 404 178 "-" "test"
118.24.26.150 - - [17/Dec/2018:13:51:43 +0000] "GET /shellinvoker/shellinvoker.jsp?ppp=echo%20Hello%20D3c3mb3r HTTP/1.1" 404 178 "-" "jexboss"
118.24.26.150 - - [17/Dec/2018:13:51:44 +0000] "GET /zecmd/zecmd.jsp?comment=echo%20Hello%20D3c3mb3r HTTP/1.1" 404 178 "-" "test"
118.24.26.150 - - [17/Dec/2018:13:51:44 +0000] "GET /iesvc/iesvc.jsp?comment=echo%20Hello%20D3c3mb3r HTTP/1.1" 404 178 "-" "test"
118.24.26.150 - - [17/Dec/2018:13:51:44 +0000] "GET /idssvc/idssvc.jsp?comment=echo%20Hello%20D3c3mb3r HTTP/1.1" 404 178 "-" "test"
118.24.26.150 - - [17/Dec/2018:13:51:44 +0000] "GET /wstats/wstats.jsp?comment=echo%20Hello%20D3c3mb3r HTTP/1.1" 404 178 "-" "test"
118.24.26.150 - - [17/Dec/2018:13:51:45 +0000] "GET /HCEGH/xunfeng.jsp?comment=echo%20Hello%20D3c3mb3r HTTP/1.1" 404 178 "-" "test"
118.24.26.150 - - [17/Dec/2018:13:51:45 +0000] "GET /a/pwn.jsp?cmd=echo%20Hello%20D3c3mb3r HTTP/1.1" 404 178 "-" "test"
118.24.26.150 - - [17/Dec/2018:13:51:45 +0000] "GET /index.php HTTP/1.1" 404 580 "-" "Mozilla/5.0 (Windows NT 6.1; WOW64) AppleWebKit/537.36 (KHTML, like Gecko) Chrome/49.0.2623.105 Safari/537.36"
118.24.26.150 - - [17/Dec/2018:13:51:45 +0000] "GET /phpmyadmin/index.php HTTP/1.1" 404 580 "-" "Mozilla/5.0 (Windows NT 6.1; WOW64) AppleWebKit/537.36 (KHTML, like Gecko) Chrome/49.0.2623.105 Safari/537.36"
118.24.26.150 - - [17/Dec/2018:13:51:46 +0000] "GET /phpMyAdmin/index.php HTTP/1.1" 404 580 "-" "Mozilla/5.0 (Windows NT 6.1; WOW64) AppleWebKit/537.36 (KHTML, like Gecko) Chrome/49.0.2623.105 Safari/537.36"
118.24.26.150 - - [17/Dec/2018:13:51:46 +0000] "GET /pmd/index.php HTTP/1.1" 404 580 "-" "Mozilla/5.0 (Windows NT 6.1; WOW64) AppleWebKit/537.36 (KHTML, like Gecko) Chrome/49.0.2623.105 Safari/537.36"
118.24.26.150 - - [17/Dec/2018:13:51:46 +0000] "GET /pma/index.php HTTP/1.1" 404 580 "-" "Mozilla/5.0 (Windows NT 6.1; WOW64) AppleWebKit/537.36 (KHTML, like Gecko) Chrome/49.0.2623.105 Safari/537.36"
118.24.26.150 - - [17/Dec/2018:13:51:46 +0000] "GET /PMA/index.php HTTP/1.1" 404 580 "-" "Mozilla/5.0 (Windows NT 6.1; WOW64) AppleWebKit/537.36 (KHTML, like Gecko) Chrome/49.0.2623.105 Safari/537.36"
118.24.26.150 - - [17/Dec/2018:13:51:47 +0000] "GET /PMA2/index.php HTTP/1.1" 404 580 "-" "Mozilla/5.0 (Windows NT 6.1; WOW64) AppleWebKit/537.36 (KHTML, like Gecko) Chrome/49.0.2623.105 Safari/537.36"
118.24.26.150 - - [17/Dec/2018:13:51:47 +0000] "GET /pmamy/index.php HTTP/1.1" 404 580 "-" "Mozilla/5.0 (Windows NT 6.1; WOW64) AppleWebKit/537.36 (KHTML, like Gecko) Chrome/49.0.2623.105 Safari/537.36"
118.24.26.150 - - [17/Dec/2018:13:51:48 +0000] "GET /pmamy2/index.php HTTP/1.1" 404 580 "-" "Mozilla/5.0 (Windows NT 6.1; WOW64) AppleWebKit/537.36 (KHTML, like Gecko) Chrome/49.0.2623.105 Safari/537.36"
118.24.26.150 - - [17/Dec/2018:13:51:48 +0000] "GET /mysql/index.php HTTP/1.1" 404 580 "-" "Mozilla/5.0 (Windows NT 6.1; WOW64) AppleWebKit/537.36 (KHTML, like Gecko) Chrome/49.0.2623.105 Safari/537.36"
118.24.26.150 - - [17/Dec/2018:13:51:48 +0000] "GET /admin/index.php HTTP/1.1" 404 580 "-" "Mozilla/5.0 (Windows NT 6.1; WOW64) AppleWebKit/537.36 (KHTML, like Gecko) Chrome/49.0.2623.105 Safari/537.36"
118.24.26.150 - - [17/Dec/2018:13:51:48 +0000] "GET /db/index.php HTTP/1.1" 404 580 "-" "Mozilla/5.0 (Windows NT 6.1; WOW64) AppleWebKit/537.36 (KHTML, like Gecko) Chrome/49.0.2623.105 Safari/537.36"
118.24.26.150 - - [17/Dec/2018:13:51:49 +0000] "GET /dbadmin/index.php HTTP/1.1" 404 580 "-" "Mozilla/5.0 (Windows NT 6.1; WOW64) AppleWebKit/537.36 (KHTML, like Gecko) Chrome/49.0.2623.105 Safari/537.36"
118.24.26.150 - - [17/Dec/2018:13:51:49 +0000] "GET /web/phpMyAdmin/index.php HTTP/1.1" 404 580 "-" "Mozilla/5.0 (Windows NT 6.1; WOW64) AppleWebKit/537.36 (KHTML, like Gecko) Chrome/49.0.2623.105 Safari/537.36"
118.24.26.150 - - [17/Dec/2018:13:51:49 +0000] "GET /admin/pma/index.php HTTP/1.1" 404 580 "-" "Mozilla/5.0 (Windows NT 6.1; WOW64) AppleWebKit/537.36 (KHTML, like Gecko) Chrome/49.0.2623.105 Safari/537.36"
118.24.26.150 - - [17/Dec/2018:13:51:49 +0000] "GET /admin/PMA/index.php HTTP/1.1" 404 580 "-" "Mozilla/5.0 (Windows NT 6.1; WOW64) AppleWebKit/537.36 (KHTML, like Gecko) Chrome/49.0.2623.105 Safari/537.36"
118.24.26.150 - - [17/Dec/2018:13:51:50 +0000] "GET /admin/mysql/index.php HTTP/1.1" 404 580 "-" "Mozilla/5.0 (Windows NT 6.1; WOW64) AppleWebKit/537.36 (KHTML, like Gecko) Chrome/49.0.2623.105 Safari/537.36"
118.24.26.150 - - [17/Dec/2018:13:51:50 +0000] "GET /admin/mysql2/index.php HTTP/1.1" 404 580 "-" "Mozilla/5.0 (Windows NT 6.1; WOW64) AppleWebKit/537.36 (KHTML, like Gecko) Chrome/49.0.2623.105 Safari/537.36"
118.24.26.150 - - [17/Dec/2018:13:51:50 +0000] "GET /admin/phpmyadmin/index.php HTTP/1.1" 404 580 "-" "Mozilla/5.0 (Windows NT 6.1; WOW64) AppleWebKit/537.36 (KHTML, like Gecko) Chrome/49.0.2623.105 Safari/537.36"
118.24.26.150 - - [17/Dec/2018:13:51:50 +0000] "GET /admin/phpMyAdmin/index.php HTTP/1.1" 404 580 "-" "Mozilla/5.0 (Windows NT 6.1; WOW64) AppleWebKit/537.36 (KHTML, like Gecko) Chrome/49.0.2623.105 Safari/537.36"
118.24.26.150 - - [17/Dec/2018:13:51:51 +0000] "GET /admin/phpmyadmin2/index.php HTTP/1.1" 404 580 "-" "Mozilla/5.0 (Windows NT 6.1; WOW64) AppleWebKit/537.36 (KHTML, like Gecko) Chrome/49.0.2623.105 Safari/537.36"
118.24.26.150 - - [17/Dec/2018:13:51:51 +0000] "GET /mysqladmin/index.php HTTP/1.1" 404 580 "-" "Mozilla/5.0 (Windows NT 6.1; WOW64) AppleWebKit/537.36 (KHTML, like Gecko) Chrome/49.0.2623.105 Safari/537.36"
118.24.26.150 - - [17/Dec/2018:13:51:51 +0000] "GET /mysql-admin/index.php HTTP/1.1" 404 580 "-" "Mozilla/5.0 (Windows NT 6.1; WOW64) AppleWebKit/537.36 (KHTML, like Gecko) Chrome/49.0.2623.105 Safari/537.36"
118.24.26.150 - - [17/Dec/2018:13:51:52 +0000] "GET /mysql_admin/index.php HTTP/1.1" 404 580 "-" "Mozilla/5.0 (Windows NT 6.1; WOW64) AppleWebKit/537.36 (KHTML, like Gecko) Chrome/49.0.2623.105 Safari/537.36"
118.24.26.150 - - [17/Dec/2018:13:51:52 +0000] "GET /phpadmin/index.php HTTP/1.1" 404 580 "-" "Mozilla/5.0 (Windows NT 6.1; WOW64) AppleWebKit/537.36 (KHTML, like Gecko) Chrome/49.0.2623.105 Safari/537.36"
118.24.26.150 - - [17/Dec/2018:13:51:53 +0000] "GET /phpAdmin/index.php HTTP/1.1" 404 580 "-" "Mozilla/5.0 (Windows NT 6.1; WOW64) AppleWebKit/537.36 (KHTML, like Gecko) Chrome/49.0.2623.105 Safari/537.36"
118.24.26.150 - - [17/Dec/2018:13:51:53 +0000] "GET /phpmyadmin0/index.php HTTP/1.1" 404 580 "-" "Mozilla/5.0 (Windows NT 6.1; WOW64) AppleWebKit/537.36 (KHTML, like Gecko) Chrome/49.0.2623.105 Safari/537.36"
118.24.26.150 - - [17/Dec/2018:13:51:53 +0000] "GET /phpmyadmin1/index.php HTTP/1.1" 404 580 "-" "Mozilla/5.0 (Windows NT 6.1; WOW64) AppleWebKit/537.36 (KHTML, like Gecko) Chrome/49.0.2623.105 Safari/537.36"
118.24.26.150 - - [17/Dec/2018:13:51:53 +0000] "GET /phpmyadmin2/index.php HTTP/1.1" 404 580 "-" "Mozilla/5.0 (Windows NT 6.1; WOW64) AppleWebKit/537.36 (KHTML, like Gecko) Chrome/49.0.2623.105 Safari/537.36"
118.24.26.150 - - [17/Dec/2018:13:51:54 +0000] "GET /phpMyAdmin-4.4.0/index.php HTTP/1.1" 404 580 "-" "Mozilla/5.0 (Windows NT 6.1; WOW64) AppleWebKit/537.36 (KHTML, like Gecko) Chrome/49.0.2623.105 Safari/537.36"
118.24.26.150 - - [17/Dec/2018:13:51:54 +0000] "GET /myadmin/index.php HTTP/1.1" 404 580 "-" "Mozilla/5.0 (Windows NT 6.1; WOW64) AppleWebKit/537.36 (KHTML, like Gecko) Chrome/49.0.2623.105 Safari/537.36"
118.24.26.150 - - [17/Dec/2018:13:51:54 +0000] "GET /myadmin2/index.php HTTP/1.1" 404 580 "-" "Mozilla/5.0 (Windows NT 6.1; WOW64) AppleWebKit/537.36 (KHTML, like Gecko) Chrome/49.0.2623.105 Safari/537.36"
118.24.26.150 - - [17/Dec/2018:13:51:54 +0000] "GET /xampp/phpmyadmin/index.php HTTP/1.1" 404 580 "-" "Mozilla/5.0 (Windows NT 6.1; WOW64) AppleWebKit/537.36 (KHTML, like Gecko) Chrome/49.0.2623.105 Safari/537.36"
118.24.26.150 - - [17/Dec/2018:13:51:55 +0000] "GET /phpMyadmin_bak/index.php HTTP/1.1" 404 580 "-" "Mozilla/5.0 (Windows NT 6.1; WOW64) AppleWebKit/537.36 (KHTML, like Gecko) Chrome/49.0.2623.105 Safari/537.36"
118.24.26.150 - - [17/Dec/2018:13:51:55 +0000] "GET /www/phpMyAdmin/index.php HTTP/1.1" 404 580 "-" "Mozilla/5.0 (Windows NT 6.1; WOW64) AppleWebKit/537.36 (KHTML, like Gecko) Chrome/49.0.2623.105 Safari/537.36"
118.24.26.150 - - [17/Dec/2018:13:51:55 +0000] "GET /tools/phpMyAdmin/index.php HTTP/1.1" 404 580 "-" "Mozilla/5.0 (Windows NT 6.1; WOW64) AppleWebKit/537.36 (KHTML, like Gecko) Chrome/49.0.2623.105 Safari/537.36"
118.24.26.150 - - [17/Dec/2018:13:51:56 +0000] "GET /phpmyadmin-old/index.php HTTP/1.1" 404 580 "-" "Mozilla/5.0 (Windows NT 6.1; WOW64) AppleWebKit/537.36 (KHTML, like Gecko) Chrome/49.0.2623.105 Safari/537.36"
118.24.26.150 - - [17/Dec/2018:13:51:56 +0000] "GET /phpMyAdminold/index.php HTTP/1.1" 404 580 "-" "Mozilla/5.0 (Windows NT 6.1; WOW64) AppleWebKit/537.36 (KHTML, like Gecko) Chrome/49.0.2623.105 Safari/537.36"
118.24.26.150 - - [17/Dec/2018:13:51:56 +0000] "GET /phpMyAdmin.old/index.php HTTP/1.1" 404 580 "-" "Mozilla/5.0 (Windows NT 6.1; WOW64) AppleWebKit/537.36 (KHTML, like Gecko) Chrome/49.0.2623.105 Safari/537.36"
118.24.26.150 - - [17/Dec/2018:13:51:57 +0000] "GET /pma-old/index.php HTTP/1.1" 404 580 "-" "Mozilla/5.0 (Windows NT 6.1; WOW64) AppleWebKit/537.36 (KHTML, like Gecko) Chrome/49.0.2623.105 Safari/537.36"
118.24.26.150 - - [17/Dec/2018:13:51:57 +0000] "GET /claroline/phpMyAdmin/index.php HTTP/1.1" 404 580 "-" "Mozilla/5.0 (Windows NT 6.1; WOW64) AppleWebKit/537.36 (KHTML, like Gecko) Chrome/49.0.2623.105 Safari/537.36"
118.24.26.150 - - [17/Dec/2018:13:51:57 +0000] "GET /typo3/phpmyadmin/index.php HTTP/1.1" 404 580 "-" "Mozilla/5.0 (Windows NT 6.1; WOW64) AppleWebKit/537.36 (KHTML, like Gecko) Chrome/49.0.2623.105 Safari/537.36"
118.24.26.150 - - [17/Dec/2018:13:51:57 +0000] "GET /phpma/index.php HTTP/1.1" 404 580 "-" "Mozilla/5.0 (Windows NT 6.1; WOW64) AppleWebKit/537.36 (KHTML, like Gecko) Chrome/49.0.2623.105 Safari/537.36"
118.24.26.150 - - [17/Dec/2018:13:51:58 +0000] "GET /phpmyadmin/phpmyadmin/index.php HTTP/1.1" 404 580 "-" "Mozilla/5.0 (Windows NT 6.1; WOW64) AppleWebKit/537.36 (KHTML, like Gecko) Chrome/49.0.2623.105 Safari/537.36"
118.24.26.150 - - [17/Dec/2018:13:51:58 +0000] "GET /phpMyAdmin/phpMyAdmin/index.php HTTP/1.1" 404 580 "-" "Mozilla/5.0 (Windows NT 6.1; WOW64) AppleWebKit/537.36 (KHTML, like Gecko) Chrome/49.0.2623.105 Safari/537.36"
118.24.26.150 - - [17/Dec/2018:13:51:58 +0000] "GET /phpMyAbmin/index.php HTTP/1.1" 404 580 "-" "Mozilla/5.0 (Windows NT 6.1; WOW64) AppleWebKit/537.36 (KHTML, like Gecko) Chrome/49.0.2623.105 Safari/537.36"
118.24.26.150 - - [17/Dec/2018:13:51:58 +0000] "GET /phpMyAdmin__/index.php HTTP/1.1" 404 580 "-" "Mozilla/5.0 (Windows NT 6.1; WOW64) AppleWebKit/537.36 (KHTML, like Gecko) Chrome/49.0.2623.105 Safari/537.36"
118.24.26.150 - - [17/Dec/2018:13:51:59 +0000] "GET /phpMyAdmin+++---/index.php HTTP/1.1" 404 580 "-" "Mozilla/5.0 (Windows NT 6.1; WOW64) AppleWebKit/537.36 (KHTML, like Gecko) Chrome/49.0.2623.105 Safari/537.36"
118.24.26.150 - - [17/Dec/2018:13:51:59 +0000] "GET /v/index.php HTTP/1.1" 404 580 "-" "Mozilla/5.0 (Windows NT 6.1; WOW64) AppleWebKit/537.36 (KHTML, like Gecko) Chrome/49.0.2623.105 Safari/537.36"
118.24.26.150 - - [17/Dec/2018:13:51:59 +0000] "GET /phpmyadm1n/index.php HTTP/1.1" 404 580 "-" "Mozilla/5.0 (Windows NT 6.1; WOW64) AppleWebKit/537.36 (KHTML, like Gecko) Chrome/49.0.2623.105 Safari/537.36"
118.24.26.150 - - [17/Dec/2018:13:52:00 +0000] "GET /phpMyAdm1n/index.php HTTP/1.1" 404 580 "-" "Mozilla/5.0 (Windows NT 6.1; WOW64) AppleWebKit/537.36 (KHTML, like Gecko) Chrome/49.0.2623.105 Safari/537.36"
118.24.26.150 - - [17/Dec/2018:13:52:00 +0000] "GET /shaAdmin/index.php HTTP/1.1" 404 580 "-" "Mozilla/5.0 (Windows NT 6.1; WOW64) AppleWebKit/537.36 (KHTML, like Gecko) Chrome/49.0.2623.105 Safari/537.36"
118.24.26.150 - - [17/Dec/2018:13:52:00 +0000] "GET /phpMyadmi/index.php HTTP/1.1" 404 580 "-" "Mozilla/5.0 (Windows NT 6.1; WOW64) AppleWebKit/537.36 (KHTML, like Gecko) Chrome/49.0.2623.105 Safari/537.36"
118.24.26.150 - - [17/Dec/2018:13:52:00 +0000] "GET /phpMyAdmion/index.php HTTP/1.1" 404 580 "-" "Mozilla/5.0 (Windows NT 6.1; WOW64) AppleWebKit/537.36 (KHTML, like Gecko) Chrome/49.0.2623.105 Safari/537.36"
118.24.26.150 - - [17/Dec/2018:13:52:01 +0000] "GET /MyAdmin/index.php HTTP/1.1" 404 580 "-" "Mozilla/5.0 (Windows NT 6.1; WOW64) AppleWebKit/537.36 (KHTML, like Gecko) Chrome/49.0.2623.105 Safari/537.36"
118.24.26.150 - - [17/Dec/2018:13:52:01 +0000] "GET /phpMyAdmin1/index.php HTTP/1.1" 404 580 "-" "Mozilla/5.0 (Windows NT 6.1; WOW64) AppleWebKit/537.36 (KHTML, like Gecko) Chrome/49.0.2623.105 Safari/537.36"
118.24.26.150 - - [17/Dec/2018:13:52:02 +0000] "GET /phpMyAdmin123/index.php HTTP/1.1" 404 580 "-" "Mozilla/5.0 (Windows NT 6.1; WOW64) AppleWebKit/537.36 (KHTML, like Gecko) Chrome/49.0.2623.105 Safari/537.36"
118.24.26.150 - - [17/Dec/2018:13:52:02 +0000] "GET /pwd/index.php HTTP/1.1" 404 580 "-" "Mozilla/5.0 (Windows NT 6.1; WOW64) AppleWebKit/537.36 (KHTML, like Gecko) Chrome/49.0.2623.105 Safari/537.36"
118.24.26.150 - - [17/Dec/2018:13:52:02 +0000] "GET /phpMyAdmina/index.php HTTP/1.1" 404 580 "-" "Mozilla/5.0 (Windows NT 6.1; WOW64) AppleWebKit/537.36 (KHTML, like Gecko) Chrome/49.0.2623.105 Safari/537.36"
118.24.26.150 - - [17/Dec/2018:13:52:02 +0000] "GET /program/index.php HTTP/1.1" 404 580 "-" "Mozilla/5.0 (Windows NT 6.1; WOW64) AppleWebKit/537.36 (KHTML, like Gecko) Chrome/49.0.2623.105 Safari/537.36"
118.24.26.150 - - [17/Dec/2018:13:52:03 +0000] "GET /shopdb/index.php HTTP/1.1" 404 580 "-" "Mozilla/5.0 (Windows NT 6.1; WOW64) AppleWebKit/537.36 (KHTML, like Gecko) Chrome/49.0.2623.105 Safari/537.36"
118.24.26.150 - - [17/Dec/2018:13:52:03 +0000] "GET /phppma/index.php HTTP/1.1" 404 580 "-" "Mozilla/5.0 (Windows NT 6.1; WOW64) AppleWebKit/537.36 (KHTML, like Gecko) Chrome/49.0.2623.105 Safari/537.36"
118.24.26.150 - - [17/Dec/2018:13:52:03 +0000] "GET /phpmy/index.php HTTP/1.1" 404 580 "-" "Mozilla/5.0 (Windows NT 6.1; WOW64) AppleWebKit/537.36 (KHTML, like Gecko) Chrome/49.0.2623.105 Safari/537.36"
118.24.26.150 - - [17/Dec/2018:13:52:03 +0000] "GET /mysql/admin/index.php HTTP/1.1" 404 580 "-" "Mozilla/5.0 (Windows NT 6.1; WOW64) AppleWebKit/537.36 (KHTML, like Gecko) Chrome/49.0.2623.105 Safari/537.36"
118.24.26.150 - - [17/Dec/2018:13:52:04 +0000] "GET /mysql/dbadmin/index.php HTTP/1.1" 404 580 "-" "Mozilla/5.0 (Windows NT 6.1; WOW64) AppleWebKit/537.36 (KHTML, like Gecko) Chrome/49.0.2623.105 Safari/537.36"
118.24.26.150 - - [17/Dec/2018:13:52:05 +0000] "GET /mysql/sqlmanager/index.php HTTP/1.1" 404 580 "-" "Mozilla/5.0 (Windows NT 6.1; WOW64) AppleWebKit/537.36 (KHTML, like Gecko) Chrome/49.0.2623.105 Safari/537.36"
118.24.26.150 - - [17/Dec/2018:13:52:07 +0000] "GET /mysql/mysqlmanager/index.php HTTP/1.1" 404 580 "-" "Mozilla/5.0 (Windows NT 6.1; WOW64) AppleWebKit/537.36 (KHTML, like Gecko) Chrome/49.0.2623.105 Safari/537.36"
118.24.26.150 - - [17/Dec/2018:13:52:07 +0000] "GET /wp-content/plugins/portable-phpmyadmin/wp-pma-mod/index.php HTTP/1.1" 404 580 "-" "Mozilla/5.0 (Windows NT 6.1; WOW64) AppleWebKit/537.36 (KHTML, like Gecko) Chrome/49.0.2623.105 Safari/537.36"
118.24.26.150 - - [17/Dec/2018:13:52:07 +0000] "GET /manager/html HTTP/1.1" 404 580 "-" "Mozilla/5.0 (X11; Linux x86_64) AppleWebKit/537.36 (KHTML, like Gecko) Chrome/63.0.3239.108 Safari/537.36"
3.80.149.42 - - [17/Dec/2018:14:59:40 +0000] "GET / HTTP/1.1" 200 396 "-" "Mozilla/5.0 (Windows NT 6.2;en-US) AppleWebKit/537.32.36 (KHTML, live Gecko) Chrome/57.0.3040.85 Safari/537.32"
171.97.198.182 - - [17/Dec/2018:15:03:27 +0000] "GET / HTTP/1.1" 200 612 "-" "Mozilla/5.0 (Windows NT 6.1; WOW64) AppleWebKit/537.36 (KHTML, like Gecko) Chrome/51.0.2704.103 Safari/537.36"
185.234.218.42 - - [17/Dec/2018:15:22:07 +0000] "GET /wp-login.php HTTP/1.1" 301 194 "http://red-mammoth.ru/wp-login.php" "Mozilla/4.0 (compatible; MSIE 9.0; Windows NT 6.1; 125LA; .NET CLR 2.0.50727; .NET CLR 3.0.04506.648; .NET CLR 3.5.21022)"
185.234.218.42 - - [17/Dec/2018:15:22:07 +0000] "GET /wp-login.php HTTP/1.1" 301 194 "http://red-mammoth.ru/wp-login.php" "Mozilla/4.0 (compatible; MSIE 9.0; Windows NT 6.1; 125LA; .NET CLR 2.0.50727; .NET CLR 3.0.04506.648; .NET CLR 3.5.21022)"
78.71.1.15 - - [17/Dec/2018:15:34:16 +0000] "GET / HTTP/1.1" 200 612 "-" "Mozilla/5.0 (Windows NT 6.1; WOW64) AppleWebKit/537.36 (KHTML, like Gecko) Chrome/51.0.2704.103 Safari/537.36"
112.134.27.101 - - [17/Dec/2018:16:42:53 +0000] "GET / HTTP/1.0" 200 612 "-" "-"
173.212.225.214 - - [17/Dec/2018:16:53:52 +0000] "\x16\x03\x01\x02\x00\x01\x00\x01\xFC\x03\x03]c\xBFq\xEB\xC1m'\x97e*Ut.\xF4\xB0\x22I4\xB3,\x05\x80\xA6\x90\xABP\x9Az\xE9#Z\x00\x00\x8C\xC00\xC0,\xC02\xC0.\xC0/\xC0+\xC01\xC0-\x00\xA5\x00\xA3\x00\xA1\x00\x9F\x00\xA4\x00\xA2\x00\xA0\x00\x9E\xC0(\xC0$\xC0\x14\xC0" 400 182 "-" "-"
46.232.149.223 - - [17/Dec/2018:16:54:22 +0000] "GET / HTTP/1.0" 200 612 "-" "-"
70.122.203.118 - - [17/Dec/2018:17:15:50 +0000] "GET / HTTP/1.0" 200 612 "-" "-"
37.9.113.70 - - [17/Dec/2018:17:36:51 +0000] "GET /robots.txt HTTP/1.1" 404 178 "-" "Mozilla/5.0 (compatible; YandexBot/3.0; +http://yandex.com/bots)"
37.9.113.70 - - [17/Dec/2018:17:36:54 +0000] "GET / HTTP/1.1" 404 152 "-" "Mozilla/5.0 (compatible; YandexBot/3.0; +http://yandex.com/bots)"
70.28.25.112 - - [17/Dec/2018:17:46:12 +0000] "GET / HTTP/1.0" 200 612 "-" "-"
103.12.161.217 - - [17/Dec/2018:18:09:37 +0000] "GET / HTTP/1.1" 200 612 "-" "Mozilla/5.0 (Windows NT 10.0; WOW64) AppleWebKit/537.36 (KHTML, like Gecko) Chrome/52.0.2743.116 Safari/537.36"
5.188.210.53 - - [17/Dec/2018:18:35:36 +0000] "GET / HTTP/1.0" 301 194 "http://red-mammoth.ru/" "Mozilla/5.0 (Windows NT 6.1) AppleWebKit/537.36 (KHTML, like Gecko) Chrome/68.0.3440.106 Safari/537.36 Kinza/4.9.1"
94.40.87.103 - - [17/Dec/2018:18:39:48 +0000] "GET / HTTP/1.1" 200 612 "-" "Mozilla/5.0 (Macintosh; Intel Mac OS X 10_11_6) AppleWebKit/601.7.7 (KHTML, like Gecko) Version/9.1.2 Safari/601.7.7"
46.1.110.181 - - [17/Dec/2018:18:44:41 +0000] "GET / HTTP/1.1" 200 612 "-" "Mozilla/5.0 (Windows NT 10.0; WOW64) AppleWebKit/537.36 (KHTML, like Gecko) Chrome/52.0.2743.116 Safari/537.36"
209.17.97.34 - - [17/Dec/2018:18:56:18 +0000] "GET / HTTP/1.1" 301 194 "-" "Mozilla/5.0 (compatible; Nimbostratus-Bot/v1.3.2; http://cloudsystemnetworks.com)"
177.9.103.21 - - [17/Dec/2018:19:06:55 +0000] "GET / HTTP/1.1" 200 612 "-" "Mozilla/5.0 (Windows NT 6.1; WOW64) AppleWebKit/537.36 (KHTML, like Gecko) Chrome/52.0.2743.116 Safari/537.36"
189.126.233.76 - - [17/Dec/2018:19:15:00 +0000] "GET / HTTP/1.1" 200 612 "-" "Mozilla/5.0 (Windows NT 6.1; WOW64) AppleWebKit/537.36 (KHTML, like Gecko) Chrome/52.0.2743.116 Safari/537.36"
191.242.244.22 - - [17/Dec/2018:20:21:47 +0000] "GET / HTTP/1.1" 200 612 "-" "Mozilla/5.0 (Windows NT 6.1; WOW64) AppleWebKit/537.36 (KHTML, like Gecko) Chrome/52.0.2743.116 Safari/537.36"
104.152.52.21 - - [17/Dec/2018:20:23:21 +0000] "GET / HTTP/1.0" 200 612 "-" "masscan/1.0 (https://github.com/robertdavidgraham/masscan)"
196.202.177.206 - - [17/Dec/2018:20:58:13 +0000] "GET / HTTP/1.1" 200 612 "-" "Mozilla/5.0 (Windows NT 6.1; WOW64) AppleWebKit/537.36 (KHTML, like Gecko) Chrome/52.0.2743.116 Safari/537.36"
194.147.32.109 - - [17/Dec/2018:21:05:05 +0000] "\x16\x03\x01\x02\x00\x01\x00\x01\xFC\x03\x03\x09" 400 182 "-" "-"
78.26.141.102 - - [17/Dec/2018:21:19:22 +0000] "GET /playlist.m3u HTTP/1.1" 404 178 "-" "Xenu Link Sleuth/1.3.8"
78.26.141.102 - - [17/Dec/2018:21:19:22 +0000] "GET /playlist.m3u HTTP/1.1" 404 178 "-" "Xenu Link Sleuth/1.3.8"
46.166.151.84 - - [17/Dec/2018:23:01:48 +0000] "GET / HTTP/1.1" 200 612 "-" "-"
188.173.114.53 - - [17/Dec/2018:23:06:54 +0000] "GET / HTTP/1.1" 200 612 "-" "-"
14.173.75.175 - - [18/Dec/2018:00:04:58 +0000] "GET / HTTP/1.0" 200 612 "-" "-"
95.240.48.17 - - [18/Dec/2018:00:05:48 +0000] "GET / HTTP/1.0" 200 612 "-" "-"
37.46.128.186 - - [18/Dec/2018:00:25:34 +0000] "GET / HTTP/1.1" 301 194 "-" "Go 1.1 package http"
84.22.141.82 - - [18/Dec/2018:01:20:59 +0000] "GET / HTTP/1.1" 200 396 "-" "Mozilla/5.0 (Windows NT 5.1; rv:9.0.1) Gecko/20100101 Firefox/9.0.1"
84.22.141.82 - - [18/Dec/2018:01:21:00 +0000] "GET / HTTP/1.1" 200 396 "-" "Mozilla/5.0 (Windows NT 5.1; rv:9.0.1) Gecko/20100101 Firefox/9.0.1"
84.22.141.82 - - [18/Dec/2018:01:21:00 +0000] "GET /HNAP1/ HTTP/1.1" 404 152 "http://130.193.58.204/" "Mozilla/5.0 (Windows NT 5.1; rv:9.0.1) Gecko/20100101 Firefox/9.0.1"
84.22.141.82 - - [18/Dec/2018:01:21:01 +0000] "GET /HNAP1/ HTTP/1.1" 404 152 "http://130.193.58.204/" "Mozilla/5.0 (Windows NT 5.1; rv:9.0.1) Gecko/20100101 Firefox/9.0.1"
2.184.142.252 - - [18/Dec/2018:01:33:08 +0000] "GET / HTTP/1.1" 200 612 "-" "Mozilla/5.0 (Windows NT 6.1; WOW64) AppleWebKit/537.36 (KHTML, like Gecko) Chrome/51.0.2704.103 Safari/537.36"
169.159.191.74 - - [18/Dec/2018:02:06:18 +0000] "GET / HTTP/1.1" 200 612 "-" "Mozilla/5.0 (Windows NT 6.1; WOW64) AppleWebKit/537.36 (KHTML, like Gecko) Chrome/52.0.2743.116 Safari/537.36"
170.239.159.228 - - [18/Dec/2018:02:59:19 +0000] "GET / HTTP/1.1" 200 612 "-" "Mozilla/5.0 (Windows NT 6.1; WOW64) AppleWebKit/537.36 (KHTML, like Gecko) Chrome/52.0.2743.116 Safari/537.36"
199.102.184.176 - - [18/Dec/2018:04:00:40 +0000] "GET / HTTP/1.0" 200 612 "-" "-"
181.37.126.13 - - [18/Dec/2018:04:22:26 +0000] "GET / HTTP/1.1" 200 612 "-" "Mozilla/5.0 (Windows NT 10.0; WOW64) AppleWebKit/537.36 (KHTML, like Gecko) Chrome/52.0.2743.116 Safari/537.36"
185.216.32.134 - - [18/Dec/2018:04:46:10 +0000] "GET /xmlrpc.php HTTP/1.1" 404 178 "-" "-"
96.44.178.66 - - [18/Dec/2018:05:29:48 +0000] "GET / HTTP/1.1" 301 194 "-" "Mozilla/5.0 (Windows NT 10.0; Win64; x64) AppleWebKit/537.36 (KHTML, like Gecko) Chrome/63.0.3239.132 Safari/537.36"
