142.93.100.102 - - [16/Dec/2018:06:47:25 +0000] "GET / HTTP/1.1" 200 396 "-" "Mozilla/5.0 zgrab/0.x"
113.170.255.159 - - [16/Dec/2018:07:08:12 +0000] "GET / HTTP/1.0" 200 612 "-" "-"
61.219.11.151 - - [16/Dec/2018:07:11:32 +0000] "GET / HTTP/1.1" 400 182 "-" "-"
176.88.247.154 - - [16/Dec/2018:08:18:45 +0000] "GET / HTTP/1.0" 200 612 "-" "-"
176.88.247.154 - - [16/Dec/2018:08:18:45 +0000] "GET / HTTP/1.1" 200 612 "-" "Mozilla/5.0 (Windows NT 6.1; WOW64) AppleWebKit/537.36 (KHTML, like Gecko) Chrome/52.0.2743.116 Safari/537.36"
77.69.187.151 - - [16/Dec/2018:08:31:08 +0000] "GET / HTTP/1.0" 200 612 "-" "-"
39.104.158.245 - - [16/Dec/2018:08:37:46 +0000] "GET /wordpress/wp-config.php.backup HTTP/1.1" 404 152 "-" "-"
31.13.115.7 - - [16/Dec/2018:08:45:52 +0000] "GET /robots.txt HTTP/1.1" 301 194 "-" "facebookexternalhit/1.1 (+http://www.facebook.com/externalhit_uatext.php)"
177.84.120.82 - - [16/Dec/2018:08:50:04 +0000] "GET / HTTP/1.1" 200 612 "-" "Mozilla/5.0 (Windows NT 10.0; WOW64) AppleWebKit/537.36 (KHTML, like Gecko) Chrome/51.0.2704.103 Safari/537.36"
118.91.190.157 - - [16/Dec/2018:08:59:48 +0000] "GET / HTTP/1.1" 200 612 "-" "Mozilla/5.0 (Windows NT 10.0; WOW64) AppleWebKit/537.36 (KHTML, like Gecko) Chrome/52.0.2743.116 Safari/537.36"
162.243.39.32 - - [16/Dec/2018:09:35:35 +0000] "GET / HTTP/1.1" 200 612 "-" "Mozilla/5.0 (Windows NT 10.0; WOW64) AppleWebKit/537.36 (KHTML, like Gecko) Chrome/51.0.2704.103 Safari/537.36"
103.23.237.173 - - [16/Dec/2018:09:41:28 +0000] "GET / HTTP/1.1" 200 612 "-" "Mozilla/5.0 (Windows NT 10.0; WOW64) AppleWebKit/537.36 (KHTML, like Gecko) Chrome/52.0.2743.116 Safari/537.36"
124.120.122.204 - - [16/Dec/2018:09:41:35 +0000] "GET /manager/html HTTP/1.1" 404 580 "-" "Mozilla/5.0 (compatible; MSIE 10.0; Windows NT 6.2; WOW64; Trident/6.0)"
187.207.105.27 - - [16/Dec/2018:10:01:33 +0000] "GET / HTTP/1.1" 200 612 "-" "Mozilla/5.0 (Windows NT 10.0; WOW64) AppleWebKit/537.36 (KHTML, like Gecko) Chrome/51.0.2704.103 Safari/537.36"
187.207.105.27 - - [16/Dec/2018:10:01:36 +0000] "GET / HTTP/1.1" 200 612 "-" "Mozilla/5.0 (Windows NT 10.0; WOW64) AppleWebKit/537.36 (KHTML, like Gecko) Chrome/52.0.2743.116 Safari/537.36"
173.212.225.214 - - [16/Dec/2018:10:05:06 +0000] "\x16\x03\x01\x02\x00\x01\x00\x01\xFC\x03\x03\x93\xED\x04Z\xF3A\xB5\xE1\xE8?\x0Ead\x00n/\xBE\xBA\x9F\xC9\x19\xE3X\x87nM\x1A1\xE3\xF0\xFA\xDC\x00\x00\x8C\xC00\xC0,\xC02\xC0.\xC0/\xC0+\xC01\xC0-\x00\xA5\x00\xA3\x00\xA1\x00\x9F\x00\xA4\x00\xA2\x00\xA0\x00\x9E\xC0(\xC0$\xC0\x14\xC0" 400 182 "-" "-"
187.102.150.90 - - [16/Dec/2018:10:53:48 +0000] "GET / HTTP/1.1" 200 612 "-" "Mozilla/5.0 (Windows NT 6.1; WOW64) AppleWebKit/537.36 (KHTML, like Gecko) Chrome/52.0.2743.116 Safari/537.36"
198.167.223.52 - - [16/Dec/2018:11:06:00 +0000] "GET /acadmin.php HTTP/1.1" 404 580 "-" "Mozilla/5.0 (Windows NT 6.1; WOW64) AppleWebKit/537.36 (KHTML, like Gecko) Chrome/55.0.2883.87 Safari/537.36"
103.9.134.74 - - [16/Dec/2018:11:41:47 +0000] "GET / HTTP/1.1" 200 612 "-" "Mozilla/5.0 (Macintosh; Intel Mac OS X 10_11_6) AppleWebKit/601.7.7 (KHTML, like Gecko) Version/9.1.2 Safari/601.7.7"
190.107.56.195 - - [16/Dec/2018:11:45:32 +0000] "GET / HTTP/1.1" 200 612 "-" "Mozilla/5.0 (Windows NT 10.0; WOW64) AppleWebKit/537.36 (KHTML, like Gecko) Chrome/51.0.2704.103 Safari/537.36"
220.134.190.166 - - [16/Dec/2018:12:15:09 +0000] "GET / HTTP/1.0" 200 612 "-" "-"
39.104.203.143 - - [16/Dec/2018:12:40:21 +0000] "GET /wordpress/wp-config.php.backup HTTP/1.1" 404 152 "-" "-"
37.9.113.70 - - [16/Dec/2018:12:54:10 +0000] "GET /robots.txt HTTP/1.1" 404 178 "-" "Mozilla/5.0 (compatible; YandexBot/3.0; +http://yandex.com/bots)"
37.9.113.70 - - [16/Dec/2018:12:54:14 +0000] "GET / HTTP/1.1" 404 152 "-" "Mozilla/5.0 (compatible; YandexBot/3.0; +http://yandex.com/bots)"
79.131.141.52 - - [16/Dec/2018:13:23:56 +0000] "GET / HTTP/1.0" 200 612 "-" "-"
2.236.247.147 - - [16/Dec/2018:14:27:33 +0000] "GET / HTTP/1.0" 200 612 "-" "-"
86.121.160.57 - - [16/Dec/2018:14:44:59 +0000] "GET / HTTP/1.1" 200 612 "-" "Mozilla/5.0 (Windows NT 10.0; WOW64) AppleWebKit/537.36 (KHTML, like Gecko) Chrome/52.0.2743.116 Safari/537.36"
5.35.37.50 - - [16/Dec/2018:15:18:51 +0000] "GET / HTTP/1.1" 301 194 "http://red-mammoth.ru" "Mozilla/5.0 (Windows NT 6.1; Win64; x64) AppleWebKit/537.36 (KHTML, like Gecko) Chrome/66.0.3343.4 Safari/537.36"
62.109.24.115 - - [16/Dec/2018:15:39:56 +0000] "GET / HTTP/1.1" 301 194 "-" "Go 1.1 package http"
181.57.32.173 - - [16/Dec/2018:16:39:24 +0000] "PROPFIND / HTTP/1.1" 405 182 "-" "-"
181.57.32.173 - - [16/Dec/2018:16:39:24 +0000] "GET /webdav/ HTTP/1.1" 404 178 "-" "Mozilla/5.0"
181.57.32.173 - - [16/Dec/2018:16:39:25 +0000] "GET /help.php HTTP/1.1" 404 178 "-" "Mozilla/5.0 (Windows NT 10.0; Win64; x64; rv:61.0) Gecko/20100101 Firefox/61.0"
181.57.32.173 - - [16/Dec/2018:16:39:25 +0000] "GET /java.php HTTP/1.1" 404 178 "-" "Mozilla/5.0 (Windows NT 10.0; Win64; x64; rv:61.0) Gecko/20100101 Firefox/61.0"
181.57.32.173 - - [16/Dec/2018:16:39:25 +0000] "GET /_query.php HTTP/1.1" 404 178 "-" "Mozilla/5.0 (Windows NT 10.0; Win64; x64; rv:61.0) Gecko/20100101 Firefox/61.0"
181.57.32.173 - - [16/Dec/2018:16:39:25 +0000] "GET /test.php HTTP/1.1" 404 178 "-" "Mozilla/5.0 (Windows NT 10.0; Win64; x64; rv:61.0) Gecko/20100101 Firefox/61.0"
181.57.32.173 - - [16/Dec/2018:16:39:26 +0000] "GET /db_cts.php HTTP/1.1" 404 178 "-" "Mozilla/5.0 (Windows NT 10.0; Win64; x64; rv:61.0) Gecko/20100101 Firefox/61.0"
181.57.32.173 - - [16/Dec/2018:16:39:26 +0000] "GET /db_pma.php HTTP/1.1" 404 178 "-" "Mozilla/5.0 (Windows NT 10.0; Win64; x64; rv:61.0) Gecko/20100101 Firefox/61.0"
181.57.32.173 - - [16/Dec/2018:16:39:26 +0000] "GET /logon.php HTTP/1.1" 404 178 "-" "Mozilla/5.0 (Windows NT 10.0; Win64; x64; rv:61.0) Gecko/20100101 Firefox/61.0"
181.57.32.173 - - [16/Dec/2018:16:39:26 +0000] "GET /help-e.php HTTP/1.1" 404 178 "-" "Mozilla/5.0 (Windows NT 10.0; Win64; x64; rv:61.0) Gecko/20100101 Firefox/61.0"
181.57.32.173 - - [16/Dec/2018:16:39:26 +0000] "GET /license.php HTTP/1.1" 404 178 "-" "Mozilla/5.0 (Windows NT 10.0; Win64; x64; rv:61.0) Gecko/20100101 Firefox/61.0"
181.57.32.173 - - [16/Dec/2018:16:39:27 +0000] "GET /log.php HTTP/1.1" 404 178 "-" "Mozilla/5.0 (Windows NT 10.0; Win64; x64; rv:61.0) Gecko/20100101 Firefox/61.0"
181.57.32.173 - - [16/Dec/2018:16:39:27 +0000] "GET /hell.php HTTP/1.1" 404 178 "-" "Mozilla/5.0 (Windows NT 10.0; Win64; x64; rv:61.0) Gecko/20100101 Firefox/61.0"
181.57.32.173 - - [16/Dec/2018:16:39:27 +0000] "GET /pmd_online.php HTTP/1.1" 404 178 "-" "Mozilla/5.0 (Windows NT 10.0; Win64; x64; rv:61.0) Gecko/20100101 Firefox/61.0"
181.57.32.173 - - [16/Dec/2018:16:39:27 +0000] "GET /x.php HTTP/1.1" 404 178 "-" "Mozilla/5.0 (Windows NT 10.0; Win64; x64; rv:61.0) Gecko/20100101 Firefox/61.0"
181.57.32.173 - - [16/Dec/2018:16:39:28 +0000] "GET /shell.php HTTP/1.1" 404 178 "-" "Mozilla/5.0 (Windows NT 10.0; Win64; x64; rv:61.0) Gecko/20100101 Firefox/61.0"
181.57.32.173 - - [16/Dec/2018:16:39:28 +0000] "GET /htdocs.php HTTP/1.1" 404 178 "-" "Mozilla/5.0 (Windows NT 10.0; Win64; x64; rv:61.0) Gecko/20100101 Firefox/61.0"
181.57.32.173 - - [16/Dec/2018:16:39:28 +0000] "GET /desktop.ini.php HTTP/1.1" 404 178 "-" "Mozilla/5.0 (Windows NT 10.0; Win64; x64; rv:61.0) Gecko/20100101 Firefox/61.0"
181.57.32.173 - - [16/Dec/2018:16:39:28 +0000] "GET /z.php HTTP/1.1" 404 178 "-" "Mozilla/5.0 (Windows NT 10.0; Win64; x64; rv:61.0) Gecko/20100101 Firefox/61.0"
181.57.32.173 - - [16/Dec/2018:16:39:28 +0000] "GET /lala.php HTTP/1.1" 404 178 "-" "Mozilla/5.0 (Windows NT 10.0; Win64; x64; rv:61.0) Gecko/20100101 Firefox/61.0"
181.57.32.173 - - [16/Dec/2018:16:39:29 +0000] "GET /lala-dpr.php HTTP/1.1" 404 178 "-" "Mozilla/5.0 (Windows NT 10.0; Win64; x64; rv:61.0) Gecko/20100101 Firefox/61.0"
181.57.32.173 - - [16/Dec/2018:16:39:29 +0000] "GET /wpc.php HTTP/1.1" 404 178 "-" "Mozilla/5.0 (Windows NT 10.0; Win64; x64; rv:61.0) Gecko/20100101 Firefox/61.0"
181.57.32.173 - - [16/Dec/2018:16:39:29 +0000] "GET /wpo.php HTTP/1.1" 404 178 "-" "Mozilla/5.0 (Windows NT 10.0; Win64; x64; rv:61.0) Gecko/20100101 Firefox/61.0"
181.57.32.173 - - [16/Dec/2018:16:39:29 +0000] "GET /text.php HTTP/1.1" 404 178 "-" "Mozilla/5.0 (Windows NT 10.0; Win64; x64; rv:61.0) Gecko/20100101 Firefox/61.0"
181.57.32.173 - - [16/Dec/2018:16:39:29 +0000] "GET /wp-config.php HTTP/1.1" 404 178 "-" "Mozilla/5.0 (Windows NT 10.0; Win64; x64; rv:61.0) Gecko/20100101 Firefox/61.0"
181.57.32.173 - - [16/Dec/2018:16:39:30 +0000] "GET /muhstik.php HTTP/1.1" 404 178 "-" "Mozilla/5.0 (Windows NT 10.0; Win64; x64; rv:61.0) Gecko/20100101 Firefox/61.0"
181.57.32.173 - - [16/Dec/2018:16:39:30 +0000] "GET /muhstik2.php HTTP/1.1" 404 178 "-" "Mozilla/5.0 (Windows NT 10.0; Win64; x64; rv:61.0) Gecko/20100101 Firefox/61.0"
181.57.32.173 - - [16/Dec/2018:16:39:30 +0000] "GET /muhstiks.php HTTP/1.1" 404 178 "-" "Mozilla/5.0 (Windows NT 10.0; Win64; x64; rv:61.0) Gecko/20100101 Firefox/61.0"
181.57.32.173 - - [16/Dec/2018:16:39:30 +0000] "GET /muhstik-dpr.php HTTP/1.1" 404 178 "-" "Mozilla/5.0 (Windows NT 10.0; Win64; x64; rv:61.0) Gecko/20100101 Firefox/61.0"
181.57.32.173 - - [16/Dec/2018:16:39:31 +0000] "GET /lol.php HTTP/1.1" 404 178 "-" "Mozilla/5.0 (Windows NT 10.0; Win64; x64; rv:61.0) Gecko/20100101 Firefox/61.0"
181.57.32.173 - - [16/Dec/2018:16:39:31 +0000] "GET /uploader.php HTTP/1.1" 404 178 "-" "Mozilla/5.0 (Windows NT 10.0; Win64; x64; rv:61.0) Gecko/20100101 Firefox/61.0"
181.57.32.173 - - [16/Dec/2018:16:39:31 +0000] "GET /cmd.php HTTP/1.1" 404 178 "-" "Mozilla/5.0 (Windows NT 10.0; Win64; x64; rv:61.0) Gecko/20100101 Firefox/61.0"
181.57.32.173 - - [16/Dec/2018:16:39:31 +0000] "GET /cmx.php HTTP/1.1" 404 178 "-" "Mozilla/5.0 (Windows NT 10.0; Win64; x64; rv:61.0) Gecko/20100101 Firefox/61.0"
181.57.32.173 - - [16/Dec/2018:16:39:31 +0000] "GET /cmv.php HTTP/1.1" 404 178 "-" "Mozilla/5.0 (Windows NT 10.0; Win64; x64; rv:61.0) Gecko/20100101 Firefox/61.0"
181.57.32.173 - - [16/Dec/2018:16:39:32 +0000] "GET /cmdd.php HTTP/1.1" 404 178 "-" "Mozilla/5.0 (Windows NT 10.0; Win64; x64; rv:61.0) Gecko/20100101 Firefox/61.0"
181.57.32.173 - - [16/Dec/2018:16:39:32 +0000] "GET /knal.php HTTP/1.1" 404 178 "-" "Mozilla/5.0 (Windows NT 10.0; Win64; x64; rv:61.0) Gecko/20100101 Firefox/61.0"
181.57.32.173 - - [16/Dec/2018:16:39:32 +0000] "GET /cmd.php HTTP/1.1" 404 178 "-" "Mozilla/5.0 (Windows NT 10.0; Win64; x64; rv:61.0) Gecko/20100101 Firefox/61.0"
181.57.32.173 - - [16/Dec/2018:16:39:32 +0000] "GET /shell.php HTTP/1.1" 404 178 "-" "Mozilla/5.0 (Windows NT 10.0; Win64; x64; rv:61.0) Gecko/20100101 Firefox/61.0"
181.57.32.173 - - [16/Dec/2018:16:39:32 +0000] "GET /appserv.php HTTP/1.1" 404 178 "-" "Mozilla/5.0 (Windows NT 10.0; Win64; x64; rv:61.0) Gecko/20100101 Firefox/61.0"
181.57.32.173 - - [16/Dec/2018:16:39:33 +0000] "GET /scripts/setup.php HTTP/1.1" 404 178 "-" "Mozilla/5.0 (Windows NT 10.0; Win64; x64; rv:61.0) Gecko/20100101 Firefox/61.0"
181.57.32.173 - - [16/Dec/2018:16:39:33 +0000] "GET /phpmyadmin/scripts/setup.php HTTP/1.1" 404 178 "-" "Mozilla/5.0 (Windows NT 10.0; Win64; x64; rv:61.0) Gecko/20100101 Firefox/61.0"
181.57.32.173 - - [16/Dec/2018:16:39:33 +0000] "GET /phpMyAdmin/scripts/setup.php HTTP/1.1" 404 178 "-" "Mozilla/5.0 (Windows NT 10.0; Win64; x64; rv:61.0) Gecko/20100101 Firefox/61.0"
181.57.32.173 - - [16/Dec/2018:16:39:33 +0000] "GET /phpmyadmin/scripts/db___.init.php HTTP/1.1" 404 178 "-" "Mozilla/5.0 (Windows NT 10.0; Win64; x64; rv:61.0) Gecko/20100101 Firefox/61.0"
181.57.32.173 - - [16/Dec/2018:16:39:34 +0000] "GET /phpMyAdmin/scripts/db___.init.php HTTP/1.1" 404 178 "-" "Mozilla/5.0 (Windows NT 10.0; Win64; x64; rv:61.0) Gecko/20100101 Firefox/61.0"
181.57.32.173 - - [16/Dec/2018:16:39:34 +0000] "GET /plugins/weathermap/editor.php HTTP/1.1" 404 178 "-" "Mozilla/5.0 (Windows NT 10.0; Win64; x64; rv:61.0) Gecko/20100101 Firefox/61.0"
181.57.32.173 - - [16/Dec/2018:16:39:34 +0000] "GET /cacti/plugins/weathermap/editor.php HTTP/1.1" 404 178 "-" "Mozilla/5.0 (Windows NT 10.0; Win64; x64; rv:61.0) Gecko/20100101 Firefox/61.0"
181.57.32.173 - - [16/Dec/2018:16:39:34 +0000] "GET /index.php?s=/index/\x5Cthink\x5Capp/invokefunction&function=call_user_func_array&vars[0]=md5&vars[1][]=HelloThinkPHP HTTP/1.1" 404 178 "-" "Mozilla/5.0 (Windows NT 10.0; Win64; x64; rv:61.0) Gecko/20100101 Firefox/61.0"
181.57.32.173 - - [16/Dec/2018:16:39:34 +0000] "GET /public/index.php?s=/index/\x5Cthink\x5Capp/invokefunction&function=call_user_func_array&vars[0]=md5&vars[1][]=HelloThinkPHP HTTP/1.1" 404 178 "-" "Mozilla/5.0 (Windows NT 10.0; Win64; x64; rv:61.0) Gecko/20100101 Firefox/61.0"
181.57.32.173 - - [16/Dec/2018:16:39:35 +0000] "GET /html/public/index.php?s=/index/\x5Cthink\x5Capp/invokefunction&function=call_user_func_array&vars[0]=md5&vars[1][]=HelloThinkPHP HTTP/1.1" 404 178 "-" "Mozilla/5.0 (Windows NT 10.0; Win64; x64; rv:61.0) Gecko/20100101 Firefox/61.0"
181.57.32.173 - - [16/Dec/2018:16:39:35 +0000] "GET /thinkphp/public/index.php?s=/index/\x5Cthink\x5Capp/invokefunction&function=call_user_func_array&vars[0]=md5&vars[1][]=HelloThinkPHP HTTP/1.1" 404 178 "-" "Mozilla/5.0 (Windows NT 10.0; Win64; x64; rv:61.0) Gecko/20100101 Firefox/61.0"
181.57.32.173 - - [16/Dec/2018:16:39:37 +0000] "GET /thinkphp/html/public/index.php?s=/index/\x5Cthink\x5Capp/invokefunction&function=call_user_func_array&vars[0]=md5&vars[1][]=HelloThinkPHP HTTP/1.1" 404 178 "-" "Mozilla/5.0 (Windows NT 10.0; Win64; x64; rv:61.0) Gecko/20100101 Firefox/61.0"
181.57.32.173 - - [16/Dec/2018:16:39:37 +0000] "GET /TP/index.php?s=/index/\x5Cthink\x5Capp/invokefunction&function=call_user_func_array&vars[0]=md5&vars[1][]=HelloThinkPHP HTTP/1.1" 404 178 "-" "Mozilla/5.0 (Windows NT 10.0; Win64; x64; rv:61.0) Gecko/20100101 Firefox/61.0"
181.57.32.173 - - [16/Dec/2018:16:39:37 +0000] "GET /TP/public/index.php?s=/index/\x5Cthink\x5Capp/invokefunction&function=call_user_func_array&vars[0]=md5&vars[1][]=HelloThinkPHP HTTP/1.1" 404 178 "-" "Mozilla/5.0 (Windows NT 10.0; Win64; x64; rv:61.0) Gecko/20100101 Firefox/61.0"
181.57.32.173 - - [16/Dec/2018:16:39:37 +0000] "GET /TP/html/public/index.php?s=/index/\x5Cthink\x5Capp/invokefunction&function=call_user_func_array&vars[0]=md5&vars[1][]=HelloThinkPHP HTTP/1.1" 404 178 "-" "Mozilla/5.0 (Windows NT 10.0; Win64; x64; rv:61.0) Gecko/20100101 Firefox/61.0"
181.57.32.173 - - [16/Dec/2018:16:39:38 +0000] "POST /wuwu11.php HTTP/1.1" 404 580 "-" "Mozilla/5.0 (Windows NT 6.1) AppleWebKit/537.36 (KHTML, like Gecko) Chrome/58.0.3029.110 Safari/537.36 SE 2.X MetaSr 1.0"
181.57.32.173 - - [16/Dec/2018:16:39:38 +0000] "POST /xw.php HTTP/1.1" 404 580 "-" "Mozilla/5.0 (Windows NT 6.1) AppleWebKit/537.36 (KHTML, like Gecko) Chrome/58.0.3029.110 Safari/537.36 SE 2.X MetaSr 1.0"
181.57.32.173 - - [16/Dec/2018:16:39:39 +0000] "POST /xw1.php HTTP/1.1" 404 580 "-" "Mozilla/5.0 (Windows NT 6.1) AppleWebKit/537.36 (KHTML, like Gecko) Chrome/58.0.3029.110 Safari/537.36 SE 2.X MetaSr 1.0"
181.57.32.173 - - [16/Dec/2018:16:39:39 +0000] "POST /9678.php HTTP/1.1" 404 580 "-" "Mozilla/5.0 (Windows NT 6.1) AppleWebKit/537.36 (KHTML, like Gecko) Chrome/58.0.3029.110 Safari/537.36 SE 2.X MetaSr 1.0"
181.57.32.173 - - [16/Dec/2018:16:39:39 +0000] "POST /wc.php HTTP/1.1" 404 580 "-" "Mozilla/5.0 (Windows NT 6.1) AppleWebKit/537.36 (KHTML, like Gecko) Chrome/58.0.3029.110 Safari/537.36 SE 2.X MetaSr 1.0"
181.57.32.173 - - [16/Dec/2018:16:39:39 +0000] "POST /xx.php HTTP/1.1" 404 580 "-" "Mozilla/5.0 (Windows NT 6.1) AppleWebKit/537.36 (KHTML, like Gecko) Chrome/58.0.3029.110 Safari/537.36 SE 2.X MetaSr 1.0"
181.57.32.173 - - [16/Dec/2018:16:39:39 +0000] "POST /s.php HTTP/1.1" 404 580 "-" "Mozilla/5.0 (Windows NT 6.1) AppleWebKit/537.36 (KHTML, like Gecko) Chrome/58.0.3029.110 Safari/537.36 SE 2.X MetaSr 1.0"
181.57.32.173 - - [16/Dec/2018:16:39:40 +0000] "POST /w.php HTTP/1.1" 404 580 "-" "Mozilla/5.0 (Windows NT 6.1) AppleWebKit/537.36 (KHTML, like Gecko) Chrome/58.0.3029.110 Safari/537.36 SE 2.X MetaSr 1.0"
181.57.32.173 - - [16/Dec/2018:16:39:40 +0000] "POST /sheep.php HTTP/1.1" 404 580 "-" "Mozilla/5.0 (Windows NT 6.1) AppleWebKit/537.36 (KHTML, like Gecko) Chrome/58.0.3029.110 Safari/537.36 SE 2.X MetaSr 1.0"
181.57.32.173 - - [16/Dec/2018:16:39:40 +0000] "POST /qaq.php HTTP/1.1" 404 580 "-" "Mozilla/5.0 (Windows NT 6.1) AppleWebKit/537.36 (KHTML, like Gecko) Chrome/58.0.3029.110 Safari/537.36 SE 2.X MetaSr 1.0"
181.57.32.173 - - [16/Dec/2018:16:39:40 +0000] "POST /db.init.php HTTP/1.1" 404 580 "-" "Mozilla/5.0 (Windows NT 6.1) AppleWebKit/537.36 (KHTML, like Gecko) Chrome/58.0.3029.110 Safari/537.36 SE 2.X MetaSr 1.0"
181.57.32.173 - - [16/Dec/2018:16:39:40 +0000] "POST /db_session.init.php HTTP/1.1" 404 580 "-" "Mozilla/5.0 (Windows NT 6.1) AppleWebKit/537.36 (KHTML, like Gecko) Chrome/58.0.3029.110 Safari/537.36 SE 2.X MetaSr 1.0"
181.57.32.173 - - [16/Dec/2018:16:39:41 +0000] "POST /db__.init.php HTTP/1.1" 404 580 "-" "Mozilla/5.0 (Windows NT 6.1) AppleWebKit/537.36 (KHTML, like Gecko) Chrome/58.0.3029.110 Safari/537.36 SE 2.X MetaSr 1.0"
181.57.32.173 - - [16/Dec/2018:16:39:41 +0000] "POST /wp-admins.php HTTP/1.1" 404 580 "-" "Mozilla/5.0 (Windows NT 6.1) AppleWebKit/537.36 (KHTML, like Gecko) Chrome/58.0.3029.110 Safari/537.36 SE 2.X MetaSr 1.0"
181.57.32.173 - - [16/Dec/2018:16:39:41 +0000] "POST /m.php?pbid=open HTTP/1.1" 404 580 "-" "Mozilla/5.0 (Windows NT 6.1) AppleWebKit/537.36 (KHTML, like Gecko) Chrome/58.0.3029.110 Safari/537.36 SE 2.X MetaSr 1.0"
181.57.32.173 - - [16/Dec/2018:16:39:41 +0000] "POST /db_dataml.php HTTP/1.1" 404 580 "-" "Mozilla/5.0 (Windows NT 6.1) AppleWebKit/537.36 (KHTML, like Gecko) Chrome/58.0.3029.110 Safari/537.36 SE 2.X MetaSr 1.0"
181.57.32.173 - - [16/Dec/2018:16:39:42 +0000] "POST /db_desql.php HTTP/1.1" 404 580 "-" "Mozilla/5.0 (Windows NT 6.1) AppleWebKit/537.36 (KHTML, like Gecko) Chrome/58.0.3029.110 Safari/537.36 SE 2.X MetaSr 1.0"
181.57.32.173 - - [16/Dec/2018:16:39:42 +0000] "POST /mx.php HTTP/1.1" 404 580 "-" "Mozilla/5.0 (Windows NT 6.1) AppleWebKit/537.36 (KHTML, like Gecko) Chrome/58.0.3029.110 Safari/537.36 SE 2.X MetaSr 1.0"
181.57.32.173 - - [16/Dec/2018:16:39:42 +0000] "POST /wshell.php HTTP/1.1" 404 580 "-" "Mozilla/5.0 (Windows NT 6.1) AppleWebKit/537.36 (KHTML, like Gecko) Chrome/58.0.3029.110 Safari/537.36 SE 2.X MetaSr 1.0"
181.57.32.173 - - [16/Dec/2018:16:39:42 +0000] "POST /xshell.php HTTP/1.1" 404 580 "-" "Mozilla/5.0 (Windows NT 6.1) AppleWebKit/537.36 (KHTML, like Gecko) Chrome/58.0.3029.110 Safari/537.36 SE 2.X MetaSr 1.0"
181.57.32.173 - - [16/Dec/2018:16:39:42 +0000] "POST /qq.php HTTP/1.1" 404 580 "-" "Mozilla/5.0 (Windows NT 6.1) AppleWebKit/537.36 (KHTML, like Gecko) Chrome/58.0.3029.110 Safari/537.36 SE 2.X MetaSr 1.0"
181.57.32.173 - - [16/Dec/2018:16:39:43 +0000] "POST /conflg.php HTTP/1.1" 404 580 "-" "Mozilla/5.0 (Windows NT 6.1) AppleWebKit/537.36 (KHTML, like Gecko) Chrome/58.0.3029.110 Safari/537.36 SE 2.X MetaSr 1.0"
181.57.32.173 - - [16/Dec/2018:16:39:43 +0000] "POST /lindex.php HTTP/1.1" 404 580 "-" "Mozilla/5.0 (Windows NT 6.1) AppleWebKit/537.36 (KHTML, like Gecko) Chrome/58.0.3029.110 Safari/537.36 SE 2.X MetaSr 1.0"
181.57.32.173 - - [16/Dec/2018:16:39:43 +0000] "POST /phpstudy.php HTTP/1.1" 404 580 "-" "Mozilla/5.0 (Windows NT 6.1) AppleWebKit/537.36 (KHTML, like Gecko) Chrome/58.0.3029.110 Safari/537.36 SE 2.X MetaSr 1.0"
181.57.32.173 - - [16/Dec/2018:16:39:43 +0000] "POST /phpStudy.php HTTP/1.1" 404 580 "-" "Mozilla/5.0 (Windows NT 6.1) AppleWebKit/537.36 (KHTML, like Gecko) Chrome/58.0.3029.110 Safari/537.36 SE 2.X MetaSr 1.0"
181.57.32.173 - - [16/Dec/2018:16:39:43 +0000] "POST /weixiao.php HTTP/1.1" 404 580 "-" "Mozilla/5.0 (Windows NT 6.1) AppleWebKit/537.36 (KHTML, like Gecko) Chrome/58.0.3029.110 Safari/537.36 SE 2.X MetaSr 1.0"
181.57.32.173 - - [16/Dec/2018:16:39:44 +0000] "POST /feixiang.php HTTP/1.1" 404 580 "-" "Mozilla/5.0 (Windows NT 6.1) AppleWebKit/537.36 (KHTML, like Gecko) Chrome/58.0.3029.110 Safari/537.36 SE 2.X MetaSr 1.0"
181.57.32.173 - - [16/Dec/2018:16:39:44 +0000] "POST /ak47.php HTTP/1.1" 404 580 "-" "Mozilla/5.0 (Windows NT 6.1) AppleWebKit/537.36 (KHTML, like Gecko) Chrome/58.0.3029.110 Safari/537.36 SE 2.X MetaSr 1.0"
181.57.32.173 - - [16/Dec/2018:16:39:44 +0000] "POST /ak48.php HTTP/1.1" 404 580 "-" "Mozilla/5.0 (Windows NT 6.1) AppleWebKit/537.36 (KHTML, like Gecko) Chrome/58.0.3029.110 Safari/537.36 SE 2.X MetaSr 1.0"
181.57.32.173 - - [16/Dec/2018:16:39:44 +0000] "POST /xiao.php HTTP/1.1" 404 580 "-" "Mozilla/5.0 (Windows NT 6.1) AppleWebKit/537.36 (KHTML, like Gecko) Chrome/58.0.3029.110 Safari/537.36 SE 2.X MetaSr 1.0"
181.57.32.173 - - [16/Dec/2018:16:39:45 +0000] "POST /yao.php HTTP/1.1" 404 580 "-" "Mozilla/5.0 (Windows NT 6.1) AppleWebKit/537.36 (KHTML, like Gecko) Chrome/58.0.3029.110 Safari/537.36 SE 2.X MetaSr 1.0"
181.57.32.173 - - [16/Dec/2018:16:39:45 +0000] "POST /defect.php HTTP/1.1" 404 580 "-" "Mozilla/5.0 (Windows NT 6.1) AppleWebKit/537.36 (KHTML, like Gecko) Chrome/58.0.3029.110 Safari/537.36 SE 2.X MetaSr 1.0"
181.57.32.173 - - [16/Dec/2018:16:39:45 +0000] "POST /webslee.php HTTP/1.1" 404 580 "-" "Mozilla/5.0 (Windows NT 6.1) AppleWebKit/537.36 (KHTML, like Gecko) Chrome/58.0.3029.110 Safari/537.36 SE 2.X MetaSr 1.0"
181.57.32.173 - - [16/Dec/2018:16:39:45 +0000] "POST /q.php HTTP/1.1" 404 580 "-" "Mozilla/5.0 (Windows NT 6.1) AppleWebKit/537.36 (KHTML, like Gecko) Chrome/58.0.3029.110 Safari/537.36 SE 2.X MetaSr 1.0"
181.57.32.173 - - [16/Dec/2018:16:39:45 +0000] "POST /pe.php HTTP/1.1" 404 580 "-" "Mozilla/5.0 (Windows NT 6.1) AppleWebKit/537.36 (KHTML, like Gecko) Chrome/58.0.3029.110 Safari/537.36 SE 2.X MetaSr 1.0"
181.57.32.173 - - [16/Dec/2018:16:39:46 +0000] "POST /hm.php HTTP/1.1" 404 580 "-" "Mozilla/5.0 (Windows NT 6.1) AppleWebKit/537.36 (KHTML, like Gecko) Chrome/58.0.3029.110 Safari/537.36 SE 2.X MetaSr 1.0"
181.57.32.173 - - [16/Dec/2018:16:39:46 +0000] "POST /cainiao.php HTTP/1.1" 404 580 "-" "Mozilla/5.0 (Windows NT 6.1) AppleWebKit/537.36 (KHTML, like Gecko) Chrome/58.0.3029.110 Safari/537.36 SE 2.X MetaSr 1.0"
181.57.32.173 - - [16/Dec/2018:16:39:46 +0000] "POST /zuoshou.php HTTP/1.1" 404 580 "-" "Mozilla/5.0 (Windows NT 6.1) AppleWebKit/537.36 (KHTML, like Gecko) Chrome/58.0.3029.110 Safari/537.36 SE 2.X MetaSr 1.0"
181.57.32.173 - - [16/Dec/2018:16:39:46 +0000] "POST /zuo.php HTTP/1.1" 404 580 "-" "Mozilla/5.0 (Windows NT 6.1) AppleWebKit/537.36 (KHTML, like Gecko) Chrome/58.0.3029.110 Safari/537.36 SE 2.X MetaSr 1.0"
181.57.32.173 - - [16/Dec/2018:16:39:46 +0000] "POST /aotu.php HTTP/1.1" 404 580 "-" "Mozilla/5.0 (Windows NT 6.1) AppleWebKit/537.36 (KHTML, like Gecko) Chrome/58.0.3029.110 Safari/537.36 SE 2.X MetaSr 1.0"
181.57.32.173 - - [16/Dec/2018:16:39:47 +0000] "POST /cmd.php HTTP/1.1" 404 580 "-" "Mozilla/5.0 (Windows NT 6.1) AppleWebKit/537.36 (KHTML, like Gecko) Chrome/58.0.3029.110 Safari/537.36 SE 2.X MetaSr 1.0"
181.57.32.173 - - [16/Dec/2018:16:39:47 +0000] "POST /bak.php HTTP/1.1" 404 580 "-" "Mozilla/5.0 (Windows NT 6.1) AppleWebKit/537.36 (KHTML, like Gecko) Chrome/58.0.3029.110 Safari/537.36 SE 2.X MetaSr 1.0"
181.57.32.173 - - [16/Dec/2018:16:39:47 +0000] "POST /system.php HTTP/1.1" 404 580 "-" "Mozilla/5.0 (Windows NT 6.1) AppleWebKit/537.36 (KHTML, like Gecko) Chrome/58.0.3029.110 Safari/537.36 SE 2.X MetaSr 1.0"
181.57.32.173 - - [16/Dec/2018:16:39:47 +0000] "POST /l6.php HTTP/1.1" 404 580 "-" "Mozilla/5.0 (Windows NT 6.1) AppleWebKit/537.36 (KHTML, like Gecko) Chrome/58.0.3029.110 Safari/537.36 SE 2.X MetaSr 1.0"
181.57.32.173 - - [16/Dec/2018:16:39:48 +0000] "POST /l7.php HTTP/1.1" 404 580 "-" "Mozilla/5.0 (Windows NT 6.1) AppleWebKit/537.36 (KHTML, like Gecko) Chrome/58.0.3029.110 Safari/537.36 SE 2.X MetaSr 1.0"
181.57.32.173 - - [16/Dec/2018:16:39:48 +0000] "POST /l8.php HTTP/1.1" 404 580 "-" "Mozilla/5.0 (Windows NT 6.1) AppleWebKit/537.36 (KHTML, like Gecko) Chrome/58.0.3029.110 Safari/537.36 SE 2.X MetaSr 1.0"
181.57.32.173 - - [16/Dec/2018:16:39:48 +0000] "POST /q.php HTTP/1.1" 404 580 "-" "Mozilla/5.0 (Windows NT 6.1) AppleWebKit/537.36 (KHTML, like Gecko) Chrome/58.0.3029.110 Safari/537.36 SE 2.X MetaSr 1.0"
181.57.32.173 - - [16/Dec/2018:16:39:48 +0000] "POST /56.php HTTP/1.1" 404 580 "-" "Mozilla/5.0 (Windows NT 6.1) AppleWebKit/537.36 (KHTML, like Gecko) Chrome/58.0.3029.110 Safari/537.36 SE 2.X MetaSr 1.0"
181.57.32.173 - - [16/Dec/2018:16:39:49 +0000] "POST /mz.php HTTP/1.1" 404 580 "-" "Mozilla/5.0 (Windows NT 6.1) AppleWebKit/537.36 (KHTML, like Gecko) Chrome/58.0.3029.110 Safari/537.36 SE 2.X MetaSr 1.0"
181.57.32.173 - - [16/Dec/2018:16:39:49 +0000] "POST /xx.php HTTP/1.1" 404 580 "-" "Mozilla/5.0 (Windows NT 6.1) AppleWebKit/537.36 (KHTML, like Gecko) Chrome/58.0.3029.110 Safari/537.36 SE 2.X MetaSr 1.0"
181.57.32.173 - - [16/Dec/2018:16:39:49 +0000] "POST /yumo.php HTTP/1.1" 404 580 "-" "Mozilla/5.0 (Windows NT 6.1) AppleWebKit/537.36 (KHTML, like Gecko) Chrome/58.0.3029.110 Safari/537.36 SE 2.X MetaSr 1.0"
181.57.32.173 - - [16/Dec/2018:16:39:49 +0000] "POST /min.php HTTP/1.1" 404 580 "-" "Mozilla/5.0 (Windows NT 6.1) AppleWebKit/537.36 (KHTML, like Gecko) Chrome/58.0.3029.110 Safari/537.36 SE 2.X MetaSr 1.0"
181.57.32.173 - - [16/Dec/2018:16:39:49 +0000] "POST /wan.php HTTP/1.1" 404 580 "-" "Mozilla/5.0 (Windows NT 6.1) AppleWebKit/537.36 (KHTML, like Gecko) Chrome/58.0.3029.110 Safari/537.36 SE 2.X MetaSr 1.0"
181.57.32.173 - - [16/Dec/2018:16:39:50 +0000] "POST /wanan.php HTTP/1.1" 404 580 "-" "Mozilla/5.0 (Windows NT 6.1) AppleWebKit/537.36 (KHTML, like Gecko) Chrome/58.0.3029.110 Safari/537.36 SE 2.X MetaSr 1.0"
181.57.32.173 - - [16/Dec/2018:16:39:50 +0000] "POST /ssaa.php HTTP/1.1" 404 580 "-" "Mozilla/5.0 (Windows NT 6.1) AppleWebKit/537.36 (KHTML, like Gecko) Chrome/58.0.3029.110 Safari/537.36 SE 2.X MetaSr 1.0"
181.57.32.173 - - [16/Dec/2018:16:39:50 +0000] "POST /qq.php HTTP/1.1" 404 580 "-" "Mozilla/5.0 (Windows NT 6.1) AppleWebKit/537.36 (KHTML, like Gecko) Chrome/58.0.3029.110 Safari/537.36 SE 2.X MetaSr 1.0"
181.57.32.173 - - [16/Dec/2018:16:39:50 +0000] "POST /aw.php HTTP/1.1" 404 580 "-" "Mozilla/5.0 (Windows NT 6.1) AppleWebKit/537.36 (KHTML, like Gecko) Chrome/58.0.3029.110 Safari/537.36 SE 2.X MetaSr 1.0"
181.57.32.173 - - [16/Dec/2018:16:39:51 +0000] "POST /12.php HTTP/1.1" 404 580 "-" "Mozilla/5.0 (Windows NT 6.1) AppleWebKit/537.36 (KHTML, like Gecko) Chrome/58.0.3029.110 Safari/537.36 SE 2.X MetaSr 1.0"
181.57.32.173 - - [16/Dec/2018:16:39:51 +0000] "POST /hh.php HTTP/1.1" 404 580 "-" "Mozilla/5.0 (Windows NT 6.1) AppleWebKit/537.36 (KHTML, like Gecko) Chrome/58.0.3029.110 Safari/537.36 SE 2.X MetaSr 1.0"
181.57.32.173 - - [16/Dec/2018:16:39:51 +0000] "POST /ak.php HTTP/1.1" 404 580 "-" "Mozilla/5.0 (Windows NT 6.1) AppleWebKit/537.36 (KHTML, like Gecko) Chrome/58.0.3029.110 Safari/537.36 SE 2.X MetaSr 1.0"
181.57.32.173 - - [16/Dec/2018:16:39:51 +0000] "POST /ip.php HTTP/1.1" 404 580 "-" "Mozilla/5.0 (Windows NT 6.1) AppleWebKit/537.36 (KHTML, like Gecko) Chrome/58.0.3029.110 Safari/537.36 SE 2.X MetaSr 1.0"
181.57.32.173 - - [16/Dec/2018:16:39:51 +0000] "POST /infoo.php HTTP/1.1" 404 580 "-" "Mozilla/5.0 (Windows NT 6.1) AppleWebKit/537.36 (KHTML, like Gecko) Chrome/58.0.3029.110 Safari/537.36 SE 2.X MetaSr 1.0"
181.57.32.173 - - [16/Dec/2018:16:39:52 +0000] "POST /qq.php HTTP/1.1" 404 580 "-" "Mozilla/5.0 (Windows NT 6.1) AppleWebKit/537.36 (KHTML, like Gecko) Chrome/58.0.3029.110 Safari/537.36 SE 2.X MetaSr 1.0"
181.57.32.173 - - [16/Dec/2018:16:39:52 +0000] "POST /qwe.php HTTP/1.1" 404 580 "-" "Mozilla/5.0 (Windows NT 6.1) AppleWebKit/537.36 (KHTML, like Gecko) Chrome/58.0.3029.110 Safari/537.36 SE 2.X MetaSr 1.0"
181.57.32.173 - - [16/Dec/2018:16:39:52 +0000] "POST /1213.php HTTP/1.1" 404 580 "-" "Mozilla/5.0 (Windows NT 6.1) AppleWebKit/537.36 (KHTML, like Gecko) Chrome/58.0.3029.110 Safari/537.36 SE 2.X MetaSr 1.0"
181.57.32.173 - - [16/Dec/2018:16:39:52 +0000] "POST /post.php HTTP/1.1" 404 580 "-" "Mozilla/5.0 (Windows NT 6.1) AppleWebKit/537.36 (KHTML, like Gecko) Chrome/58.0.3029.110 Safari/537.36 SE 2.X MetaSr 1.0"
181.57.32.173 - - [16/Dec/2018:16:39:52 +0000] "POST /aaaa.php HTTP/1.1" 404 580 "-" "Mozilla/5.0 (Windows NT 6.1) AppleWebKit/537.36 (KHTML, like Gecko) Chrome/58.0.3029.110 Safari/537.36 SE 2.X MetaSr 1.0"
181.57.32.173 - - [16/Dec/2018:16:39:53 +0000] "POST /h1.php HTTP/1.1" 404 580 "-" "Mozilla/5.0 (Windows NT 6.1) AppleWebKit/537.36 (KHTML, like Gecko) Chrome/58.0.3029.110 Safari/537.36 SE 2.X MetaSr 1.0"
181.57.32.173 - - [16/Dec/2018:16:39:53 +0000] "POST /test.php HTTP/1.1" 404 580 "-" "Mozilla/5.0 (Windows NT 6.1) AppleWebKit/537.36 (KHTML, like Gecko) Chrome/58.0.3029.110 Safari/537.36 SE 2.X MetaSr 1.0"
181.57.32.173 - - [16/Dec/2018:16:39:53 +0000] "POST /3.php HTTP/1.1" 404 580 "-" "Mozilla/5.0 (Windows NT 6.1) AppleWebKit/537.36 (KHTML, like Gecko) Chrome/58.0.3029.110 Safari/537.36 SE 2.X MetaSr 1.0"
181.57.32.173 - - [16/Dec/2018:16:39:53 +0000] "POST /phpinfi.php HTTP/1.1" 404 580 "-" "Mozilla/5.0 (Windows NT 6.1) AppleWebKit/537.36 (KHTML, like Gecko) Chrome/58.0.3029.110 Safari/537.36 SE 2.X MetaSr 1.0"
181.57.32.173 - - [16/Dec/2018:16:39:53 +0000] "POST /9510.php HTTP/1.1" 404 580 "-" "Mozilla/5.0 (Windows NT 6.1) AppleWebKit/537.36 (KHTML, like Gecko) Chrome/58.0.3029.110 Safari/537.36 SE 2.X MetaSr 1.0"
181.57.32.173 - - [16/Dec/2018:16:39:54 +0000] "POST /python.php HTTP/1.1" 404 580 "-" "Mozilla/5.0 (Windows NT 6.1) AppleWebKit/537.36 (KHTML, like Gecko) Chrome/58.0.3029.110 Safari/537.36 SE 2.X MetaSr 1.0"
181.57.32.173 - - [16/Dec/2018:16:39:54 +0000] "POST /default.php HTTP/1.1" 404 580 "-" "Mozilla/5.0 (Windows NT 6.1) AppleWebKit/537.36 (KHTML, like Gecko) Chrome/58.0.3029.110 Safari/537.36 SE 2.X MetaSr 1.0"
181.57.32.173 - - [16/Dec/2018:16:39:54 +0000] "POST /sean.php HTTP/1.1" 404 580 "-" "Mozilla/5.0 (Windows NT 6.1) AppleWebKit/537.36 (KHTML, like Gecko) Chrome/58.0.3029.110 Safari/537.36 SE 2.X MetaSr 1.0"
181.57.32.173 - - [16/Dec/2018:16:39:54 +0000] "POST /app.php HTTP/1.1" 404 580 "-" "Mozilla/5.0 (Windows NT 6.1) AppleWebKit/537.36 (KHTML, like Gecko) Chrome/58.0.3029.110 Safari/537.36 SE 2.X MetaSr 1.0"
181.57.32.173 - - [16/Dec/2018:16:39:55 +0000] "POST /help.php HTTP/1.1" 404 580 "-" "Mozilla/5.0 (Windows NT 6.1) AppleWebKit/537.36 (KHTML, like Gecko) Chrome/58.0.3029.110 Safari/537.36 SE 2.X MetaSr 1.0"
181.57.32.173 - - [16/Dec/2018:16:39:55 +0000] "POST /tiandi.php HTTP/1.1" 404 580 "-" "Mozilla/5.0 (Windows NT 6.1) AppleWebKit/537.36 (KHTML, like Gecko) Chrome/58.0.3029.110 Safari/537.36 SE 2.X MetaSr 1.0"
181.57.32.173 - - [16/Dec/2018:16:39:55 +0000] "POST /miao.php HTTP/1.1" 404 580 "-" "Mozilla/5.0 (Windows NT 6.1) AppleWebKit/537.36 (KHTML, like Gecko) Chrome/58.0.3029.110 Safari/537.36 SE 2.X MetaSr 1.0"
181.57.32.173 - - [16/Dec/2018:16:39:55 +0000] "POST /xz.php HTTP/1.1" 404 580 "-" "Mozilla/5.0 (Windows NT 6.1) AppleWebKit/537.36 (KHTML, like Gecko) Chrome/58.0.3029.110 Safari/537.36 SE 2.X MetaSr 1.0"
181.57.32.173 - - [16/Dec/2018:16:39:55 +0000] "POST /linuxse.php HTTP/1.1" 404 580 "-" "Mozilla/5.0 (Windows NT 6.1) AppleWebKit/537.36 (KHTML, like Gecko) Chrome/58.0.3029.110 Safari/537.36 SE 2.X MetaSr 1.0"
181.57.32.173 - - [16/Dec/2018:16:39:56 +0000] "POST /zuoindex.php HTTP/1.1" 404 580 "-" "Mozilla/5.0 (Windows NT 6.1) AppleWebKit/537.36 (KHTML, like Gecko) Chrome/58.0.3029.110 Safari/537.36 SE 2.X MetaSr 1.0"
181.57.32.173 - - [16/Dec/2018:16:39:56 +0000] "POST /zshmindex.php HTTP/1.1" 404 580 "-" "Mozilla/5.0 (Windows NT 6.1) AppleWebKit/537.36 (KHTML, like Gecko) Chrome/58.0.3029.110 Safari/537.36 SE 2.X MetaSr 1.0"
181.57.32.173 - - [16/Dec/2018:16:39:56 +0000] "POST /tomcat.php HTTP/1.1" 404 580 "-" "Mozilla/5.0 (Windows NT 6.1) AppleWebKit/537.36 (KHTML, like Gecko) Chrome/58.0.3029.110 Safari/537.36 SE 2.X MetaSr 1.0"
181.57.32.173 - - [16/Dec/2018:16:39:56 +0000] "POST /ceshi.php HTTP/1.1" 404 580 "-" "Mozilla/5.0 (Windows NT 6.1) AppleWebKit/537.36 (KHTML, like Gecko) Chrome/58.0.3029.110 Safari/537.36 SE 2.X MetaSr 1.0"
181.57.32.173 - - [16/Dec/2018:16:39:56 +0000] "POST /1hou.php HTTP/1.1" 404 580 "-" "Mozilla/5.0 (Windows NT 6.1) AppleWebKit/537.36 (KHTML, like Gecko) Chrome/58.0.3029.110 Safari/537.36 SE 2.X MetaSr 1.0"
181.57.32.173 - - [16/Dec/2018:16:39:57 +0000] "POST /ou2.php HTTP/1.1" 404 580 "-" "Mozilla/5.0 (Windows NT 6.1) AppleWebKit/537.36 (KHTML, like Gecko) Chrome/58.0.3029.110 Safari/537.36 SE 2.X MetaSr 1.0"
181.57.32.173 - - [16/Dec/2018:16:39:57 +0000] "POST /zuos.php HTTP/1.1" 404 580 "-" "Mozilla/5.0 (Windows NT 6.1) AppleWebKit/537.36 (KHTML, like Gecko) Chrome/58.0.3029.110 Safari/537.36 SE 2.X MetaSr 1.0"
181.57.32.173 - - [16/Dec/2018:16:39:57 +0000] "POST /zuoss.php HTTP/1.1" 404 580 "-" "Mozilla/5.0 (Windows NT 6.1) AppleWebKit/537.36 (KHTML, like Gecko) Chrome/58.0.3029.110 Safari/537.36 SE 2.X MetaSr 1.0"
181.57.32.173 - - [16/Dec/2018:16:39:57 +0000] "POST /zuoshss.php HTTP/1.1" 404 580 "-" "Mozilla/5.0 (Windows NT 6.1) AppleWebKit/537.36 (KHTML, like Gecko) Chrome/58.0.3029.110 Safari/537.36 SE 2.X MetaSr 1.0"
181.57.32.173 - - [16/Dec/2018:16:39:57 +0000] "POST /boots.php HTTP/1.1" 404 580 "-" "Mozilla/5.0 (Windows NT 6.1) AppleWebKit/537.36 (KHTML, like Gecko) Chrome/58.0.3029.110 Safari/537.36 SE 2.X MetaSr 1.0"
181.57.32.173 - - [16/Dec/2018:16:39:58 +0000] "POST /she.php HTTP/1.1" 404 580 "-" "Mozilla/5.0 (Windows NT 6.1) AppleWebKit/537.36 (KHTML, like Gecko) Chrome/58.0.3029.110 Safari/537.36 SE 2.X MetaSr 1.0"
181.57.32.173 - - [16/Dec/2018:16:39:58 +0000] "POST /s.php HTTP/1.1" 404 580 "-" "Mozilla/5.0 (Windows NT 6.1) AppleWebKit/537.36 (KHTML, like Gecko) Chrome/58.0.3029.110 Safari/537.36 SE 2.X MetaSr 1.0"
181.57.32.173 - - [16/Dec/2018:16:39:58 +0000] "POST /qw.php HTTP/1.1" 404 580 "-" "Mozilla/5.0 (Windows NT 6.1) AppleWebKit/537.36 (KHTML, like Gecko) Chrome/58.0.3029.110 Safari/537.36 SE 2.X MetaSr 1.0"
181.57.32.173 - - [16/Dec/2018:16:39:58 +0000] "POST /test.php HTTP/1.1" 404 580 "-" "Mozilla/5.0 (Windows NT 6.1) AppleWebKit/537.36 (KHTML, like Gecko) Chrome/58.0.3029.110 Safari/537.36 SE 2.X MetaSr 1.0"
181.57.32.173 - - [16/Dec/2018:16:39:58 +0000] "POST /caonma.php HTTP/1.1" 404 580 "-" "Mozilla/5.0 (Windows NT 6.1) AppleWebKit/537.36 (KHTML, like Gecko) Chrome/58.0.3029.110 Safari/537.36 SE 2.X MetaSr 1.0"
181.57.32.173 - - [16/Dec/2018:16:39:59 +0000] "POST /ss.php HTTP/1.1" 404 580 "-" "Mozilla/5.0 (Windows NT 6.1) AppleWebKit/537.36 (KHTML, like Gecko) Chrome/58.0.3029.110 Safari/537.36 SE 2.X MetaSr 1.0"
181.57.32.173 - - [16/Dec/2018:16:39:59 +0000] "POST /wcp.php HTTP/1.1" 404 580 "-" "Mozilla/5.0 (Windows NT 6.1) AppleWebKit/537.36 (KHTML, like Gecko) Chrome/58.0.3029.110 Safari/537.36 SE 2.X MetaSr 1.0"
181.57.32.173 - - [16/Dec/2018:16:39:59 +0000] "POST /u.php HTTP/1.1" 404 580 "-" "Mozilla/5.0 (Windows NT 6.1) AppleWebKit/537.36 (KHTML, like Gecko) Chrome/58.0.3029.110 Safari/537.36 SE 2.X MetaSr 1.0"
181.57.32.173 - - [16/Dec/2018:16:39:59 +0000] "POST /uuu.php HTTP/1.1" 404 580 "-" "Mozilla/5.0 (Windows NT 6.1) AppleWebKit/537.36 (KHTML, like Gecko) Chrome/58.0.3029.110 Safari/537.36 SE 2.X MetaSr 1.0"
181.57.32.173 - - [16/Dec/2018:16:40:00 +0000] "POST /sss.php HTTP/1.1" 404 580 "-" "Mozilla/5.0 (Windows NT 6.1) AppleWebKit/537.36 (KHTML, like Gecko) Chrome/58.0.3029.110 Safari/537.36 SE 2.X MetaSr 1.0"
181.57.32.173 - - [16/Dec/2018:16:40:00 +0000] "POST /1.php HTTP/1.1" 404 580 "-" "Mozilla/5.0 (Windows NT 6.1) AppleWebKit/537.36 (KHTML, like Gecko) Chrome/58.0.3029.110 Safari/537.36 SE 2.X MetaSr 1.0"
181.57.32.173 - - [16/Dec/2018:16:40:00 +0000] "POST /2.php HTTP/1.1" 404 580 "-" "Mozilla/5.0 (Windows NT 6.1) AppleWebKit/537.36 (KHTML, like Gecko) Chrome/58.0.3029.110 Safari/537.36 SE 2.X MetaSr 1.0"
181.57.32.173 - - [16/Dec/2018:16:40:00 +0000] "POST /core.php HTTP/1.1" 404 580 "-" "Mozilla/5.0 (Windows NT 6.1) AppleWebKit/537.36 (KHTML, like Gecko) Chrome/58.0.3029.110 Safari/537.36 SE 2.X MetaSr 1.0"
181.57.32.173 - - [16/Dec/2018:16:40:00 +0000] "POST /qaz.php HTTP/1.1" 404 580 "-" "Mozilla/5.0 (Windows NT 6.1) AppleWebKit/537.36 (KHTML, like Gecko) Chrome/58.0.3029.110 Safari/537.36 SE 2.X MetaSr 1.0"
181.57.32.173 - - [16/Dec/2018:16:40:01 +0000] "POST /sha.php HTTP/1.1" 404 580 "-" "Mozilla/5.0 (Windows NT 6.1) AppleWebKit/537.36 (KHTML, like Gecko) Chrome/58.0.3029.110 Safari/537.36 SE 2.X MetaSr 1.0"
181.57.32.173 - - [16/Dec/2018:16:40:01 +0000] "POST /ppx.php HTTP/1.1" 404 580 "-" "Mozilla/5.0 (Windows NT 6.1) AppleWebKit/537.36 (KHTML, like Gecko) Chrome/58.0.3029.110 Safari/537.36 SE 2.X MetaSr 1.0"
181.57.32.173 - - [16/Dec/2018:16:40:01 +0000] "POST /1.php HTTP/1.1" 404 580 "-" "Mozilla/5.0 (Windows NT 6.1) AppleWebKit/537.36 (KHTML, like Gecko) Chrome/58.0.3029.110 Safari/537.36 SE 2.X MetaSr 1.0"
181.57.32.173 - - [16/Dec/2018:16:40:01 +0000] "POST /confg.php HTTP/1.1" 404 580 "-" "Mozilla/5.0 (Windows NT 6.1) AppleWebKit/537.36 (KHTML, like Gecko) Chrome/58.0.3029.110 Safari/537.36 SE 2.X MetaSr 1.0"
181.57.32.173 - - [16/Dec/2018:16:40:01 +0000] "POST /conf1g.php HTTP/1.1" 404 580 "-" "Mozilla/5.0 (Windows NT 6.1) AppleWebKit/537.36 (KHTML, like Gecko) Chrome/58.0.3029.110 Safari/537.36 SE 2.X MetaSr 1.0"
181.57.32.173 - - [16/Dec/2018:16:40:02 +0000] "POST /confg.php HTTP/1.1" 404 580 "-" "Mozilla/5.0 (Windows NT 6.1) AppleWebKit/537.36 (KHTML, like Gecko) Chrome/58.0.3029.110 Safari/537.36 SE 2.X MetaSr 1.0"
181.57.32.173 - - [16/Dec/2018:16:40:02 +0000] "POST /confg.php HTTP/1.1" 404 580 "-" "Mozilla/5.0 (Windows NT 6.1) AppleWebKit/537.36 (KHTML, like Gecko) Chrome/58.0.3029.110 Safari/537.36 SE 2.X MetaSr 1.0"
181.57.32.173 - - [16/Dec/2018:16:40:02 +0000] "POST /confg.php HTTP/1.1" 404 580 "-" "Mozilla/5.0 (Windows NT 6.1) AppleWebKit/537.36 (KHTML, like Gecko) Chrome/58.0.3029.110 Safari/537.36 SE 2.X MetaSr 1.0"
181.57.32.173 - - [16/Dec/2018:16:40:02 +0000] "POST /ver.php HTTP/1.1" 404 580 "-" "Mozilla/5.0 (Windows NT 6.1) AppleWebKit/537.36 (KHTML, like Gecko) Chrome/58.0.3029.110 Safari/537.36 SE 2.X MetaSr 1.0"
181.57.32.173 - - [16/Dec/2018:16:40:02 +0000] "POST /hack.php HTTP/1.1" 404 580 "-" "Mozilla/5.0 (Windows NT 6.1) AppleWebKit/537.36 (KHTML, like Gecko) Chrome/58.0.3029.110 Safari/537.36 SE 2.X MetaSr 1.0"
181.57.32.173 - - [16/Dec/2018:16:40:03 +0000] "POST /qa.php HTTP/1.1" 404 580 "-" "Mozilla/5.0 (Windows NT 6.1) AppleWebKit/537.36 (KHTML, like Gecko) Chrome/58.0.3029.110 Safari/537.36 SE 2.X MetaSr 1.0"
181.57.32.173 - - [16/Dec/2018:16:40:03 +0000] "POST /Ss.php HTTP/1.1" 404 580 "-" "Mozilla/5.0 (Windows NT 6.1) AppleWebKit/537.36 (KHTML, like Gecko) Chrome/58.0.3029.110 Safari/537.36 SE 2.X MetaSr 1.0"
181.57.32.173 - - [16/Dec/2018:16:40:03 +0000] "POST /xxx.php HTTP/1.1" 404 580 "-" "Mozilla/5.0 (Windows NT 6.1) AppleWebKit/537.36 (KHTML, like Gecko) Chrome/58.0.3029.110 Safari/537.36 SE 2.X MetaSr 1.0"
181.57.32.173 - - [16/Dec/2018:16:40:03 +0000] "POST /92.php HTTP/1.1" 404 580 "-" "Mozilla/5.0 (Windows NT 6.1) AppleWebKit/537.36 (KHTML, like Gecko) Chrome/58.0.3029.110 Safari/537.36 SE 2.X MetaSr 1.0"
181.57.32.173 - - [16/Dec/2018:16:40:04 +0000] "POST /z.php HTTP/1.1" 404 580 "-" "Mozilla/5.0 (Windows NT 6.1) AppleWebKit/537.36 (KHTML, like Gecko) Chrome/58.0.3029.110 Safari/537.36 SE 2.X MetaSr 1.0"
181.57.32.173 - - [16/Dec/2018:16:40:04 +0000] "POST /x.php HTTP/1.1" 404 580 "-" "Mozilla/5.0 (Windows NT 6.1) AppleWebKit/537.36 (KHTML, like Gecko) Chrome/58.0.3029.110 Safari/537.36 SE 2.X MetaSr 1.0"
181.57.32.173 - - [16/Dec/2018:16:40:04 +0000] "POST /dexgp.php HTTP/1.1" 404 580 "-" "Mozilla/5.0 (Windows NT 6.1) AppleWebKit/537.36 (KHTML, like Gecko) Chrome/58.0.3029.110 Safari/537.36 SE 2.X MetaSr 1.0"
181.57.32.173 - - [16/Dec/2018:16:40:04 +0000] "POST /nuoxi.php HTTP/1.1" 404 580 "-" "Mozilla/5.0 (Windows NT 6.1) AppleWebKit/537.36 (KHTML, like Gecko) Chrome/58.0.3029.110 Safari/537.36 SE 2.X MetaSr 1.0"
181.57.32.173 - - [16/Dec/2018:16:40:04 +0000] "POST /godkey.php HTTP/1.1" 404 580 "-" "Mozilla/5.0 (Windows NT 6.1) AppleWebKit/537.36 (KHTML, like Gecko) Chrome/58.0.3029.110 Safari/537.36 SE 2.X MetaSr 1.0"
181.57.32.173 - - [16/Dec/2018:16:40:05 +0000] "POST /okokok.php HTTP/1.1" 404 580 "-" "Mozilla/5.0 (Windows NT 6.1) AppleWebKit/537.36 (KHTML, like Gecko) Chrome/58.0.3029.110 Safari/537.36 SE 2.X MetaSr 1.0"
181.57.32.173 - - [16/Dec/2018:16:40:05 +0000] "POST /erwa.php HTTP/1.1" 404 580 "-" "Mozilla/5.0 (Windows NT 6.1) AppleWebKit/537.36 (KHTML, like Gecko) Chrome/58.0.3029.110 Safari/537.36 SE 2.X MetaSr 1.0"
181.57.32.173 - - [16/Dec/2018:16:40:05 +0000] "POST /pma.php HTTP/1.1" 404 580 "-" "Mozilla/5.0 (Windows NT 6.1) AppleWebKit/537.36 (KHTML, like Gecko) Chrome/58.0.3029.110 Safari/537.36 SE 2.X MetaSr 1.0"
181.57.32.173 - - [16/Dec/2018:16:40:05 +0000] "POST /ruyi.php HTTP/1.1" 404 580 "-" "Mozilla/5.0 (Windows NT 6.1) AppleWebKit/537.36 (KHTML, like Gecko) Chrome/58.0.3029.110 Safari/537.36 SE 2.X MetaSr 1.0"
181.57.32.173 - - [16/Dec/2018:16:40:05 +0000] "POST /51314.php HTTP/1.1" 404 580 "-" "Mozilla/5.0 (Windows NT 6.1) AppleWebKit/537.36 (KHTML, like Gecko) Chrome/58.0.3029.110 Safari/537.36 SE 2.X MetaSr 1.0"
181.57.32.173 - - [16/Dec/2018:16:40:06 +0000] "POST /5201314.php HTTP/1.1" 404 580 "-" "Mozilla/5.0 (Windows NT 6.1) AppleWebKit/537.36 (KHTML, like Gecko) Chrome/58.0.3029.110 Safari/537.36 SE 2.X MetaSr 1.0"
181.57.32.173 - - [16/Dec/2018:16:40:06 +0000] "POST /fusheng.php HTTP/1.1" 404 580 "-" "Mozilla/5.0 (Windows NT 6.1) AppleWebKit/537.36 (KHTML, like Gecko) Chrome/58.0.3029.110 Safari/537.36 SE 2.X MetaSr 1.0"
181.57.32.173 - - [16/Dec/2018:16:40:06 +0000] "POST /general.php HTTP/1.1" 404 580 "-" "Mozilla/5.0 (Windows NT 6.1) AppleWebKit/537.36 (KHTML, like Gecko) Chrome/58.0.3029.110 Safari/537.36 SE 2.X MetaSr 1.0"
181.57.32.173 - - [16/Dec/2018:16:40:06 +0000] "POST /repeat.php HTTP/1.1" 404 580 "-" "Mozilla/5.0 (Windows NT 6.1) AppleWebKit/537.36 (KHTML, like Gecko) Chrome/58.0.3029.110 Safari/537.36 SE 2.X MetaSr 1.0"
181.57.32.173 - - [16/Dec/2018:16:40:07 +0000] "POST /ldw.php HTTP/1.1" 404 580 "-" "Mozilla/5.0 (Windows NT 6.1) AppleWebKit/537.36 (KHTML, like Gecko) Chrome/58.0.3029.110 Safari/537.36 SE 2.X MetaSr 1.0"
181.57.32.173 - - [16/Dec/2018:16:40:07 +0000] "POST /api.php HTTP/1.1" 404 580 "-" "Mozilla/5.0 (Windows NT 6.1) AppleWebKit/537.36 (KHTML, like Gecko) Chrome/58.0.3029.110 Safari/537.36 SE 2.X MetaSr 1.0"
181.57.32.173 - - [16/Dec/2018:16:40:07 +0000] "POST /s1.php HTTP/1.1" 404 580 "-" "Mozilla/5.0 (Windows NT 6.1) AppleWebKit/537.36 (KHTML, like Gecko) Chrome/58.0.3029.110 Safari/537.36 SE 2.X MetaSr 1.0"
181.57.32.173 - - [16/Dec/2018:16:40:07 +0000] "POST /xiaodai.php HTTP/1.1" 404 580 "-" "Mozilla/5.0 (Windows NT 6.1) AppleWebKit/537.36 (KHTML, like Gecko) Chrome/58.0.3029.110 Safari/537.36 SE 2.X MetaSr 1.0"
181.57.32.173 - - [16/Dec/2018:16:40:07 +0000] "POST /hello.php HTTP/1.1" 404 580 "-" "Mozilla/5.0 (Windows NT 6.1) AppleWebKit/537.36 (KHTML, like Gecko) Chrome/58.0.3029.110 Safari/537.36 SE 2.X MetaSr 1.0"
181.57.32.173 - - [16/Dec/2018:16:40:08 +0000] "POST /hello.php HTTP/1.1" 404 580 "-" "Mozilla/5.0 (Windows NT 6.1) AppleWebKit/537.36 (KHTML, like Gecko) Chrome/58.0.3029.110 Safari/537.36 SE 2.X MetaSr 1.0"
181.57.32.173 - - [16/Dec/2018:16:40:08 +0000] "POST /admn.php HTTP/1.1" 404 580 "-" "Mozilla/5.0 (Windows NT 6.1) AppleWebKit/537.36 (KHTML, like Gecko) Chrome/58.0.3029.110 Safari/537.36 SE 2.X MetaSr 1.0"
181.57.32.173 - - [16/Dec/2018:16:40:08 +0000] "POST /hell.php HTTP/1.1" 404 580 "-" "Mozilla/5.0 (Windows NT 6.1) AppleWebKit/537.36 (KHTML, like Gecko) Chrome/58.0.3029.110 Safari/537.36 SE 2.X MetaSr 1.0"
181.57.32.173 - - [16/Dec/2018:16:40:08 +0000] "POST /xp.php HTTP/1.1" 404 580 "-" "Mozilla/5.0 (Windows NT 6.1) AppleWebKit/537.36 (KHTML, like Gecko) Chrome/58.0.3029.110 Safari/537.36 SE 2.X MetaSr 1.0"
181.57.32.173 - - [16/Dec/2018:16:40:08 +0000] "POST /1.php HTTP/1.1" 404 580 "-" "Mozilla/5.0 (Windows NT 6.1) AppleWebKit/537.36 (KHTML, like Gecko) Chrome/58.0.3029.110 Safari/537.36 SE 2.X MetaSr 1.0"
181.57.32.173 - - [16/Dec/2018:16:40:09 +0000] "POST /2.php HTTP/1.1" 404 580 "-" "Mozilla/5.0 (Windows NT 6.1) AppleWebKit/537.36 (KHTML, like Gecko) Chrome/58.0.3029.110 Safari/537.36 SE 2.X MetaSr 1.0"
181.57.32.173 - - [16/Dec/2018:16:40:09 +0000] "POST /p.php HTTP/1.1" 404 580 "-" "Mozilla/5.0 (Windows NT 6.1) AppleWebKit/537.36 (KHTML, like Gecko) Chrome/58.0.3029.110 Safari/537.36 SE 2.X MetaSr 1.0"
181.57.32.173 - - [16/Dec/2018:16:40:09 +0000] "POST /1.php HTTP/1.1" 404 580 "-" "Mozilla/5.0 (Windows NT 6.1) AppleWebKit/537.36 (KHTML, like Gecko) Chrome/58.0.3029.110 Safari/537.36 SE 2.X MetaSr 1.0"
181.57.32.173 - - [16/Dec/2018:16:40:09 +0000] "POST /a.php HTTP/1.1" 404 580 "-" "Mozilla/5.0 (Windows NT 6.1) AppleWebKit/537.36 (KHTML, like Gecko) Chrome/58.0.3029.110 Safari/537.36 SE 2.X MetaSr 1.0"
181.57.32.173 - - [16/Dec/2018:16:40:10 +0000] "POST /m.php HTTP/1.1" 404 580 "-" "Mozilla/5.0 (Windows NT 6.1) AppleWebKit/537.36 (KHTML, like Gecko) Chrome/58.0.3029.110 Safari/537.36 SE 2.X MetaSr 1.0"
181.57.32.173 - - [16/Dec/2018:16:40:10 +0000] "POST /conf.php HTTP/1.1" 404 580 "-" "Mozilla/5.0 (Windows NT 6.1) AppleWebKit/537.36 (KHTML, like Gecko) Chrome/58.0.3029.110 Safari/537.36 SE 2.X MetaSr 1.0"
181.57.32.173 - - [16/Dec/2018:16:40:10 +0000] "POST /123.php HTTP/1.1" 404 580 "-" "Mozilla/5.0 (Windows NT 6.1) AppleWebKit/537.36 (KHTML, like Gecko) Chrome/58.0.3029.110 Safari/537.36 SE 2.X MetaSr 1.0"
181.57.32.173 - - [16/Dec/2018:16:40:10 +0000] "POST /HX.php HTTP/1.1" 404 580 "-" "Mozilla/5.0 (Windows NT 6.1) AppleWebKit/537.36 (KHTML, like Gecko) Chrome/58.0.3029.110 Safari/537.36 SE 2.X MetaSr 1.0"
181.57.32.173 - - [16/Dec/2018:16:40:11 +0000] "POST /diy.php HTTP/1.1" 404 580 "-" "Mozilla/5.0 (Windows NT 6.1) AppleWebKit/537.36 (KHTML, like Gecko) Chrome/58.0.3029.110 Safari/537.36 SE 2.X MetaSr 1.0"
181.57.32.173 - - [16/Dec/2018:16:40:11 +0000] "POST /666.php HTTP/1.1" 404 580 "-" "Mozilla/5.0 (Windows NT 6.1) AppleWebKit/537.36 (KHTML, like Gecko) Chrome/58.0.3029.110 Safari/537.36 SE 2.X MetaSr 1.0"
181.57.32.173 - - [16/Dec/2018:16:40:11 +0000] "POST /777.php HTTP/1.1" 404 580 "-" "Mozilla/5.0 (Windows NT 6.1) AppleWebKit/537.36 (KHTML, like Gecko) Chrome/58.0.3029.110 Safari/537.36 SE 2.X MetaSr 1.0"
181.57.32.173 - - [16/Dec/2018:16:40:11 +0000] "POST /qwq.php HTTP/1.1" 404 580 "-" "Mozilla/5.0 (Windows NT 6.1) AppleWebKit/537.36 (KHTML, like Gecko) Chrome/58.0.3029.110 Safari/537.36 SE 2.X MetaSr 1.0"
181.57.32.173 - - [16/Dec/2018:16:40:11 +0000] "POST /.php HTTP/1.1" 404 580 "-" "Mozilla/5.0 (Windows NT 6.1) AppleWebKit/537.36 (KHTML, like Gecko) Chrome/58.0.3029.110 Safari/537.36 SE 2.X MetaSr 1.0"
181.57.32.173 - - [16/Dec/2018:16:40:12 +0000] "POST /infos.php HTTP/1.1" 404 580 "-" "Mozilla/5.0 (Windows NT 6.1) AppleWebKit/537.36 (KHTML, like Gecko) Chrome/58.0.3029.110 Safari/537.36 SE 2.X MetaSr 1.0"
181.57.32.173 - - [16/Dec/2018:16:40:12 +0000] "POST /x.php HTTP/1.1" 404 580 "-" "Mozilla/5.0 (Windows NT 6.1) AppleWebKit/537.36 (KHTML, like Gecko) Chrome/58.0.3029.110 Safari/537.36 SE 2.X MetaSr 1.0"
181.57.32.173 - - [16/Dec/2018:16:40:12 +0000] "POST /htfr.php HTTP/1.1" 404 580 "-" "Mozilla/5.0 (Windows NT 6.1) AppleWebKit/537.36 (KHTML, like Gecko) Chrome/58.0.3029.110 Safari/537.36 SE 2.X MetaSr 1.0"
181.57.32.173 - - [16/Dec/2018:16:40:12 +0000] "POST /zzk.php HTTP/1.1" 404 580 "-" "Mozilla/5.0 (Windows NT 6.1) AppleWebKit/537.36 (KHTML, like Gecko) Chrome/58.0.3029.110 Safari/537.36 SE 2.X MetaSr 1.0"
181.57.32.173 - - [16/Dec/2018:16:40:13 +0000] "POST /toor.php HTTP/1.1" 404 580 "-" "Mozilla/5.0 (Windows NT 6.1) AppleWebKit/537.36 (KHTML, like Gecko) Chrome/58.0.3029.110 Safari/537.36 SE 2.X MetaSr 1.0"
181.57.32.173 - - [16/Dec/2018:16:40:13 +0000] "POST /uu.php HTTP/1.1" 404 580 "-" "Mozilla/5.0 (Windows NT 6.1) AppleWebKit/537.36 (KHTML, like Gecko) Chrome/58.0.3029.110 Safari/537.36 SE 2.X MetaSr 1.0"
181.57.32.173 - - [16/Dec/2018:16:40:13 +0000] "POST /aa.php HTTP/1.1" 404 580 "-" "Mozilla/5.0 (Windows NT 6.1) AppleWebKit/537.36 (KHTML, like Gecko) Chrome/58.0.3029.110 Safari/537.36 SE 2.X MetaSr 1.0"
181.57.32.173 - - [16/Dec/2018:16:40:13 +0000] "POST /wb.php HTTP/1.1" 404 580 "-" "Mozilla/5.0 (Windows NT 6.1) AppleWebKit/537.36 (KHTML, like Gecko) Chrome/58.0.3029.110 Safari/537.36 SE 2.X MetaSr 1.0"
181.57.32.173 - - [16/Dec/2018:16:40:13 +0000] "POST /yj.php HTTP/1.1" 404 580 "-" "Mozilla/5.0 (Windows NT 6.1) AppleWebKit/537.36 (KHTML, like Gecko) Chrome/58.0.3029.110 Safari/537.36 SE 2.X MetaSr 1.0"
181.57.32.173 - - [16/Dec/2018:16:40:14 +0000] "POST /z.php HTTP/1.1" 404 580 "-" "Mozilla/5.0 (Windows NT 6.1) AppleWebKit/537.36 (KHTML, like Gecko) Chrome/58.0.3029.110 Safari/537.36 SE 2.X MetaSr 1.0"
181.57.32.173 - - [16/Dec/2018:16:40:14 +0000] "POST /7.php HTTP/1.1" 404 580 "-" "Mozilla/5.0 (Windows NT 6.1) AppleWebKit/537.36 (KHTML, like Gecko) Chrome/58.0.3029.110 Safari/537.36 SE 2.X MetaSr 1.0"
181.57.32.173 - - [16/Dec/2018:16:40:14 +0000] "POST /xiaoma.php HTTP/1.1" 404 580 "-" "Mozilla/5.0 (Windows NT 6.1) AppleWebKit/537.36 (KHTML, like Gecko) Chrome/58.0.3029.110 Safari/537.36 SE 2.X MetaSr 1.0"
181.57.32.173 - - [16/Dec/2018:16:40:14 +0000] "POST /xiaomae.php HTTP/1.1" 404 580 "-" "Mozilla/5.0 (Windows NT 6.1) AppleWebKit/537.36 (KHTML, like Gecko) Chrome/58.0.3029.110 Safari/537.36 SE 2.X MetaSr 1.0"
181.57.32.173 - - [16/Dec/2018:16:40:14 +0000] "POST /xiaomar.php HTTP/1.1" 404 580 "-" "Mozilla/5.0 (Windows NT 6.1) AppleWebKit/537.36 (KHTML, like Gecko) Chrome/58.0.3029.110 Safari/537.36 SE 2.X MetaSr 1.0"
181.57.32.173 - - [16/Dec/2018:16:40:15 +0000] "POST /qq.php HTTP/1.1" 404 580 "-" "Mozilla/5.0 (Windows NT 6.1) AppleWebKit/537.36 (KHTML, like Gecko) Chrome/58.0.3029.110 Safari/537.36 SE 2.X MetaSr 1.0"
181.57.32.173 - - [16/Dec/2018:16:40:15 +0000] "POST /data.php HTTP/1.1" 404 580 "-" "Mozilla/5.0 (Windows NT 6.1) AppleWebKit/537.36 (KHTML, like Gecko) Chrome/58.0.3029.110 Safari/537.36 SE 2.X MetaSr 1.0"
181.57.32.173 - - [16/Dec/2018:16:40:15 +0000] "POST /log.php HTTP/1.1" 404 580 "-" "Mozilla/5.0 (Windows NT 6.1) AppleWebKit/537.36 (KHTML, like Gecko) Chrome/58.0.3029.110 Safari/537.36 SE 2.X MetaSr 1.0"
181.57.32.173 - - [16/Dec/2018:16:40:15 +0000] "POST /fack.php HTTP/1.1" 404 580 "-" "Mozilla/5.0 (Windows NT 6.1) AppleWebKit/537.36 (KHTML, like Gecko) Chrome/58.0.3029.110 Safari/537.36 SE 2.X MetaSr 1.0"
181.57.32.173 - - [16/Dec/2018:16:40:16 +0000] "POST /angge.php HTTP/1.1" 404 580 "-" "Mozilla/5.0 (Windows NT 6.1) AppleWebKit/537.36 (KHTML, like Gecko) Chrome/58.0.3029.110 Safari/537.36 SE 2.X MetaSr 1.0"
181.57.32.173 - - [16/Dec/2018:16:40:16 +0000] "POST /cxfm666.php HTTP/1.1" 404 580 "-" "Mozilla/5.0 (Windows NT 6.1) AppleWebKit/537.36 (KHTML, like Gecko) Chrome/58.0.3029.110 Safari/537.36 SE 2.X MetaSr 1.0"
181.57.32.173 - - [16/Dec/2018:16:40:16 +0000] "POST /db.php HTTP/1.1" 404 580 "-" "Mozilla/5.0 (Windows NT 6.1) AppleWebKit/537.36 (KHTML, like Gecko) Chrome/58.0.3029.110 Safari/537.36 SE 2.X MetaSr 1.0"
181.57.32.173 - - [16/Dec/2018:16:40:16 +0000] "POST /hacly.php HTTP/1.1" 404 580 "-" "Mozilla/5.0 (Windows NT 6.1) AppleWebKit/537.36 (KHTML, like Gecko) Chrome/58.0.3029.110 Safari/537.36 SE 2.X MetaSr 1.0"
181.57.32.173 - - [16/Dec/2018:16:40:16 +0000] "POST /xiaomo.php HTTP/1.1" 404 580 "-" "Mozilla/5.0 (Windows NT 6.1) AppleWebKit/537.36 (KHTML, like Gecko) Chrome/58.0.3029.110 Safari/537.36 SE 2.X MetaSr 1.0"
181.57.32.173 - - [16/Dec/2018:16:40:17 +0000] "POST /xiaoyu.php HTTP/1.1" 404 580 "-" "Mozilla/5.0 (Windows NT 6.1) AppleWebKit/537.36 (KHTML, like Gecko) Chrome/58.0.3029.110 Safari/537.36 SE 2.X MetaSr 1.0"
181.57.32.173 - - [16/Dec/2018:16:40:17 +0000] "POST /xiaohei.php HTTP/1.1" 404 580 "-" "Mozilla/5.0 (Windows NT 6.1) AppleWebKit/537.36 (KHTML, like Gecko) Chrome/58.0.3029.110 Safari/537.36 SE 2.X MetaSr 1.0"
181.57.32.173 - - [16/Dec/2018:16:40:17 +0000] "POST /j.php HTTP/1.1" 404 580 "-" "Mozilla/5.0 (Windows NT 6.1) AppleWebKit/537.36 (KHTML, like Gecko) Chrome/58.0.3029.110 Safari/537.36 SE 2.X MetaSr 1.0"
181.57.32.173 - - [16/Dec/2018:16:40:17 +0000] "POST /qq5262.php HTTP/1.1" 404 580 "-" "Mozilla/5.0 (Windows NT 6.1) AppleWebKit/537.36 (KHTML, like Gecko) Chrome/58.0.3029.110 Safari/537.36 SE 2.X MetaSr 1.0"
181.57.32.173 - - [16/Dec/2018:16:40:18 +0000] "POST /MCLi.php HTTP/1.1" 404 580 "-" "Mozilla/5.0 (Windows NT 6.1) AppleWebKit/537.36 (KHTML, like Gecko) Chrome/58.0.3029.110 Safari/537.36 SE 2.X MetaSr 1.0"
181.57.32.173 - - [16/Dec/2018:16:40:18 +0000] "POST /MCLi.php HTTP/1.1" 404 580 "-" "Mozilla/5.0 (Windows NT 6.1) AppleWebKit/537.36 (KHTML, like Gecko) Chrome/58.0.3029.110 Safari/537.36 SE 2.X MetaSr 1.0"
181.57.32.173 - - [16/Dec/2018:16:40:18 +0000] "POST /51.php HTTP/1.1" 404 580 "-" "Mozilla/5.0 (Windows NT 6.1) AppleWebKit/537.36 (KHTML, like Gecko) Chrome/58.0.3029.110 Safari/537.36 SE 2.X MetaSr 1.0"
181.57.32.173 - - [16/Dec/2018:16:40:18 +0000] "POST /cadre.php HTTP/1.1" 404 580 "-" "Mozilla/5.0 (Windows NT 6.1) AppleWebKit/537.36 (KHTML, like Gecko) Chrome/58.0.3029.110 Safari/537.36 SE 2.X MetaSr 1.0"
181.57.32.173 - - [16/Dec/2018:16:40:18 +0000] "POST /mm.php HTTP/1.1" 404 580 "-" "Mozilla/5.0 (Windows NT 6.1) AppleWebKit/537.36 (KHTML, like Gecko) Chrome/58.0.3029.110 Safari/537.36 SE 2.X MetaSr 1.0"
181.57.32.173 - - [16/Dec/2018:16:40:19 +0000] "POST /test.php HTTP/1.1" 404 580 "-" "Mozilla/5.0 (Windows NT 6.1) AppleWebKit/537.36 (KHTML, like Gecko) Chrome/58.0.3029.110 Safari/537.36 SE 2.X MetaSr 1.0"
181.57.32.173 - - [16/Dec/2018:16:40:19 +0000] "POST /1q.php HTTP/1.1" 404 580 "-" "Mozilla/5.0 (Windows NT 6.1) AppleWebKit/537.36 (KHTML, like Gecko) Chrome/58.0.3029.110 Safari/537.36 SE 2.X MetaSr 1.0"
181.57.32.173 - - [16/Dec/2018:16:40:19 +0000] "GET /jexsw2/jexsw2.jsp?ppp=echo%20Hello%20D3c3mb3r HTTP/1.1" 404 178 "-" "test"
181.57.32.173 - - [16/Dec/2018:16:40:19 +0000] "GET /jexws2/jexws2.jsp?ppp=echo%20Hello%20D3c3mb3r HTTP/1.1" 404 178 "-" "test"
181.57.32.173 - - [16/Dec/2018:16:40:19 +0000] "GET /jexws3/jexws3.jsp?ppp=echo%20Hello%20D3c3mb3r HTTP/1.1" 404 178 "-" "test"
181.57.32.173 - - [16/Dec/2018:16:40:20 +0000] "GET /jexws4/jexws4.jsp?ppp=echo%20Hello%20D3c3mb3r HTTP/1.1" 404 178 "-" "test"
181.57.32.173 - - [16/Dec/2018:16:40:20 +0000] "GET /jexinv/jexinv.jsp?ppp=echo%20Hello%20D3c3mb3r HTTP/1.1" 404 178 "-" "test"
181.57.32.173 - - [16/Dec/2018:16:40:20 +0000] "GET /jexinv3/jexinv3.jsp?ppp=echo%20Hello%20D3c3mb3r HTTP/1.1" 404 178 "-" "test"
181.57.32.173 - - [16/Dec/2018:16:40:20 +0000] "GET /jexinv4/jexinv4.jsp?ppp=echo%20Hello%20D3c3mb3r HTTP/1.1" 404 178 "-" "test"
181.57.32.173 - - [16/Dec/2018:16:40:21 +0000] "GET /jbossass/jbossass.jsp?ppp=echo%20Hello%20D3c3mb3r HTTP/1.1" 404 178 "-" "jexboss"
181.57.32.173 - - [16/Dec/2018:16:40:21 +0000] "GET /console/jspzxc.jsp?cmd=echo%20Hello%20D3c3mb3r HTTP/1.1" 404 178 "-" "test"
181.57.32.173 - - [16/Dec/2018:16:40:21 +0000] "GET /demo/404.jsp?bjh=echo%20Hello%20D3c3mb3r HTTP/1.1" 404 178 "-" "test"
181.57.32.173 - - [16/Dec/2018:16:40:21 +0000] "GET /dread/lock.jsp?tezaz=echo%20Hello%20D3c3mb3r HTTP/1.1" 404 178 "-" "test"
181.57.32.173 - - [16/Dec/2018:16:40:21 +0000] "GET /jbws/jbws.jsp?eval=echo%20Hello%20D3c3mb3r HTTP/1.1" 404 178 "-" "jbosses"
181.57.32.173 - - [16/Dec/2018:16:40:22 +0000] "GET /jvrx/cmd.jsp?pwd=everymorning&cmd=echo%20Hello%20D3c3mb3r HTTP/1.1" 404 178 "-" "test"
181.57.32.173 - - [16/Dec/2018:16:40:22 +0000] "GET /shellinvoker/shellinvoker.jsp?ppp=echo%20Hello%20D3c3mb3r HTTP/1.1" 404 178 "-" "jexboss"
181.57.32.173 - - [16/Dec/2018:16:40:22 +0000] "GET /zecmd/zecmd.jsp?comment=echo%20Hello%20D3c3mb3r HTTP/1.1" 404 178 "-" "test"
181.57.32.173 - - [16/Dec/2018:16:40:22 +0000] "GET /iesvc/iesvc.jsp?comment=echo%20Hello%20D3c3mb3r HTTP/1.1" 404 178 "-" "test"
181.57.32.173 - - [16/Dec/2018:16:40:23 +0000] "GET /idssvc/idssvc.jsp?comment=echo%20Hello%20D3c3mb3r HTTP/1.1" 404 178 "-" "test"
181.57.32.173 - - [16/Dec/2018:16:40:23 +0000] "GET /wstats/wstats.jsp?comment=echo%20Hello%20D3c3mb3r HTTP/1.1" 404 178 "-" "test"
181.57.32.173 - - [16/Dec/2018:16:40:23 +0000] "GET /HCEGH/xunfeng.jsp?comment=echo%20Hello%20D3c3mb3r HTTP/1.1" 404 178 "-" "test"
181.57.32.173 - - [16/Dec/2018:16:40:23 +0000] "GET /a/pwn.jsp?cmd=echo%20Hello%20D3c3mb3r HTTP/1.1" 404 178 "-" "test"
181.57.32.173 - - [16/Dec/2018:16:40:23 +0000] "GET /index.php HTTP/1.1" 404 178 "-" "Mozilla/5.0 (X11; Ubuntu; Linux x86_64; rv:48.0) Gecko/20100101 Firefox/48.0"
181.57.32.173 - - [16/Dec/2018:16:40:24 +0000] "GET /phpmyadmin/index.php HTTP/1.1" 404 178 "-" "Mozilla/5.0 (X11; Ubuntu; Linux x86_64; rv:48.0) Gecko/20100101 Firefox/48.0"
181.57.32.173 - - [16/Dec/2018:16:40:24 +0000] "GET /phpMyAdmin/index.php HTTP/1.1" 404 178 "-" "Mozilla/5.0 (X11; Ubuntu; Linux x86_64; rv:48.0) Gecko/20100101 Firefox/48.0"
181.57.32.173 - - [16/Dec/2018:16:40:24 +0000] "GET /pmd/index.php HTTP/1.1" 404 178 "-" "Mozilla/5.0 (X11; Ubuntu; Linux x86_64; rv:48.0) Gecko/20100101 Firefox/48.0"
181.57.32.173 - - [16/Dec/2018:16:40:24 +0000] "GET /pma/index.php HTTP/1.1" 404 178 "-" "Mozilla/5.0 (X11; Ubuntu; Linux x86_64; rv:48.0) Gecko/20100101 Firefox/48.0"
181.57.32.173 - - [16/Dec/2018:16:40:24 +0000] "GET /PMA/index.php HTTP/1.1" 404 178 "-" "Mozilla/5.0 (X11; Ubuntu; Linux x86_64; rv:48.0) Gecko/20100101 Firefox/48.0"
181.57.32.173 - - [16/Dec/2018:16:40:25 +0000] "GET /PMA2/index.php HTTP/1.1" 404 178 "-" "Mozilla/5.0 (X11; Ubuntu; Linux x86_64; rv:48.0) Gecko/20100101 Firefox/48.0"
181.57.32.173 - - [16/Dec/2018:16:40:25 +0000] "GET /pmamy/index.php HTTP/1.1" 404 178 "-" "Mozilla/5.0 (X11; Ubuntu; Linux x86_64; rv:48.0) Gecko/20100101 Firefox/48.0"
181.57.32.173 - - [16/Dec/2018:16:40:25 +0000] "GET /pmamy2/index.php HTTP/1.1" 404 178 "-" "Mozilla/5.0 (X11; Ubuntu; Linux x86_64; rv:48.0) Gecko/20100101 Firefox/48.0"
181.57.32.173 - - [16/Dec/2018:16:40:25 +0000] "GET /mysql/index.php HTTP/1.1" 404 178 "-" "Mozilla/5.0 (X11; Ubuntu; Linux x86_64; rv:48.0) Gecko/20100101 Firefox/48.0"
181.57.32.173 - - [16/Dec/2018:16:40:26 +0000] "GET /admin/index.php HTTP/1.1" 404 178 "-" "Mozilla/5.0 (X11; Ubuntu; Linux x86_64; rv:48.0) Gecko/20100101 Firefox/48.0"
181.57.32.173 - - [16/Dec/2018:16:40:26 +0000] "GET /db/index.php HTTP/1.1" 404 178 "-" "Mozilla/5.0 (X11; Ubuntu; Linux x86_64; rv:48.0) Gecko/20100101 Firefox/48.0"
181.57.32.173 - - [16/Dec/2018:16:40:26 +0000] "GET /dbadmin/index.php HTTP/1.1" 404 178 "-" "Mozilla/5.0 (X11; Ubuntu; Linux x86_64; rv:48.0) Gecko/20100101 Firefox/48.0"
181.57.32.173 - - [16/Dec/2018:16:40:26 +0000] "GET /web/phpMyAdmin/index.php HTTP/1.1" 404 178 "-" "Mozilla/5.0 (X11; Ubuntu; Linux x86_64; rv:48.0) Gecko/20100101 Firefox/48.0"
181.57.32.173 - - [16/Dec/2018:16:40:26 +0000] "GET /admin/pma/index.php HTTP/1.1" 404 178 "-" "Mozilla/5.0 (X11; Ubuntu; Linux x86_64; rv:48.0) Gecko/20100101 Firefox/48.0"
181.57.32.173 - - [16/Dec/2018:16:40:27 +0000] "GET /admin/PMA/index.php HTTP/1.1" 404 178 "-" "Mozilla/5.0 (X11; Ubuntu; Linux x86_64; rv:48.0) Gecko/20100101 Firefox/48.0"
181.57.32.173 - - [16/Dec/2018:16:40:27 +0000] "GET /admin/mysql/index.php HTTP/1.1" 404 178 "-" "Mozilla/5.0 (X11; Ubuntu; Linux x86_64; rv:48.0) Gecko/20100101 Firefox/48.0"
181.57.32.173 - - [16/Dec/2018:16:40:27 +0000] "GET /admin/mysql2/index.php HTTP/1.1" 404 178 "-" "Mozilla/5.0 (X11; Ubuntu; Linux x86_64; rv:48.0) Gecko/20100101 Firefox/48.0"
181.57.32.173 - - [16/Dec/2018:16:40:27 +0000] "GET /admin/phpmyadmin/index.php HTTP/1.1" 404 178 "-" "Mozilla/5.0 (X11; Ubuntu; Linux x86_64; rv:48.0) Gecko/20100101 Firefox/48.0"
181.57.32.173 - - [16/Dec/2018:16:40:28 +0000] "GET /admin/phpMyAdmin/index.php HTTP/1.1" 404 178 "-" "Mozilla/5.0 (X11; Ubuntu; Linux x86_64; rv:48.0) Gecko/20100101 Firefox/48.0"
181.57.32.173 - - [16/Dec/2018:16:40:28 +0000] "GET /admin/phpmyadmin2/index.php HTTP/1.1" 404 178 "-" "Mozilla/5.0 (X11; Ubuntu; Linux x86_64; rv:48.0) Gecko/20100101 Firefox/48.0"
181.57.32.173 - - [16/Dec/2018:16:40:28 +0000] "GET /mysqladmin/index.php HTTP/1.1" 404 178 "-" "Mozilla/5.0 (X11; Ubuntu; Linux x86_64; rv:48.0) Gecko/20100101 Firefox/48.0"
181.57.32.173 - - [16/Dec/2018:16:40:28 +0000] "GET /mysql-admin/index.php HTTP/1.1" 404 178 "-" "Mozilla/5.0 (X11; Ubuntu; Linux x86_64; rv:48.0) Gecko/20100101 Firefox/48.0"
181.57.32.173 - - [16/Dec/2018:16:40:28 +0000] "GET /mysql_admin/index.php HTTP/1.1" 404 178 "-" "Mozilla/5.0 (X11; Ubuntu; Linux x86_64; rv:48.0) Gecko/20100101 Firefox/48.0"
181.57.32.173 - - [16/Dec/2018:16:40:29 +0000] "GET /phpadmin/index.php HTTP/1.1" 404 178 "-" "Mozilla/5.0 (X11; Ubuntu; Linux x86_64; rv:48.0) Gecko/20100101 Firefox/48.0"
181.57.32.173 - - [16/Dec/2018:16:40:29 +0000] "GET /phpAdmin/index.php HTTP/1.1" 404 178 "-" "Mozilla/5.0 (X11; Ubuntu; Linux x86_64; rv:48.0) Gecko/20100101 Firefox/48.0"
181.57.32.173 - - [16/Dec/2018:16:40:29 +0000] "GET /phpmyadmin0/index.php HTTP/1.1" 404 178 "-" "Mozilla/5.0 (X11; Ubuntu; Linux x86_64; rv:48.0) Gecko/20100101 Firefox/48.0"
181.57.32.173 - - [16/Dec/2018:16:40:29 +0000] "GET /phpmyadmin1/index.php HTTP/1.1" 404 178 "-" "Mozilla/5.0 (X11; Ubuntu; Linux x86_64; rv:48.0) Gecko/20100101 Firefox/48.0"
181.57.32.173 - - [16/Dec/2018:16:40:29 +0000] "GET /phpmyadmin2/index.php HTTP/1.1" 404 178 "-" "Mozilla/5.0 (X11; Ubuntu; Linux x86_64; rv:48.0) Gecko/20100101 Firefox/48.0"
181.57.32.173 - - [16/Dec/2018:16:40:30 +0000] "GET /phpMyAdmin-4.4.0/index.php HTTP/1.1" 404 178 "-" "Mozilla/5.0 (X11; Ubuntu; Linux x86_64; rv:48.0) Gecko/20100101 Firefox/48.0"
181.57.32.173 - - [16/Dec/2018:16:40:30 +0000] "GET /myadmin/index.php HTTP/1.1" 404 178 "-" "Mozilla/5.0 (X11; Ubuntu; Linux x86_64; rv:48.0) Gecko/20100101 Firefox/48.0"
181.57.32.173 - - [16/Dec/2018:16:40:30 +0000] "GET /myadmin2/index.php HTTP/1.1" 404 178 "-" "Mozilla/5.0 (X11; Ubuntu; Linux x86_64; rv:48.0) Gecko/20100101 Firefox/48.0"
181.57.32.173 - - [16/Dec/2018:16:40:30 +0000] "GET /xampp/phpmyadmin/index.php HTTP/1.1" 404 178 "-" "Mozilla/5.0 (X11; Ubuntu; Linux x86_64; rv:48.0) Gecko/20100101 Firefox/48.0"
181.57.32.173 - - [16/Dec/2018:16:40:31 +0000] "GET /phpMyadmin_bak/index.php HTTP/1.1" 404 178 "-" "Mozilla/5.0 (X11; Ubuntu; Linux x86_64; rv:48.0) Gecko/20100101 Firefox/48.0"
181.57.32.173 - - [16/Dec/2018:16:40:31 +0000] "GET /www/phpMyAdmin/index.php HTTP/1.1" 404 178 "-" "Mozilla/5.0 (X11; Ubuntu; Linux x86_64; rv:48.0) Gecko/20100101 Firefox/48.0"
181.57.32.173 - - [16/Dec/2018:16:40:31 +0000] "GET /tools/phpMyAdmin/index.php HTTP/1.1" 404 178 "-" "Mozilla/5.0 (X11; Ubuntu; Linux x86_64; rv:48.0) Gecko/20100101 Firefox/48.0"
181.57.32.173 - - [16/Dec/2018:16:40:31 +0000] "GET /phpmyadmin-old/index.php HTTP/1.1" 404 178 "-" "Mozilla/5.0 (X11; Ubuntu; Linux x86_64; rv:48.0) Gecko/20100101 Firefox/48.0"
181.57.32.173 - - [16/Dec/2018:16:40:31 +0000] "GET /phpMyAdminold/index.php HTTP/1.1" 404 178 "-" "Mozilla/5.0 (X11; Ubuntu; Linux x86_64; rv:48.0) Gecko/20100101 Firefox/48.0"
181.57.32.173 - - [16/Dec/2018:16:40:32 +0000] "GET /phpMyAdmin.old/index.php HTTP/1.1" 404 178 "-" "Mozilla/5.0 (X11; Ubuntu; Linux x86_64; rv:48.0) Gecko/20100101 Firefox/48.0"
181.57.32.173 - - [16/Dec/2018:16:40:32 +0000] "GET /pma-old/index.php HTTP/1.1" 404 178 "-" "Mozilla/5.0 (X11; Ubuntu; Linux x86_64; rv:48.0) Gecko/20100101 Firefox/48.0"
181.57.32.173 - - [16/Dec/2018:16:40:32 +0000] "GET /claroline/phpMyAdmin/index.php HTTP/1.1" 404 178 "-" "Mozilla/5.0 (X11; Ubuntu; Linux x86_64; rv:48.0) Gecko/20100101 Firefox/48.0"
181.57.32.173 - - [16/Dec/2018:16:40:33 +0000] "GET /typo3/phpmyadmin/index.php HTTP/1.1" 404 178 "-" "Mozilla/5.0 (X11; Ubuntu; Linux x86_64; rv:48.0) Gecko/20100101 Firefox/48.0"
181.57.32.173 - - [16/Dec/2018:16:40:33 +0000] "GET /phpma/index.php HTTP/1.1" 404 178 "-" "Mozilla/5.0 (X11; Ubuntu; Linux x86_64; rv:48.0) Gecko/20100101 Firefox/48.0"
181.57.32.173 - - [16/Dec/2018:16:40:33 +0000] "GET /phpmyadmin/phpmyadmin/index.php HTTP/1.1" 404 178 "-" "Mozilla/5.0 (X11; Ubuntu; Linux x86_64; rv:48.0) Gecko/20100101 Firefox/48.0"
181.57.32.173 - - [16/Dec/2018:16:40:33 +0000] "GET /phpMyAdmin/phpMyAdmin/index.php HTTP/1.1" 404 178 "-" "Mozilla/5.0 (X11; Ubuntu; Linux x86_64; rv:48.0) Gecko/20100101 Firefox/48.0"
181.57.32.173 - - [16/Dec/2018:16:40:33 +0000] "GET /phpMyAbmin/index.php HTTP/1.1" 404 178 "-" "Mozilla/5.0 (X11; Ubuntu; Linux x86_64; rv:48.0) Gecko/20100101 Firefox/48.0"
181.57.32.173 - - [16/Dec/2018:16:40:34 +0000] "GET /phpMyAdmin__/index.php HTTP/1.1" 404 178 "-" "Mozilla/5.0 (X11; Ubuntu; Linux x86_64; rv:48.0) Gecko/20100101 Firefox/48.0"
181.57.32.173 - - [16/Dec/2018:16:40:34 +0000] "GET /phpMyAdmin+++---/index.php HTTP/1.1" 404 178 "-" "Mozilla/5.0 (X11; Ubuntu; Linux x86_64; rv:48.0) Gecko/20100101 Firefox/48.0"
181.57.32.173 - - [16/Dec/2018:16:40:34 +0000] "GET /v/index.php HTTP/1.1" 404 178 "-" "Mozilla/5.0 (X11; Ubuntu; Linux x86_64; rv:48.0) Gecko/20100101 Firefox/48.0"
181.57.32.173 - - [16/Dec/2018:16:40:34 +0000] "GET /phpmyadm1n/index.php HTTP/1.1" 404 178 "-" "Mozilla/5.0 (X11; Ubuntu; Linux x86_64; rv:48.0) Gecko/20100101 Firefox/48.0"
181.57.32.173 - - [16/Dec/2018:16:40:35 +0000] "GET /phpMyAdm1n/index.php HTTP/1.1" 404 178 "-" "Mozilla/5.0 (X11; Ubuntu; Linux x86_64; rv:48.0) Gecko/20100101 Firefox/48.0"
181.57.32.173 - - [16/Dec/2018:16:40:35 +0000] "GET /shaAdmin/index.php HTTP/1.1" 404 178 "-" "Mozilla/5.0 (X11; Ubuntu; Linux x86_64; rv:48.0) Gecko/20100101 Firefox/48.0"
181.57.32.173 - - [16/Dec/2018:16:40:35 +0000] "GET /phpMyadmi/index.php HTTP/1.1" 404 178 "-" "Mozilla/5.0 (X11; Ubuntu; Linux x86_64; rv:48.0) Gecko/20100101 Firefox/48.0"
181.57.32.173 - - [16/Dec/2018:16:40:35 +0000] "GET /phpMyAdmion/index.php HTTP/1.1" 404 178 "-" "Mozilla/5.0 (X11; Ubuntu; Linux x86_64; rv:48.0) Gecko/20100101 Firefox/48.0"
181.57.32.173 - - [16/Dec/2018:16:40:35 +0000] "GET /MyAdmin/index.php HTTP/1.1" 404 178 "-" "Mozilla/5.0 (X11; Ubuntu; Linux x86_64; rv:48.0) Gecko/20100101 Firefox/48.0"
181.57.32.173 - - [16/Dec/2018:16:40:36 +0000] "GET /phpMyAdmin1/index.php HTTP/1.1" 404 178 "-" "Mozilla/5.0 (X11; Ubuntu; Linux x86_64; rv:48.0) Gecko/20100101 Firefox/48.0"
181.57.32.173 - - [16/Dec/2018:16:40:36 +0000] "GET /phpMyAdmin123/index.php HTTP/1.1" 404 178 "-" "Mozilla/5.0 (X11; Ubuntu; Linux x86_64; rv:48.0) Gecko/20100101 Firefox/48.0"
181.57.32.173 - - [16/Dec/2018:16:40:36 +0000] "GET /pwd/index.php HTTP/1.1" 404 178 "-" "Mozilla/5.0 (X11; Ubuntu; Linux x86_64; rv:48.0) Gecko/20100101 Firefox/48.0"
181.57.32.173 - - [16/Dec/2018:16:40:36 +0000] "GET /phpMyAdmina/index.php HTTP/1.1" 404 178 "-" "Mozilla/5.0 (X11; Ubuntu; Linux x86_64; rv:48.0) Gecko/20100101 Firefox/48.0"
181.57.32.173 - - [16/Dec/2018:16:40:37 +0000] "GET /program/index.php HTTP/1.1" 404 178 "-" "Mozilla/5.0 (X11; Ubuntu; Linux x86_64; rv:48.0) Gecko/20100101 Firefox/48.0"
181.57.32.173 - - [16/Dec/2018:16:40:37 +0000] "GET /shopdb/index.php HTTP/1.1" 404 178 "-" "Mozilla/5.0 (X11; Ubuntu; Linux x86_64; rv:48.0) Gecko/20100101 Firefox/48.0"
181.57.32.173 - - [16/Dec/2018:16:40:37 +0000] "GET /phppma/index.php HTTP/1.1" 404 178 "-" "Mozilla/5.0 (X11; Ubuntu; Linux x86_64; rv:48.0) Gecko/20100101 Firefox/48.0"
181.57.32.173 - - [16/Dec/2018:16:40:37 +0000] "GET /phpmy/index.php HTTP/1.1" 404 178 "-" "Mozilla/5.0 (X11; Ubuntu; Linux x86_64; rv:48.0) Gecko/20100101 Firefox/48.0"
181.57.32.173 - - [16/Dec/2018:16:40:37 +0000] "GET /mysql/admin/index.php HTTP/1.1" 404 178 "-" "Mozilla/5.0 (X11; Ubuntu; Linux x86_64; rv:48.0) Gecko/20100101 Firefox/48.0"
181.57.32.173 - - [16/Dec/2018:16:40:38 +0000] "GET /mysql/dbadmin/index.php HTTP/1.1" 404 178 "-" "Mozilla/5.0 (X11; Ubuntu; Linux x86_64; rv:48.0) Gecko/20100101 Firefox/48.0"
181.57.32.173 - - [16/Dec/2018:16:40:38 +0000] "GET /mysql/sqlmanager/index.php HTTP/1.1" 404 178 "-" "Mozilla/5.0 (X11; Ubuntu; Linux x86_64; rv:48.0) Gecko/20100101 Firefox/48.0"
181.57.32.173 - - [16/Dec/2018:16:40:38 +0000] "GET /mysql/mysqlmanager/index.php HTTP/1.1" 404 178 "-" "Mozilla/5.0 (X11; Ubuntu; Linux x86_64; rv:48.0) Gecko/20100101 Firefox/48.0"
181.57.32.173 - - [16/Dec/2018:16:40:38 +0000] "GET /wp-content/plugins/portable-phpmyadmin/wp-pma-mod/index.php HTTP/1.1" 404 178 "-" "Mozilla/5.0 (X11; Ubuntu; Linux x86_64; rv:48.0) Gecko/20100101 Firefox/48.0"
181.57.32.173 - - [16/Dec/2018:16:40:39 +0000] "GET /manager/html HTTP/1.1" 404 178 "-" "Mozilla/5.0 (Windows NT 6.1; Win64; x64; rv:28.0) Gecko/20100101 Firefox/45.0"
190.119.211.58 - - [16/Dec/2018:16:48:41 +0000] "GET / HTTP/1.1" 200 612 "-" "Mozilla/5.0 (Windows NT 6.1; WOW64) AppleWebKit/537.36 (KHTML, like Gecko) Chrome/52.0.2743.116 Safari/537.36"
78.134.31.111 - - [16/Dec/2018:17:58:07 +0000] "GET / HTTP/1.1" 200 612 "-" "Mozilla/5.0 (Macintosh; Intel Mac OS X 10_11_6) AppleWebKit/601.7.7 (KHTML, like Gecko) Version/9.1.2 Safari/601.7.7"
78.134.31.111 - - [16/Dec/2018:17:58:07 +0000] "GET / HTTP/1.0" 200 612 "-" "-"
220.132.219.122 - - [16/Dec/2018:18:00:40 +0000] "GET / HTTP/1.0" 200 612 "-" "-"
91.246.91.212 - - [16/Dec/2018:18:08:55 +0000] "GET / HTTP/1.0" 301 194 "http://red-mammoth.ru/" "Mozilla/5.0 (Windows NT 6.1; rv:37.1) Gecko/20100101 Firefox/37.1"
84.22.146.12 - - [16/Dec/2018:19:18:26 +0000] "GET / HTTP/1.0" 200 612 "-" "-"
201.95.140.66 - - [16/Dec/2018:19:51:30 +0000] "GET / HTTP/1.1" 200 612 "-" "Mozilla/5.0 (Windows NT 6.1; WOW64) AppleWebKit/537.36 (KHTML, like Gecko) Chrome/51.0.2704.103 Safari/537.36"
177.53.62.190 - - [16/Dec/2018:20:13:01 +0000] "GET / HTTP/1.1" 200 612 "-" "Mozilla/5.0 (Windows NT 6.1; WOW64) AppleWebKit/537.36 (KHTML, like Gecko) Chrome/51.0.2704.103 Safari/537.36"
114.32.209.12 - - [16/Dec/2018:20:28:05 +0000] "GET / HTTP/1.0" 200 612 "-" "-"
141.237.22.255 - - [16/Dec/2018:20:37:03 +0000] "GET / HTTP/1.1" 200 612 "-" "Mozilla/5.0 (Windows NT 10.0; WOW64) AppleWebKit/537.36 (KHTML, like Gecko) Chrome/52.0.2743.116 Safari/537.36"
5.160.212.166 - - [16/Dec/2018:20:58:55 +0000] "GET / HTTP/1.1" 200 612 "-" "Mozilla/5.0 (Macintosh; Intel Mac OS X 10_11_6) AppleWebKit/601.7.7 (KHTML, like Gecko) Version/9.1.2 Safari/601.7.7"
86.205.82.32 - - [16/Dec/2018:21:46:16 +0000] "GET / HTTP/1.0" 200 612 "-" "-"
114.32.124.181 - - [16/Dec/2018:21:51:36 +0000] "GET / HTTP/1.0" 200 612 "-" "-"
62.173.154.248 - - [16/Dec/2018:21:55:02 +0000] "GET / HTTP/1.1" 200 396 "-" "python-requests/2.7.0 CPython/2.7.14 Windows/2008ServerR2"
27.78.120.103 - - [16/Dec/2018:22:12:49 +0000] "GET / HTTP/1.0" 200 612 "-" "-"
46.166.151.47 - - [16/Dec/2018:22:13:20 +0000] "GET / HTTP/1.1" 200 396 "-" "Mozilla/5.0 (Windows NT 5.1; rv:9.0.1) Gecko/20100101 Firefox/9.0.1"
46.166.151.47 - - [16/Dec/2018:22:13:20 +0000] "GET /HNAP1/ HTTP/1.1" 404 152 "http://130.193.58.204/" "Mozilla/5.0 (Windows NT 5.1; rv:9.0.1) Gecko/20100101 Firefox/9.0.1"
103.70.168.19 - - [16/Dec/2018:22:17:02 +0000] "GET / HTTP/1.0" 200 612 "-" "-"
189.68.12.72 - - [16/Dec/2018:23:06:29 +0000] "GET / HTTP/1.1" 200 612 "-" "Mozilla/5.0 (Windows NT 10.0; WOW64) AppleWebKit/537.36 (KHTML, like Gecko) Chrome/52.0.2743.116 Safari/537.36"
201.150.151.19 - - [16/Dec/2018:23:08:34 +0000] "GET / HTTP/1.1" 200 612 "-" "Mozilla/5.0 (Windows NT 10.0; WOW64) AppleWebKit/537.36 (KHTML, like Gecko) Chrome/52.0.2743.116 Safari/537.36"
89.37.196.200 - - [16/Dec/2018:23:37:23 +0000] "GET / HTTP/1.1" 200 612 "-" "Mozilla/5.0 (Windows NT 6.1; WOW64) AppleWebKit/537.36 (KHTML, like Gecko) Chrome/52.0.2743.116 Safari/537.36"
192.0.8.227 - - [16/Dec/2018:23:43:11 +0000] "GET / HTTP/1.1" 200 612 "-" "Mozilla/5.0 (Windows NT 10.0; WOW64) AppleWebKit/537.36 (KHTML, like Gecko) Chrome/52.0.2743.116 Safari/537.36"
223.105.4.248 - - [17/Dec/2018:00:51:49 +0000] "GET http://112.35.53.83:10083/index.php HTTP/1.1" 404 580 "-" "Mozilla/5.0 (Windows NT 6.1; WOW64) AppleWebKit/537.36 (KHTML, like Gecko) Chrome/47.0.2526.73 Safari/537.36 OPR/34.0.2036.25"
219.85.185.20 - - [17/Dec/2018:01:34:50 +0000] "GET / HTTP/1.0" 200 612 "-" "-"
220.133.23.6 - - [17/Dec/2018:01:38:31 +0000] "GET / HTTP/1.0" 200 612 "-" "-"
37.9.113.70 - - [17/Dec/2018:01:46:11 +0000] "GET /robots.txt HTTP/1.1" 404 178 "-" "Mozilla/5.0 (compatible; YandexBot/3.0; +http://yandex.com/bots)"
37.9.113.70 - - [17/Dec/2018:01:46:15 +0000] "GET / HTTP/1.1" 404 152 "-" "Mozilla/5.0 (compatible; YandexBot/3.0; +http://yandex.com/bots)"
179.145.17.166 - - [17/Dec/2018:02:00:37 +0000] "GET / HTTP/1.1" 200 612 "-" "Mozilla/5.0 (Windows NT 10.0; WOW64) AppleWebKit/537.36 (KHTML, like Gecko) Chrome/51.0.2704.103 Safari/537.36"
194.147.32.109 - - [17/Dec/2018:02:47:31 +0000] "\x16\x03\x01\x02\x00\x01\x00\x01\xFC\x03\x03P\xF6^t\xCF\xCF\xA5\xD5\xE5\x01\xBF\xCD0\xDD\xA5\x8DN\xDE|\x1D(\x82\xAA\x18\xE4{4\xBB\xC5T;\x0E\x00\x00\x8C\xC00\xC0,\xC02\xC0.\xC0/\xC0+\xC01\xC0-\x00\xA5\x00\xA3\x00\xA1\x00\x9F\x00\xA4\x00\xA2\x00\xA0\x00\x9E\xC0(\xC0$\xC0\x14\xC0" 400 182 "-" "-"
94.130.167.248 - - [17/Dec/2018:03:07:12 +0000] "GET / HTTP/1.1" 301 194 "-" "Mozilla/5.0 (Windows; U; Windows NT 5.1; ru; rv:1.9.0.1) Gecko/2008070208"
179.34.65.88 - - [17/Dec/2018:03:58:37 +0000] "GET / HTTP/1.0" 200 612 "-" "-"
78.188.10.142 - - [17/Dec/2018:04:01:14 +0000] "GET / HTTP/1.0" 200 612 "-" "-"
83.147.239.159 - - [17/Dec/2018:04:29:34 +0000] "GET / HTTP/1.1" 200 612 "-" "Mozilla/5.0 (Windows NT 6.1; WOW64) AppleWebKit/537.36 (KHTML, like Gecko) Chrome/51.0.2704.103 Safari/537.36"
14.235.142.169 - - [17/Dec/2018:05:03:59 +0000] "GET / HTTP/1.0" 200 612 "-" "-"
78.189.186.43 - - [17/Dec/2018:05:18:13 +0000] "GET / HTTP/1.1" 200 612 "-" "Mozilla/5.0 (Windows NT 6.1; WOW64) AppleWebKit/537.36 (KHTML, like Gecko) Chrome/51.0.2704.103 Safari/537.36"
13.57.203.114 - - [17/Dec/2018:05:51:57 +0000] "GET / HTTP/1.1" 200 396 "-" "Mozilla/5.0 (Macintosh; Intel Mac OS X 10_11_5) AppleWebKit/537.36 (KHTML, like Gecko) Chrome/50.0.2661.102 Safari/537.36"
142.93.131.14 - - [17/Dec/2018:05:53:34 +0000] "GET /.git/HEAD HTTP/1.1" 301 194 "-" "Mozilla/5.0 (compatible; Googlebot/2.1; +http://www.google.com/bot.html)"
218.211.168.178 - - [17/Dec/2018:06:13:31 +0000] "GET /. HTTP/1.1" 301 194 "-" "Mozilla/5.0"
218.211.168.178 - - [17/Dec/2018:06:13:31 +0000] "GET / HTTP/1.1" 200 396 "http://130.193.58.204:80/." "Mozilla/5.0"
