75.107.75.143 - - [20/Dec/2018:07:25:39 +0000] "GET / HTTP/1.1" 200 612 "-" "Mozilla/5.0 (Macintosh; Intel Mac OS X 10_11_6) AppleWebKit/601.7.7 (KHTML, like Gecko) Version/9.1.2 Safari/601.7.7"
31.44.249.251 - - [20/Dec/2018:10:01:46 +0000] "GET / HTTP/1.1" 200 612 "-" "Mozilla/5.0 (Windows NT 10.0; WOW64) AppleWebKit/537.36 (KHTML, like Gecko) Chrome/52.0.2743.116 Safari/537.36"
64.74.215.138 - - [20/Dec/2018:10:40:32 +0000] "GET / HTTP/1.1" 301 194 "-" "Mozilla/5.0 (Windows NT 6.1) AppleWebKit/537.36 (KHTML, like Gecko) Chrome/56.0.2924.76 Safari/537.36"
185.53.88.2 - - [20/Dec/2018:10:58:31 +0000] "HEAD /robots.txt HTTP/1.0" 404 0 "-" "-"
60.191.38.77 - - [20/Dec/2018:11:03:31 +0000] "GET / HTTP/1.1" 200 612 "-" "Mozilla/5.0 (Macintosh; Intel Mac OS X 10.11; rv:47.0) Gecko/20100101 Firefox/47.0"
103.10.54.34 - - [20/Dec/2018:11:32:58 +0000] "GET / HTTP/1.1" 200 612 "-" "Mozilla/5.0 (Windows NT 10.0; WOW64) AppleWebKit/537.36 (KHTML, like Gecko) Chrome/52.0.2743.116 Safari/537.36"
222.252.215.7 - - [20/Dec/2018:12:08:15 +0000] "GET / HTTP/1.0" 200 612 "-" "-"
5.188.62.117 - - [20/Dec/2018:13:57:51 +0000] "GET / HTTP/1.1" 301 194 "-" "Mozilla/5.0 (Windows NT 10.0; Win64; x64) AppleWebKit/537.36 (KHTML, like Gecko) Chrome/61.0.3163.100 Safari/537.36"
94.61.139.199 - - [20/Dec/2018:14:11:04 +0000] "GET / HTTP/1.0" 200 612 "-" "-"
90.178.21.192 - - [20/Dec/2018:14:25:06 +0000] "GET / HTTP/1.1" 200 612 "-" "Mozilla/5.0 (Windows NT 6.1; WOW64) AppleWebKit/537.36 (KHTML, like Gecko) Chrome/51.0.2704.103 Safari/537.36"
91.243.239.51 - - [20/Dec/2018:14:25:22 +0000] "GET / HTTP/1.1" 200 612 "-" "Mozilla/5.0 (Windows NT 10.0; WOW64) AppleWebKit/537.36 (KHTML, like Gecko) Chrome/51.0.2704.103 Safari/537.36"
94.130.66.60 - - [20/Dec/2018:14:44:18 +0000] "GET /robots.txt HTTP/1.1" 301 194 "-" "Mozilla/5.0 (compatible; BLEXBot/1.0; +http://webmeup-crawler.com/)"
138.121.128.6 - - [20/Dec/2018:15:12:22 +0000] "GET / HTTP/1.1" 200 612 "-" "Mozilla/5.0 (Windows NT 10.0; WOW64) AppleWebKit/537.36 (KHTML, like Gecko) Chrome/52.0.2743.116 Safari/537.36"
92.15.163.21 - - [20/Dec/2018:16:28:58 +0000] "GET / HTTP/1.1" 200 612 "-" "Mozilla/5.0 (Windows NT 10.0; WOW64) AppleWebKit/537.36 (KHTML, like Gecko) Chrome/51.0.2704.103 Safari/537.36"
107.181.78.158 - - [20/Dec/2018:16:35:37 +0000] "GET / HTTP/1.0" 301 194 "http://red-mammoth.ru/" "Mozilla/5.0 (Windows NT 10.0; Win64; x64) AppleWebKit/537.36 (KHTML, like Gecko) Chrome/58.0.3029.110 Safari/537.36 Edge/16.16299"
5.178.239.124 - - [20/Dec/2018:16:41:55 +0000] "GET / HTTP/1.1" 200 612 "-" "Mozilla/5.0 (Windows NT 10.0; WOW64) AppleWebKit/537.36 (KHTML, like Gecko) Chrome/51.0.2704.103 Safari/537.36"
114.32.165.146 - - [20/Dec/2018:16:49:48 +0000] "GET / HTTP/1.0" 200 612 "-" "-"
5.12.30.190 - - [20/Dec/2018:17:02:45 +0000] "GET / HTTP/1.0" 200 612 "-" "-"
177.38.182.29 - - [20/Dec/2018:17:30:39 +0000] "GET / HTTP/1.1" 200 612 "-" "Mozilla/5.0 (Windows NT 6.1; WOW64) AppleWebKit/537.36 (KHTML, like Gecko) Chrome/51.0.2704.103 Safari/537.36"
94.130.66.60 - - [20/Dec/2018:17:57:49 +0000] "GET /robots.txt HTTP/1.1" 301 194 "-" "Mozilla/5.0 (compatible; BLEXBot/1.0; +http://webmeup-crawler.com/)"
52.53.201.78 - - [20/Dec/2018:18:38:07 +0000] "GET / HTTP/1.1" 404 209 "-" "Mozilla/5.0 (Macintosh; Intel Mac OS X 10_12_6) AppleWebKit/537.36 (KHTML, like Gecko) Chrome/61.0.3163.100 Safari/537.36"
194.9.83.1 - - [20/Dec/2018:19:07:12 +0000] "GET / HTTP/1.1" 200 612 "-" "Mozilla/5.0 (Windows NT 6.1; WOW64) AppleWebKit/537.36 (KHTML, like Gecko) Chrome/52.0.2743.116 Safari/537.36"
77.233.7.42 - - [20/Dec/2018:19:33:00 +0000] "GET / HTTP/1.1" 200 612 "-" "Mozilla/5.0 (Windows NT 10.0; WOW64) AppleWebKit/537.36 (KHTML, like Gecko) Chrome/52.0.2743.116 Safari/537.36"
60.191.38.77 - - [20/Dec/2018:19:38:45 +0000] "GET / HTTP/1.1" 200 612 "-" "Mozilla/5.0 (Macintosh; Intel Mac OS X 10.11; rv:47.0) Gecko/20100101 Firefox/47.0"
178.141.81.115 - - [20/Dec/2018:19:48:33 +0000] "GET / HTTP/1.0" 200 612 "-" "-"
178.141.81.115 - - [20/Dec/2018:19:48:36 +0000] "GET / HTTP/1.0" 200 612 "-" "-"
178.141.81.115 - - [20/Dec/2018:19:48:40 +0000] "GET / HTTP/1.0" 200 612 "-" "-"
218.161.53.14 - - [20/Dec/2018:20:14:23 +0000] "GET / HTTP/1.0" 200 612 "-" "-"
103.251.208.113 - - [20/Dec/2018:21:41:37 +0000] "GET / HTTP/1.1" 200 612 "-" "Mozilla/5.0 (Windows NT 6.1; WOW64) AppleWebKit/537.36 (KHTML, like Gecko) Chrome/51.0.2704.103 Safari/537.36"
68.183.214.68 - - [20/Dec/2018:21:52:41 +0000] "GET / HTTP/1.1" 301 194 "http://itroot.org/cb/56874a3879" "Mozilla/4.0 (compatible;itroot/1.0;+http://itroot.org/)"
94.130.66.60 - - [20/Dec/2018:22:56:50 +0000] "GET /robots.txt HTTP/1.1" 301 194 "-" "Mozilla/5.0 (compatible; BLEXBot/1.0; +http://webmeup-crawler.com/)"
54.37.74.154 - - [20/Dec/2018:23:27:55 +0000] "GET / HTTP/1.0" 200 612 "-" "-"
36.37.221.100 - - [20/Dec/2018:23:40:34 +0000] "GET / HTTP/1.0" 200 612 "-" "-"
194.147.32.109 - - [21/Dec/2018:00:12:01 +0000] "\x16\x03\x01\x02\x00\x01\x00\x01\xFC\x03\x03\xF9)\x1F\x0Fsu\xACtM\x03\x17\x92X~)\x7F\xC0\x8E}\xDB\xFD\x0E8\x11,\xDB\xBE\xEA\x97\xD7cI\x00\x00\x8C\xC00\xC0,\xC02\xC0.\xC0/\xC0+\xC01\xC0-\x00\xA5\x00\xA3\x00\xA1\x00\x9F\x00\xA4\x00\xA2\x00\xA0\x00\x9E\xC0(\xC0$\xC0\x14\xC0" 400 182 "-" "-"
171.243.1.13 - - [21/Dec/2018:00:31:12 +0000] "GET / HTTP/1.0" 200 612 "-" "-"
186.226.183.147 - - [21/Dec/2018:00:58:36 +0000] "GET / HTTP/1.1" 200 612 "-" "Mozilla/5.0 (Macintosh; Intel Mac OS X 10_11_6) AppleWebKit/601.7.7 (KHTML, like Gecko) Version/9.1.2 Safari/601.7.7"
82.146.63.123 - - [21/Dec/2018:01:21:46 +0000] "GET / HTTP/1.1" 301 194 "-" "Go 1.1 package http"
83.148.235.123 - - [21/Dec/2018:01:29:04 +0000] "GET / HTTP/1.1" 200 612 "-" "Mozilla/5.0 (Windows NT 6.1; WOW64) AppleWebKit/537.36 (KHTML, like Gecko) Chrome/51.0.2704.103 Safari/537.36"
138.122.22.189 - - [21/Dec/2018:02:36:58 +0000] "GET / HTTP/1.1" 200 612 "-" "Mozilla/5.0 (Windows NT 10.0; WOW64) AppleWebKit/537.36 (KHTML, like Gecko) Chrome/52.0.2743.116 Safari/537.36"
180.167.221.138 - - [21/Dec/2018:02:42:42 +0000] "GET / HTTP/1.1" 404 209 "-" "Mozilla/5.0 (Windows NT 10.0; Win64; x64) AppleWebKit/537.36 (KHTML, like Gecko) Chrome/62.0.3202.94 Safari/537.36"
103.245.11.105 - - [21/Dec/2018:03:32:29 +0000] "GET / HTTP/1.1" 200 612 "-" "Mozilla/5.0 (Windows NT 6.1; WOW64) AppleWebKit/537.36 (KHTML, like Gecko) Chrome/52.0.2743.116 Safari/537.36"
46.34.185.133 - - [21/Dec/2018:04:50:44 +0000] "GET / HTTP/1.1" 200 612 "-" "Mozilla/5.0 (Windows NT 10.0; WOW64) AppleWebKit/537.36 (KHTML, like Gecko) Chrome/52.0.2743.116 Safari/537.36"
201.203.104.254 - - [21/Dec/2018:05:16:06 +0000] "GET / HTTP/1.1" 200 612 "-" "Mozilla/5.0 (Windows NT 6.1; WOW64) AppleWebKit/537.36 (KHTML, like Gecko) Chrome/52.0.2743.116 Safari/537.36"
14.251.30.138 - - [21/Dec/2018:06:19:19 +0000] "GET / HTTP/1.0" 200 612 "-" "-"
162.244.147.176 - - [21/Dec/2018:06:21:02 +0000] "GET / HTTP/1.0" 301 194 "-" "Mozilla/5.0 (Windows NT 10.0; Win64; x64) AppleWebKit/537.36 (KHTML, like Gecko) Chrome/69.0.3497.100 Safari/537.36"
