71.6.202.198 - - [21/Dec/2018:06:47:58 +0000] "GET /ccvv HTTP/1.1" 404 209 "-" "Mozilla/5.0 (compatible; MSIE 9.0; Windows NT 6.1; WOW64)"
180.180.57.116 - - [21/Dec/2018:07:02:54 +0000] "GET / HTTP/1.1" 200 612 "-" "Mozilla/5.0 (Windows NT 6.1; WOW64) AppleWebKit/537.36 (KHTML, like Gecko) Chrome/52.0.2743.116 Safari/537.36"
168.205.32.120 - - [21/Dec/2018:07:05:11 +0000] "GET / HTTP/1.1" 200 612 "-" "Mozilla/5.0 (Windows NT 6.1; WOW64) AppleWebKit/537.36 (KHTML, like Gecko) Chrome/51.0.2704.103 Safari/537.36"
138.121.128.6 - - [21/Dec/2018:07:31:50 +0000] "GET / HTTP/1.1" 200 612 "-" "Mozilla/5.0 (Windows NT 6.1; WOW64) AppleWebKit/537.36 (KHTML, like Gecko) Chrome/52.0.2743.116 Safari/537.36"
188.134.26.117 - - [21/Dec/2018:07:38:10 +0000] "GET / HTTP/1.0" 200 612 "-" "-"
31.25.176.112 - - [21/Dec/2018:08:10:08 +0000] "GET / HTTP/1.1" 200 612 "-" "Mozilla/5.0 (Windows NT 10.0; WOW64) AppleWebKit/537.36 (KHTML, like Gecko) Chrome/52.0.2743.116 Safari/537.36"
94.130.66.60 - - [21/Dec/2018:08:17:40 +0000] "GET /robots.txt HTTP/1.1" 301 194 "-" "Mozilla/5.0 (compatible; BLEXBot/1.0; +http://webmeup-crawler.com/)"
177.11.142.19 - - [21/Dec/2018:08:55:04 +0000] "GET / HTTP/1.1" 200 612 "-" "Mozilla/5.0 (Windows NT 6.1; WOW64) AppleWebKit/537.36 (KHTML, like Gecko) Chrome/52.0.2743.116 Safari/537.36"
193.124.184.132 - - [21/Dec/2018:09:18:22 +0000] "GET http://82.146.38.46:8080/prox_ch.php HTTP/1.1" 404 178 "-" "-"
176.126.52.143 - - [21/Dec/2018:09:57:09 +0000] "GET / HTTP/1.1" 200 612 "-" "Mozilla/5.0 (Windows NT 10.0; WOW64) AppleWebKit/537.36 (KHTML, like Gecko) Chrome/52.0.2743.116 Safari/537.36"
123.21.207.113 - - [21/Dec/2018:10:24:02 +0000] "GET / HTTP/1.0" 200 612 "-" "-"
47.90.16.219 - - [21/Dec/2018:10:40:26 +0000] "GET / HTTP/1.1" 301 194 "-" "Mozilla/5.0 (X11; Ubuntu; Linux x86_64; rv:36.0) Gecko/20100101 Firefox/36.0"
213.180.203.59 - - [21/Dec/2018:10:46:48 +0000] "GET /robots.txt HTTP/1.1" 404 178 "-" "Mozilla/5.0 (compatible; YandexBot/3.0; +http://yandex.com/bots)"
37.9.113.70 - - [21/Dec/2018:10:46:51 +0000] "GET / HTTP/1.1" 404 152 "-" "Mozilla/5.0 (compatible; YandexBot/3.0; +http://yandex.com/bots)"
5.188.210.53 - - [21/Dec/2018:11:37:30 +0000] "GET / HTTP/1.0" 301 194 "http://red-mammoth.ru/" "Mozilla/5.0 (Windows NT 6.1; Win64; x64) AppleWebKit/537.36 (KHTML, like Gecko) Chrome/67.0.3396.87 Safari/537.36 OPR/54.0.2952.54"
124.120.238.28 - - [21/Dec/2018:12:22:03 +0000] "GET / HTTP/1.0" 200 612 "-" "-"
42.113.103.134 - - [21/Dec/2018:12:51:02 +0000] "GET / HTTP/1.0" 200 612 "-" "-"
186.233.179.61 - - [21/Dec/2018:13:00:41 +0000] "GET / HTTP/1.1" 200 612 "-" "Mozilla/5.0 (Macintosh; Intel Mac OS X 10_11_6) AppleWebKit/601.7.7 (KHTML, like Gecko) Version/9.1.2 Safari/601.7.7"
93.183.240.119 - - [21/Dec/2018:13:50:54 +0000] "GET / HTTP/1.1" 200 612 "-" "Mozilla/5.0 (Macintosh; Intel Mac OS X 10_11_6) AppleWebKit/601.7.7 (KHTML, like Gecko) Version/9.1.2 Safari/601.7.7"
138.201.255.45 - - [21/Dec/2018:14:10:32 +0000] "GET / HTTP/1.1" 301 194 "-" "Mozilla/5.0 (Macintosh; Intel Mac OS X 10_12_6) AppleWebKit/537.36 (KHTML, like Gecko) Chrome/60.0.3112.90 Safari/537.36"
138.201.255.45 - - [21/Dec/2018:14:11:01 +0000] "GET / HTTP/1.1" 301 194 "-" "Mozilla/5.0 (Macintosh; Intel Mac OS X 10_12_6) AppleWebKit/537.36 (KHTML, like Gecko) Chrome/60.0.3112.90 Safari/537.36"
178.62.4.246 - - [21/Dec/2018:14:11:25 +0000] "GET / HTTP/1.1" 301 194 "-" "Mozilla/5.0 (Macintosh; Intel Mac OS X 10_12_6) AppleWebKit/537.36 (KHTML, like Gecko) Chrome/60.0.3112.90 Safari/537.36"
173.212.225.214 - - [21/Dec/2018:15:12:02 +0000] "\x16\x03\x01\x02\x00\x01\x00\x01\xFC\x03\x035}\xA3\x13\x15T[A" 400 182 "-" "-"
118.163.117.180 - - [21/Dec/2018:15:50:54 +0000] "GET / HTTP/1.0" 200 612 "-" "-"
139.162.119.197 - - [21/Dec/2018:15:52:37 +0000] "GET / HTTP/1.1" 200 612 "-" "HTTP Banner Detection (https://security.ipip.net)"
185.64.209.208 - - [21/Dec/2018:15:57:05 +0000] "GET / HTTP/1.1" 200 612 "-" "Mozilla/5.0 (Windows NT 6.1; WOW64) AppleWebKit/537.36 (KHTML, like Gecko) Chrome/52.0.2743.116 Safari/537.36"
181.210.46.166 - - [21/Dec/2018:16:29:54 +0000] "GET / HTTP/1.1" 200 612 "-" "Mozilla/5.0 (Windows NT 10.0; WOW64) AppleWebKit/537.36 (KHTML, like Gecko) Chrome/51.0.2704.103 Safari/537.36"
79.183.36.141 - - [21/Dec/2018:16:40:02 +0000] "GET / HTTP/1.0" 200 612 "-" "-"
187.72.78.109 - - [21/Dec/2018:16:51:48 +0000] "GET / HTTP/1.1" 200 612 "-" "Mozilla/5.0 (Windows NT 6.1; WOW64) AppleWebKit/537.36 (KHTML, like Gecko) Chrome/52.0.2743.116 Safari/537.36"
64.74.215.1 - - [21/Dec/2018:16:57:15 +0000] "GET / HTTP/1.1" 301 194 "-" "Mozilla/5.0 (Windows NT 6.1) AppleWebKit/537.36 (KHTML, like Gecko) Chrome/56.0.2924.76 Safari/537.36"
37.9.113.70 - - [21/Dec/2018:17:17:03 +0000] "GET /robots.txt HTTP/1.1" 301 194 "-" "Mozilla/5.0 (compatible; YandexBot/3.0; +http://yandex.com/bots)"
37.9.113.70 - - [21/Dec/2018:17:17:07 +0000] "GET /favicon.ico HTTP/1.1" 301 194 "-" "Mozilla/5.0 (compatible; YandexBot/3.0; +http://yandex.com/bots)"
117.239.141.218 - - [21/Dec/2018:18:02:29 +0000] "GET / HTTP/1.0" 200 612 "-" "-"
103.53.109.206 - - [21/Dec/2018:18:19:30 +0000] "GET / HTTP/1.1" 200 612 "-" "Mozilla/5.0 (Windows NT 10.0; WOW64) AppleWebKit/537.36 (KHTML, like Gecko) Chrome/51.0.2704.103 Safari/537.36"
197.35.26.250 - - [21/Dec/2018:19:01:24 +0000] "GET / HTTP/1.1" 200 612 "-" "Mozilla/5.0 (Macintosh; Intel Mac OS X 10_11_6) AppleWebKit/601.7.7 (KHTML, like Gecko) Version/9.1.2 Safari/601.7.7"
177.45.144.37 - - [21/Dec/2018:19:13:36 +0000] "GET / HTTP/1.1" 200 612 "-" "Mozilla/5.0 (Windows NT 10.0; WOW64) AppleWebKit/537.36 (KHTML, like Gecko) Chrome/52.0.2743.116 Safari/537.36"
100.25.219.18 - - [21/Dec/2018:19:17:04 +0000] "GET / HTTP/1.1" 200 396 "-" "Mozilla/5.0 (Windows NT 6.2;en-US) AppleWebKit/537.32.36 (KHTML, live Gecko) Chrome/52.0.3037.81 Safari/537.32"
66.29.161.190 - - [21/Dec/2018:19:25:30 +0000] "GET / HTTP/1.1" 200 612 "-" "Mozilla/5.0 (Windows NT 6.1; WOW64) AppleWebKit/537.36 (KHTML, like Gecko) Chrome/52.0.2743.116 Safari/537.36"
94.130.66.60 - - [21/Dec/2018:19:33:41 +0000] "GET /robots.txt HTTP/1.1" 301 194 "-" "Mozilla/5.0 (compatible; BLEXBot/1.0; +http://webmeup-crawler.com/)"
59.126.182.199 - - [21/Dec/2018:19:39:05 +0000] "GET / HTTP/1.0" 200 612 "-" "-"
59.126.182.199 - - [21/Dec/2018:19:39:10 +0000] "GET / HTTP/1.0" 200 612 "-" "-"
177.105.226.7 - - [21/Dec/2018:19:46:04 +0000] "GET / HTTP/1.1" 200 612 "-" "Mozilla/5.0 (Windows NT 6.1; WOW64) AppleWebKit/537.36 (KHTML, like Gecko) Chrome/52.0.2743.116 Safari/537.36"
179.225.208.223 - - [21/Dec/2018:20:00:02 +0000] "GET / HTTP/1.1" 200 612 "-" "Mozilla/5.0 (Windows NT 10.0; WOW64) AppleWebKit/537.36 (KHTML, like Gecko) Chrome/52.0.2743.116 Safari/537.36"
141.105.70.47 - - [21/Dec/2018:20:58:08 +0000] "GET / HTTP/1.1" 200 612 "-" "-"
212.109.217.105 - - [21/Dec/2018:22:04:28 +0000] "GET / HTTP/1.1" 301 194 "-" "-"
103.47.168.232 - - [21/Dec/2018:22:07:14 +0000] "GET / HTTP/1.1" 200 612 "-" "Mozilla/5.0 (Macintosh; Intel Mac OS X 10_11_6) AppleWebKit/601.7.7 (KHTML, like Gecko) Version/9.1.2 Safari/601.7.7"
193.105.174.9 - - [21/Dec/2018:22:11:36 +0000] "GET / HTTP/1.1" 301 194 "-" "Mozilla/5.0 (compatible; YandexBot/3.0; +http://yandex.com/bots)"
121.52.143.192 - - [21/Dec/2018:22:41:42 +0000] "GET / HTTP/1.1" 200 612 "-" "Mozilla/5.0 (Macintosh; Intel Mac OS X 10_11_6) AppleWebKit/601.7.7 (KHTML, like Gecko) Version/9.1.2 Safari/601.7.7"
81.30.4.20 - - [21/Dec/2018:23:11:42 +0000] "GET / HTTP/1.1" 200 612 "-" "Mozilla/5.0 (Windows NT 6.1; WOW64) AppleWebKit/537.36 (KHTML, like Gecko) Chrome/51.0.2704.103 Safari/537.36"
64.74.215.1 - - [21/Dec/2018:23:37:40 +0000] "GET / HTTP/1.1" 301 194 "-" "Mozilla/5.0 (Windows NT 6.1) AppleWebKit/537.36 (KHTML, like Gecko) Chrome/56.0.2924.76 Safari/537.36"
104.152.52.25 - - [22/Dec/2018:00:47:22 +0000] "GET / HTTP/1.0" 200 612 "-" "masscan/1.0 (https://github.com/robertdavidgraham/masscan)"
186.154.140.134 - - [22/Dec/2018:00:55:54 +0000] "GET / HTTP/1.0" 200 612 "-" "-"
37.9.113.70 - - [22/Dec/2018:00:56:40 +0000] "GET /robots.txt HTTP/1.1" 301 194 "-" "Mozilla/5.0 (compatible; YandexBot/3.0; +http://yandex.com/bots)"
37.9.113.70 - - [22/Dec/2018:00:56:44 +0000] "GET / HTTP/1.1" 301 194 "-" "Mozilla/5.0 (compatible; YandexBot/3.0; +http://yandex.com/bots)"
118.150.137.89 - - [22/Dec/2018:01:06:14 +0000] "GET / HTTP/1.0" 200 612 "-" "-"
123.205.89.73 - - [22/Dec/2018:01:23:27 +0000] "GET / HTTP/1.0" 200 612 "-" "-"
103.74.68.18 - - [22/Dec/2018:02:03:37 +0000] "GET / HTTP/1.1" 200 612 "-" "Mozilla/5.0 (Windows NT 10.0; WOW64) AppleWebKit/537.36 (KHTML, like Gecko) Chrome/52.0.2743.116 Safari/537.36"
46.19.141.142 - - [22/Dec/2018:02:10:50 +0000] "GET / HTTP/1.1" 200 396 "-" "Mozilla/5.0 (Windows NT 6.1; WOW64; rv:47.0) Gecko/20100101 Firefox/47.0"
104.131.133.229 - - [22/Dec/2018:02:16:53 +0000] "GET / HTTP/1.1" 200 396 "-" "Mozilla/5.0 zgrab/0.x"
91.236.62.45 - - [22/Dec/2018:04:23:27 +0000] "GET / HTTP/1.0" 200 612 "-" "-"
202.138.249.194 - - [22/Dec/2018:04:46:36 +0000] "GET / HTTP/1.1" 200 612 "-" "Mozilla/5.0 (Windows NT 10.0; WOW64) AppleWebKit/537.36 (KHTML, like Gecko) Chrome/52.0.2743.116 Safari/537.36"
5.188.210.53 - - [22/Dec/2018:06:16:50 +0000] "GET / HTTP/1.0" 301 194 "http://red-mammoth.ru/" "Mozilla/5.0 (Windows NT 6.1; Win64; x64) AppleWebKit/537.36 (KHTML, like Gecko) Chrome/67.0.3396.87 Safari/537.36 OPR/54.0.2952.54"
